​
കേന്ദ്ര ക്രൂരദർശൻ കേന്ദ്രത്തിന്റെ ഇംഗ്ലീഷ് ന്യൂസ് വായനക്കാരിൽ ചിലരുടെ പാരായണം കേൾക്കുന്നതിനെക്കാൾ എനിക്കിഷ്ടം ചെമ്പുകിടാരത്തിലെ തിളപ്പിച്ച വെളിച്ചെണ്ണയിൽ എന്നെ ജീവനോടെയിട്ടു പൊരിക്കുന്നതാണു്.
“പഞ്ചാബിൽ ഇന്നു മുപ്പതുപേർ വധിക്കപ്പെട്ടു”—ഈ വാർത്ത ടെലിവിഷൻ സെറ്റിൽനിന്നു കേട്ടു് ഞാൻ ദുഃഖിച്ചിരിക്കുമ്പോൾ മരിച്ചവരുടെ ശരീരങ്ങൾ കാണുന്നു. അവരുടെ ബന്ധുക്കൾ നെഞ്ചിലിടിച്ചു കരയുന്നതു കേൾക്കുന്നു. വെടിയുണ്ടയേറ്റ കൊച്ചു കുഞ്ഞുങ്ങൾ ചത്തുമലർന്നു കിടക്കുന്നതു കാണുന്നു. പിന്നീടുള്ള ഒരു വാർത്തയിലും ഒരു ദൃശ്യത്തിലും താല്പര്യമില്ലാതെ തലതാഴ്ത്തിയിരിക്കുന്ന എന്റെ മുൻപിൽ അതാ അധികാരത്തിന്റെ പ്രതിരൂപം ആവിർഭവിക്കുന്നു. ആ പ്രതിരൂപം മൊഴിയാടുകയാണു്: “സ്റ്റെപ്സ് വിൽ ബി ടേക്കൻ… ”—“നടപടികളെടുക്കും”. കഴിഞ്ഞ എത്രയോ വർഷങ്ങളായി ഞാൻ ഈ ദാരുണവധങ്ങളെക്കുറിച്ചു കേൾക്കുന്നു. അപ്പോഴൊക്കെ സ്റ്റെപ്സ് വിൽ ബി ടേക്കൻ എന്ന ഇംഗ്ലീഷ് വാക്കുകളും കേൾക്കുന്നു. എന്തേ സ്റ്റെപ്സ് എടുക്കാത്തതു് ഇതുവരെ?
കഴിഞ്ഞയാഴ്ച വീണ്ടും കേട്ടു ഈ അർത്ഥരഹിതങ്ങളായ വാക്കുകൾ. ഐലൻഡ് എക്സ്പ്രസ്സ് തീവണ്ടി, പാലത്തിലെത്തി. പല ബോഗികളും കായലിൽ വീണു. നൂറ്റുക്കണക്കിനു് ആളുകൾ മരിച്ചു. എന്റെ സുഹൃത്തായ പ്രൊഫസർ പദ്മനാഭൻനായരും ഈ ലോകം വിട്ടുപോയി. ഇതൊക്കെ പത്രത്തിൽ വായിച്ചു്, നിറഞ്ഞ കണ്ണുകളോടെ ഇരുന്ന എന്റെ മുൻപിൽ വേറൊരു പത്രവാർത്ത. കേന്ദ്രസർക്കാരിന്റെ പ്രതിനിധി പറയുന്നു: “സ്റ്റെപ്സ് വിൽ ബി ടേക്കൻറ് റു അവേർട് സച്ച് ട്രാജഡീസ് ഇൻ ഫ്യൂച്ചർ”. ഈ വാക്യവും ഞാൻ അനേകം വർഷങ്ങളായി കേൾക്കുന്നു. കേട്ടുകേട്ടു് ഇതിനു് അർത്ഥമില്ലാതെയായി തീർന്നിരിക്കുന്നു.
ദുരന്തത്തിൽ ഹൃദയംനൊന്തു് കേരളത്തിലെ ഒരു മന്ത്രി പറഞ്ഞു, പാളം നേരത്തേ നോക്കി അറ്റകുറ്റപ്പണികൾ ചെയ്യാത്തതുകൊണ്ടാവാം അപകടമുണ്ടായതെന്നു്. അതുകേട്ട കേന്ദ്രമന്ത്രിക്കു രസിച്ചില്ല. കേരളത്തിലെ മന്ത്രിക്കു സ്പോർട്സ് കാര്യങ്ങളിൽ മാത്രമല്ല അവഗാഹം, റെയിൽവേയെ സംബന്ധിക്കുന്ന വിഷയങ്ങളിലും അതുണ്ടെന്നു് അദ്ദേഹം പുച്ഛിച്ചു പറഞ്ഞുകളഞ്ഞു. എന്തൊരു നൃശംസതയാണിതു? സ്വന്തം സഹോദരങ്ങൾ തലയിടിച്ചും വെള്ളത്തിൽ മുങ്ങിയും മരിച്ചു വെന്നു കേട്ടു ദുഃഖിച്ചു് കേരളത്തിലെ ഒരു മന്ത്രി ഒരഭിപ്രായം പറഞ്ഞപ്പോൾ മൗനം അവലംബിക്കാനുള്ള വിവേകംപോലും കേന്ദ്രമന്ത്രിക്കുണ്ടായില്ല. മാത്രമല്ല, പുച്ഛത്തോടെ അദ്ദേഹം സംസാരിക്കുകയും ചെയ്തു. രാഷ്ട്രീയമായ പരിഗണനകളല്ലേ ഈ ആക്ഷേപത്തിനു ഹേതുവെന്നു് ബുദ്ധിമാനായ ഒരു പത്രപ്രതിനിധി ചോദിച്ചപ്പോൾ വീണ്ടും പുച്ഛത്തിന്റെ വാക്കുകൾ. “അല്ലേയല്ല”. നാടാകെ ഒരു ദുരന്തത്തിന്റെ മുൻപിൽ ഞെട്ടിനില്ക്കുമ്പോൾ മനുഷ്യത്വമുള്ള ഒരാളിന്റെ നാവിൽനിന്നും അന്യനെ ആക്ഷേപിക്കുന്ന വാക്കുകൾ വരില്ല. വരുന്നുണ്ടെങ്കിൽ ആ മനുഷ്യൻ സ്റ്റെപ്സ് വിൽ ബി ടേക്കൻ… എന്ന അർത്ഥരഹിതങ്ങളായ പദങ്ങൾ ആവർത്തിക്കുന്ന ആൾ മാത്രമായിരിക്കും.
അടുത്തകാലത്തു് ഞാൻ തീവണ്ടിയാത്രക്കാരനായി മാറിയിട്ടുണ്ടു്. ഐലൻഡ് എക്സ്പ്രസ്സ് ട്രെയിനിൽത്തന്നെയാണു് ഞാൻ വടക്കോട്ടു പോകുന്നതും തിരിച്ചുവരുന്നതും. ഞാൻ പോകുകയോ വരികയോ ചെയ്യുമ്പോൾ തീവണ്ടിയിൽ ഞാൻ റിസർവ്ചെയ്ത സീറ്റിൽ ട്രെയിൻ ടിക്കറ്റ് എക്സാമിനറുടെ അനുവാദത്തോടെ വേറൊരാൾ ഇരിക്കുന്നുണ്ടായിരിക്കും. ഞാൻ ഗത്യന്തരമില്ലാതെ വേറെ ഒരിടത്തു് ഞെരുങ്ങിയിരിക്കും. യാചകർ എന്നെ നിരന്തരം ശല്യം ചെയ്യും. സ്റ്റീൽ പ്ലേറ്റിൽ വൃത്തികെട്ട ചോറും കൂട്ടാനും എനിക്കു കിട്ടും. കുഷ്ഠരോഗി വാവച്ചു കുടിച്ചകപ്പ് കഴുകാതെ കാപ്പി വില്പനക്കാരൻ അതിൽ എനിക്കു കാപ്പിയൊഴിച്ചുതരും. ദാഹം സഹിക്കാനാവാതെ ഞാനതു വാങ്ങിക്കുടിക്കും. ഈച്ചയരിക്കുന്ന വട ഞാൻ പ്ലാറ്റ്ഫോമിൽനിന്നു വാങ്ങിക്കഴിക്കും. മുഖമൊന്നു കഴുകാനായി വാഷ്ബേസിനടുത്തു ചെന്നാൽ തീവണ്ടിയുടെ കുലുക്കംകൊണ്ടു് തുറന്നുകിടക്കുന്ന വാതിൽവഴി ഞാൻ തെറിച്ചു വെളിയിൽ വീഴുമെന്നു പേടിക്കും. ട്രെയിൻ ഏതെങ്കിലും പാലത്തിൽ കയറുമ്പോൾ താഴെയുള്ള കായൽനോക്കി ഞാൻ ഞെട്ടും. ഇതൊക്കെ സംഭവിക്കും. കാരണം, ‘സ്റ്റെപ്സ് വിൽ ബി ടേക്കൻ’ എന്നു മാത്രം പറയുന്ന അധികാരികളുള്ള ഒരു രാജ്യത്തു് ജീവിക്കുന്നവനാണു് ഞാൻ.
സംഭവിച്ച അപകടത്തിന്റെ വിശദവിവരങ്ങൾ മാന്യവായനക്കാർക്കു് അറിയാൻ താല്പര്യം കാണുമല്ലോ. അവർക്കു് കലാകൗമുദിയിലെ 27 പുറങ്ങളോളമുള്ള റിപോർട്ട് പ്രയോജനപ്രദമാണു്. ഇതെഴുതിയ കെ. ബാലചന്ദ്രൻ അഭിനന്ദനം അർഹിക്കുന്നു.
കലാകൗമുദിയുടെ അഞ്ചാംപുറത്തിൽ എഞ്ചിൻ പാളത്തിൽ നില്ക്കുന്ന ചിത്രമുണ്ടു്. അതിന്റെ മുൻപിലുള്ള ‘സ്ലീപ്പേഴ്സാ’കെ പാളത്തിൽനിന്നു വേർപെട്ടു കിടക്കുന്നു. ബോഗികൾ മറിഞ്ഞപ്പോൾ ഇവയ്ക്കു സ്ഥാന ചലനം സംഭവിച്ചതാണോ? അതോ നേരത്തേ തന്നെ ഇളകിക്കിടന്നോ?
ഞാൻ ശാസ്താംകോട്ടെ പ്രാഥമിക വിദ്യാലയത്തിൽ പഠിച്ചിട്ടുണ്ടു്. രണ്ടാംക്ലാസ്സിലായിരുന്നു എന്നാണു് എന്റെ ഓർമ്മ. ശുദ്ധജലതടാകത്തിനടുത്തായിരുന്നു ഞങ്ങളുടെ താമസം. വിദ്യാലയത്തിൽനിന്നു വന്നാൽ തടാകത്തിൽ കുളിക്കാൻ പോകും. കുളികഴിഞ്ഞാൽ കരയിലിരുന്നു കായൽ നോക്കിക്കൊണ്ടിരിക്കും. മറ്റാരുംകൂടാതെ കുളിക്കാൻ പോകുന്നതും ഒറ്റയ്ക്കു കായൽക്കരയിലിരിക്കുന്നതും ആപത്താണെന്നു പലരും എന്നോടു് അക്കാലത്തു പറഞ്ഞിട്ടുണ്ടു്. കായലിലാകെ മുതലകളാണത്രേ. മീൻ തേടിവരുന്ന മുതലകൾ അതു കിട്ടാതെയാകുമ്പോൾ കരയിലേക്കു വരും, കുളിക്കുന്നവരെയും കരയിലിരിക്കുന്നവരെയും കടിച്ചെടുത്തു കൊണ്ടുപോകും. ഇരയായി കിട്ടിയ മനുഷ്യനെ മുതല ചവച്ചരയ്ക്കുന്ന ശബ്ദംപോലും ചിലർ കേട്ടിട്ടുണ്ടു പോലും. ഇങ്ങനെ, എനിക്കു മുന്നറിയിപ്പു കിട്ടിയെങ്കിലും തടാകത്തിൽത്തന്നെ ഞാൻ പതിവായി കുളിച്ചിരുന്നു. അതിന്റെ കരയിൽ എന്നും ഇരിക്കുമായിരുന്നു. ഒറ്റ മുതലയെപ്പോലും ഞാൻ ശാസ്താംകോട്ടയിൽനിന്നു പോരുന്നതുവരെ കണ്ടിട്ടേയില്ല. പക്ഷേ, പകുതി ശതാബ്ദം കഴിഞ്ഞ ഈ വേളയിൽ മുതലയുടെ വരവു് ഞാൻ കാണുന്നു. കുങ്കുമം എന്ന ശുദ്ധജലതടാകത്തിലൂടെ നീന്തിവന്നു് അതു് കരയിലിരിക്കുന്ന സഹൃദയനെ കടിച്ചെടുത്തു കൊണ്ടുപോയി ചവയ്ക്കുന്നു. ആ പാവപ്പെട്ടവന്റെ കാലുകൾ പിടച്ചടിക്കുന്നതു ഞാൻ ദർശിക്കുന്നു. മുതലയുടെ പേരെന്തു? “അഭിലാഷം”. അതിനെ അയച്ചതാരു്? കെ. കവിത. ഈ ദ്രോഹം കെ. കവിത എന്തിനു ചെയ്യുന്നുവെന്നു ചോദിക്കാൻ എനിക്കധികാരമില്ല. എങ്കിലും ഇതു ദ്രോഹംതന്നെയാണെന്നു് എനിക്കു പറയാം. കൊച്ചു റോസേടത്തി എന്നൊരു കിഴവി ചാകാൻ കിടക്കുന്നു. അവർക്കു വേറൊരുത്തി മകളുടെ കൈയിൽ ചോറും മീൻകറിയും കൊടുത്തയയ്ക്കുന്നു. റോസേടത്തിക്കു് ‘ആർത്തി’യുണ്ടെങ്കിലും അതു വേണ്ടപോലെ കഴിക്കാനാവുന്നില്ല. ഒടുവിലങ്ങു ചാകുകയും ചെയ്യുന്നു. ഈ “അഭിലാഷം” ക്രോക്കഡൈൽ അല്ലെങ്കിൽ പിന്നെന്താണു്?
ഗ്രിഗറി സ്റ്റോക്കി ന്റെ ‘The Book of Questions’ എന്ന പുസ്തകത്തെക്കുറിച്ചു് ഞാനെഴുതിയിരുന്നു. ഇപ്പോൾ ആ വിഭാഗത്തിൽപ്പെടുന്ന വേറൊരു പുസ്തകം എത്തിയിരിക്കുന്നു; ടോം വെല്ലർ എഴുതിയ The Book of Stupid Questions. പുസ്തകത്തിന്റെ സ്വഭാവം കാണിക്കാൻ ചില ചോദ്യങ്ങൾ തർജ്ജമചെയ്തു് എഴുതാം.

ഈ ലോകത്തുള്ള ഒന്നും ഇനി അനുഗൃഹീതനായ കലാകാരൻ എ. എസ്സി നെ സ്പർശിക്കില്ല. മിത്രങ്ങളെന്നു ഭാവിക്കുന്ന ശത്രുക്കളുടെ കപടമായ പുഞ്ചിരി, ‘അകവും പുറവും’ എന്ന ഹാസ്യചിത്രങ്ങളെ നോക്കിയുള്ള സാഹിത്യ വാരഫലക്കാരന്റെ അധിക്ഷേപം, മറ്റുള്ളവന്റെ കുതികാൽവെട്ടു്, തന്റെ ജീവിതദുരന്തത്തെച്ചൊല്ലിയുള്ള അന്യന്റെ വ്യാജമായ സഹതാപവചനങ്ങൾ ഇവയിലൊന്നു പോലും അദ്ദേഹത്തെ സ്പർശിക്കില്ല. അദ്ദേഹം ചിത്രീകരിച്ച തരുണികളുടെ സൗന്ദര്യം, പ്രകൃതിയുടെ ഭംഗി, സൂര്യന്റെ പ്രചണ്ഡത, ചന്ദ്രന്റെ രാമണീയകം ഇവയും അദ്ദേഹത്തിൽ ഒരനുഭൂതിപോലും ഉളവാകയില്ല. ഇവയ്ക്കെല്ലാം അതീതമായ മണ്ഡലത്തിൽ അദ്ദേഹം എത്തിക്കഴിഞ്ഞു. എന്നാൽ അദ്ദേഹത്തിന്റെ ഒരേയൊരു മകൾ സുധയുടെ ദുഃഖം ആ ആത്മാവിനെ സ്പർശിക്കും. കാരണം, ആ കൊടുംവിഷാദം സത്യാത്മകമാണു് എന്നതാണു്. തിക്കോടിയനും ജി. എൻ. പിള്ളയും മാതൃഭൂമിയിൽ എഴുതിയ ലേഖനങ്ങളിലെ സ്നേഹവായ്പും എ. എസ്സിന്റെ ആത്മാവു കണ്ടറിയും. അത്രയ്ക്കു് ആർജ്ജവമുണ്ടു് അവയ്ക്കു്. വ്യക്തി മരിക്കുമ്പോൾ അർത്ഥമില്ലാത്ത അനുശോചനവാക്യങ്ങൾ പറയുന്നതിനെക്കാൾ നല്ലതു് ആ വ്യക്തിയോടു സ്നേഹബഹുമാനങ്ങൾ ഉള്ളവർ ഇങ്ങനെ ഉള്ളിൽത്തട്ടുമാറു് എഴുതുന്നതുതന്നെയാണു്. ഈ രണ്ടുപേരോടും എനിക്കുള്ള നന്ദി പ്രകാശിപ്പിക്കട്ടെ. എ. എസ്സ്, താങ്കളുടെ രേഖാചിത്രങ്ങൾകണ്ടു് കേരളീയർ താങ്കളെ സ്നേഹിച്ചു. ആ സ്നേഹത്തിനു മരണമില്ല. ഉജ്ജ്വലമായ ആ വികാരത്തിലൂടെ താങ്കൾ അനുനിമിഷം ഉയിർത്തെഴുന്നേല്ക്കുന്നുണ്ടു്.
എനിക്കു പാർക്കിൻസണ്ണി ന്റെ പുസ്തകങ്ങൾ ഇഷ്ടമാണു്. പത്തുകൊല്ലംമുൻപുവരെ ഈ ധിഷണാശാലിയെക്കുറിച്ചു് എനിക്കു് ഒന്നും അറിയാൻ പാടില്ലായിരുന്നു. ഒരുദിവസം ഒരു സമ്മേളനത്തിനു പോയപ്പോൾ അഭിവന്ദ്യനായ ബിഷപ്പ് മാർ ഗ്രിഗോറിയസാണു് എനിക്കു പാർക്കിൻസണ്ണിനെക്കുറിച്ചു് പറഞ്ഞുതന്നതു്. അദ്ദേഹത്തിന്റെ ഒരു നിയമത്തെക്കുറിച്ചും ബിഷപ്പ് അവർകൾ എന്നോടു പറഞ്ഞു. അതു് ഇതാ: Work expands to fill the time available for its completion. ശരിയാണല്ലോ. വീട്ടിലുള്ള പുസ്തകങ്ങൾ ഒരുമണിക്കൂർകൊണ്ടു് അടുക്കിവയ്ക്കാം. അത്രയും പുസ്തകൾ ഒരുമാസംകൊണ്ടും അടുക്കി വയ്ക്കാം. പാർക്കിൻസണ്ണിന്റെ മറ്റൊരു നിയമം ഞാൻ പുസ്തകം വായിച്ചു ഗ്രഹിച്ചതാണു്: Expenditures rise to meet income. ഇതും ശരിതന്നെ. എനിക്കു് ഇന്നുള്ള വരുമാനത്തിന്റെകൂടെ ആയിരംരൂപകൂടി കിട്ടിയാൽ അതനുസരിച്ചു് എന്റെ ചെലവുകൂടുകയേയുള്ളു. ആ തുക ബാങ്കിൽ പോകുകയില്ല. പാർക്കിൻസണ്ണിന്റെ ആദ്യത്തെ നിയമം—ജോലി പൂർണ്ണമാക്കുന്നതിനു് എത്ര സമയമുണ്ടോ അതനുസരിച്ചു് ആ ജോലി വികാസംകൊള്ളുന്നു എന്ന നിയമം—ഹാസ്യത്തെസ്സംബന്ധിച്ചും ശരിയാണു്. ഭാര്യാദാസനായ ഒരുത്തൻ ഭാരം അറിയാനുള്ള യന്ത്രത്തിൽ കയറി നാണയമിട്ടു ഒരു ചെറിയ ശബ്ദത്തോടെ ഒരു ചെറിയ കാർഡ് കിട്ടി. ഒരുവശത്തു് ചില വാക്യങ്ങൾ. മറുവശത്തു് ഭാരമെത്രയെന്നും. “നിങ്ങൾ ധീരനാണു്, ശക്തനാണു്, ഉടനെ തീരുമാനത്തിൽ എത്തുന്നവനാണു്. വിജയം എപ്പോഴും നിങ്ങളെ കാത്തുനില്ക്കുന്നു”. ഭാര്യ ഇതുവായിച്ചിട്ടു പറഞ്ഞു: “ഇതുപോലെതന്നെ കള്ളമായിരിക്കും നിങ്ങളുടെ ഭാരം കാണിക്കുന്ന അക്കവും”. ഈ നേരമ്പോക്കിനെ എനിക്കു വലിച്ചുനീട്ടി ചെറുകഥയാക്കാം. റബ്ബർബാൻഡ് വലിച്ചാൽ നീളും. പക്ഷേ, അപ്പോഴും റബ്ബറിന്റെ സ്വഭാവം പോകില്ല. കൊച്ചു നേരമ്പോക്കു വലിച്ചുനീട്ടിയാലും ഹാസ്യത്തിന്റെ ധർമ്മം നശിക്കില്ല. വലിച്ചു നീട്ടുന്നതു് പൊട്ടിപ്പോകലിൽ കലാശിക്കരുതെന്നേയുള്ളു. ഇങ്ങനെ ഹാസ്യധർമ്മം നശിപ്പിക്കാതെ ഒരുവാക്യത്തിലൊതുങ്ങുന്ന നേരമ്പോക്കിനു വർദ്ധനക്ഷമത വരുത്താൻ ഗൗതമൻ പ്രഗൽഭനാണു്. അദ്ദേഹത്തിന്റെ “പുറകിൽ ആരുമില്ല” എന്ന കഥ ഇതിനു് ഉദാഹരണം. ഗ്യാസ് സിലിണ്ടർ വീട്ടിലെത്തിക്കണമെന്ന നിർദ്ദേശം വിതരണക്കാരനു നൽകി കുറെയാളുകൾ. അതനുസരിച്ചു് നേതാവായ അയാൾ വീട്ടിൽ കാത്തിരുന്നു. പക്ഷേ, നിർദ്ദേശം നൽകിയ മറ്റാളുകൾ കടയിൽച്ചെന്നു് സിലിണ്ടർ വാങ്ങിക്കൊണ്ടു പോയി. കഥ രണ്ടു വാക്യങ്ങൾകൊണ്ടു സംഗ്രഹിച്ചപ്പോൾ അതിന്റെ ഹാസ്യം ചോർന്നുപോയി. അതുകൊണ്ടു ഗൗതമന്റെ കഥ തന്നെ വായിക്കൂ. നിങ്ങൾ പുഞ്ചിരിപൊഴിക്കാതിരിക്കില്ല. കഥാകാരൻ വിമർദ്ദനതന്തു (റബ്ബർ ബാൻഡ്) വലിച്ചുനീട്ടിയിട്ടും അതു വിമർദ്ദനതന്തുതന്നെയാണു്.
Song of Solomon എന്ന നോവലിന്റെ രചനകൊണ്ടു് വിശ്വവിഖ്യാതയായ ടോണി മോറിസൺ എഴുതിയ Beloved എന്ന നോവൽ അവരുടെ യശസ്സിന്റെ വെണ്മ വർദ്ധിപ്പിച്ചിരിക്കുന്നു. പത്തൊൻപതാം ശതാബ്ദത്തിന്റെ ഉത്തരാർദ്ധത്തിലാണു് കഥ നടക്കുന്നതു്. കെൻറ്റക്കിയിൽ ഒരുത്തന്റെ അടിമയായി കഴിഞ്ഞുകൂടിയ സേത്തി അവിടെ നിന്നു് ഒളിച്ചോടി സിൻസനറ്റീയിൽ എത്തുന്നു. അവൾക്കു മൂന്നു കുഞ്ഞുങ്ങളുണ്ടു്. ഒളിച്ചോടുമ്പോൾ നാലാമത്തേതു് ഗർഭാശയത്തിലും. മാർഗ്ഗമദ്ധ്യേ അവൾ പ്രസവിക്കുന്നു. പതിനെട്ടു കൊല്ലം കഴിഞ്ഞു. അവളുടെ ഭർത്താവു് അവളെ ഉപേക്ഷിച്ചു പോയിട്ടും അത്രയും വർഷമായി. ഇതിനിടയിൽ അവളുടെ രണ്ടു് ആൺകുഞ്ഞുങ്ങൾ ഒളിച്ചോടിപ്പോയി. മൂന്നാമത്തെ മകൾ മരിച്ചു. നാലാമത്തെ മകൾ ഡെൻവർ അവളോടൊരുമിച്ചുണ്ടു്. അപ്പോഴാണു് മറ്റൊരു അടിമ അവളെ കാണാനെത്തുക. സിൻസനറ്റീയിൽ എത്തിയ അവൾ പരതന്ത്രയാണു്. ഏതോ ഒരു സംഭവം അവളെ ഒഴിയാബാധപോലെ പിടികൂടിയിരിക്കുന്നു. ആ സംഭവത്തിന്റെ സ്തോഭജനകമായ വിവരണമാണു് ഈ നോവലിൽ. എന്താണതു? നോവലിന്റെ അറുപതു പുറങ്ങളോളം കഴിയുമ്പോൾ Beloved എന്നു പേരുള്ള ഒരു തരുണി രംഗപ്രവേശം ചെയ്യുന്നു. എവിടെ നിന്നാണു് അവൾ സേത്തിയുടെ മുൻപിലെത്തിയതു? അറിഞ്ഞുകൂടാ. Sometimes, when Beloved lay dreamy-eyed for a very long time, saying nothing, licking her lips and heaving deep sights, Denver panicked. “What is it?” She would ask.
“Heavy” murmured Beloved. “This place is heavy.
ഈ കനമാർന്ന അന്തരീക്ഷമാണു നോവലിലാകെ. സേത്തിയുടെ മരിച്ച മകളുടെ പേരു് Beloved എന്നായിരുന്നു. അവളുടെ സ്പിരിറ്റാണു് അവിടെ എത്തിയിരിക്കുന്നതു്. അവളെ അറുത്തുകൊന്നതും അവളുടെ അമ്മതന്നെ. ബിലവ്ഡിന്റെ ആഗമനം ജനിപ്പിക്കുന്ന അജ്ഞേയ ഭീകരമായ അന്തരീക്ഷം നോവലിനു സവിശേഷത നൽകുന്നു. ഈ സവിശേഷതയോ അസാധാരണത്വമോ ടോണി മോറിസണിന്റെ ആവിഷ്കാരരീതികൊണ്ടാണു് ഉണ്ടാവുക.
A masterpiece… magnificent… astounding… over powering എന്നൊക്കെ ന്യൂസ് വീക്ക് വാരിക ഇതിനെ പ്രശംസിച്ചു. മഹായശസ്കയായ നോവലിസ്റ്റ് മർഗററ്റ് അറ്റ്വുഡ് (ക്യാനഡ) “A triumph” എന്നാണു് ഇതിനെ വിശേഷിപ്പിച്ചതു്. ബിലവഡ് രംഗപ്രവേശം ചെയ്യുന്നതുവരെ നോവൽ യഥാതഥമായ രീതിയിൽ രചിക്കപ്പെട്ടിരിക്കുന്നു. അതിനു ശേഷം ഫാന്റസിയുടെ രീതിയിലും. നിരൂപകർ ഏറെ വാഴ്ത്തിയെങ്കിലും ഈ രണ്ടംശങ്ങളും വേണ്ടപോലെ യോജിക്കുന്നില്ല എന്നാണു് എന്റെ പക്ഷം.
പ്രാചീനകാലത്തു് വിഷകന്യകകൾ ഉണ്ടായിരുന്നു. പെൺകുഞ്ഞു് ജനിച്ചുകഴിഞ്ഞാൽ ദിവസന്തോറും അല്പാല്പമായി വിഷം അതിനു കൊടുക്കും. പ്രായമെത്തുമ്പോൾ അവൾ വിഷകന്യകയായി മാറിയിരിക്കും. അവൾ ചുംബിക്കേണ്ടതില്ല. ദൂരെനിന്നു് ശ്വാസംവിട്ടാൽ മതി. അതേല്ക്കുന്ന മറ്റുള്ളവർ മരിക്കും. ഇത്തരം വിഷകന്യകകളെ ശത്രുരാജാക്കന്മാരെ കൊല്ലുന്നതിനു് ഉപയോഗിച്ചിരുന്നു. അലക്സാണ്ടർച്ചക്രവർത്തി യെ കൊല്ലാൻ ഒരു വിഷകന്യകയെ അയച്ചുവെന്നും, അദ്ദേഹം അതു നേരത്തേ മനസ്സിലാക്കി അവളെ കൊന്നുകളഞ്ഞുവെന്നും ചരിത്രകാരന്മാർ എഴുതിയിട്ടുണ്ടു്. ഈ വിഷയം സമഗ്രമായി പ്രതിപാദിക്കുന്ന ഒരു ഗ്രന്ഥം ഞാൻ മുൻപു് വായിച്ചു. Poison Damsles and the Romance of betal chewing എന്നാണു് ആ ഗ്രന്ഥത്തിന്റെ പേരു്. കഥാസരിത്സാഗരത്തിന്റെ ഒടുവിലത്തെ വാല്യത്തിൽ അനുബന്ധമായി Poison Damsels ചേർത്തിട്ടുണ്ടെന്നു് എനിക്കൊരു ഓർമ്മയുണ്ടു് (ഇംഗ്ലീഷ് പ്രസാധനം). അതിരിക്കട്ടെ. വിഷം അല്പമായി അല്പമായി കൊടുത്തു് ഇംമ്യൂനൈസേഷൻ—മുക്തി—ള്ളവാക്കുക എന്നതാണു് ഈ സമ്പ്രദായം. ഇതുതന്നെയാണു് വൈദ്യശാസ്ത്രത്തിലും കാണുന്നതു്. രോഗമുണ്ടാക്കുന്ന അണുവിനെ ദുർബ്ബലപ്പെടുത്തിയ രൂപത്തിൽ മനുഷ്യശരീരത്തിൽ കടത്തിയാൽ പിന്നീടു് അതിന്റെ ശക്തിയാർന്ന രൂപത്തിനു് ഒന്നും ചെയ്യാനാവില്ല. പോളിയോ, വില്ലൻചുമ, അഞ്ചാംപനി ഇവ വരാതിരിക്കാനായി ആന്റിജെന്റെ (antigen—രോഗമുണ്ടാക്കുന്ന ബാക്ടീരിയ, വൈറസ് ഇവ) ദുർബ്ബലരൂപം മനുഷ്യരിൽ കുത്തിവയ്ക്കുന്നു. ചിക്കൻപോക്സ് ഒരിക്കൽ വന്നാൽ അതുതന്നെ മുക്തി ഉണ്ടാക്കും.
കവിത അതിന്റെ സ്വഭാവം കൊണ്ടും വാക്കുകൾ കൊണ്ടും ചരിത്രത്തെ റദ്ദാക്കുന്നു. അതു് ചരിത്രത്തെ കവിത പുച്ഛിക്കുന്നതു കൊണ്ടല്ല, ചരിത്രത്തെ അതിലംഘിക്കുന്നു എന്നതു കൊണ്ടാണു്. വിപ്ലവ കവി നെറൂതയുടെ കാവ്യങ്ങളെ സംബന്ധിച്ചും ഇതു ശരിയാണു്. ഈ സത്യം മനസ്സിലാക്കാതെയാണു് ഇവിടെയുള്ള കവികൾ പടപ്പാട്ടു പാടുന്നതു്.
തെറിക്കത്തുകൾ ഇതുപോലുള്ള മുക്തി എനിക്കുണ്ടാക്കിയിട്ടു് കാലമേറെയായി. ഇന്നു പച്ചത്തെറി എഴുതിയ കത്തുകൾ കിട്ടുമ്പോഴോ ടെലിഫോണിൽക്കൂടി തെറിവാക്കുകൾ കേൾക്കുമ്പോഴോ എനിക്കു് ഒരു ക്ഷോഭവും ഉണ്ടാകാറില്ല. ചിലരെല്ലാം ഫോണിലൂടെ അസഭ്യം കേൾക്കുമ്പോൾ ഉടനെതന്നെ ഫോൺ താഴെ വച്ചുകളയാറുണ്ടു്. ഞാനങ്ങനെയല്ല, പറയുന്നതു മുഴുവനും കേൾക്കും. ‘എന്റെ പേരിൽ തെറ്റുണ്ടെങ്കിൽ തിരുത്താം’ എന്നു ശാന്തതയോടെ മറുപടി നൽകുകയും ചെയ്യും. എഴുതുന്നവരെ പരിഷ്കരിച്ചെടുക്കാനാണു് തെറിക്കത്തുകൾ അയയ്ക്കുന്നതെങ്കിൽ അതുകൊണ്ടു പ്രയോജനമില്ല. മിക്ക എഴുത്തുകാർക്കും മുക്തി വന്നുപോയിട്ടുണ്ടു്. അവരെ വേദനിപ്പിക്കാനാണെങ്കിൽ അതും പ്രയോജനരഹിതം. കത്തുകൾ വളരെക്കാലമായി വായിക്കുന്നവർക്കു് വേദനയുമില്ല, ക്ഷോഭവുമില്ല. ഈ പ്രവൃത്തിയെക്കാൾ നല്ലതു് എഴുത്തുകാരന്റെ ദോഷവശങ്ങളെ മാന്യമായ രീതിയിൽ ചൂണ്ടിക്കാണിച്ചു കൊടുക്കുക എന്നതാണു്. അങ്ങനെയുള്ള കത്തുകളനുസരിച്ചു് ഞാൻ എന്റെ ദോഷങ്ങൾ മാറ്റാൻ ശ്രമിച്ചിട്ടുണ്ടു്. ആ ചൂണ്ടിക്കാണിക്കൽ ശരിയായ മാർഗ്ഗത്തിലേക്കു പോകാൻ എന്നെ സഹായിച്ചിട്ടുമുണ്ടു്. ഇവിടെ ഇത്രയും എഴുതിയതു് സി. പി. നായർ മനോരാജ്യം വാരികയിൽ എഴുതിയ ‘മൂകസന്ദേശം’ എന്ന ലേഖനം വായിച്ചതുകൊണ്ടാണു്. മൂകസന്ദേശം ഊമക്കത്തുകളിലൂടെ ലഭിക്കുന്നതാണു്. നിർദ്ദോഷമായ ഹാസ്യം എഴുതുന്ന അദ്ദേഹത്തിനും ഊമക്കത്തുകൾ, തെറിക്കത്തുകൾ കിട്ടുന്നു. അപ്പോൾ പാരുഷ്യത്തോടെ രചനകളെ വിമർശിക്കുന്ന എനിക്കു് അത്തരം കത്തുകൾ കിട്ടുന്നതിൽ എന്തേ അദ്ഭുതം?
“പിന്നെ നിങ്ങൾ മറുപടിയെഴുതുന്നതെന്തിനു്?” എന്നു ചിലർ എന്നോടു ചോദിച്ചേക്കും. ബഹുജനത്തിന്റെ തെറ്റിദ്ധാരണ ഒഴിവാക്കാൻ വേണ്ടിയാണു് ആ മറുപടി. അല്ലാതെ ക്ഷോഭംകൊണ്ടല്ല. വേദനകൊണ്ടല്ല.
ഒരു കൂട്ടുകാരനെ അന്വേഷിച്ചു്—തിരുത്തിപ്പറയട്ടെ, ഒരു പരിചയക്കാരനെ അന്വേഷിച്ചു് (സാഹിത്യവാരഫലമെഴുതുന്നയാളിനു കൂട്ടുകാരനെവിടെ? കണ്ടാൽ വിനയപൂർവം കൈകൂപ്പും, ചിരിക്കും. ഞാൻ പൊയ്ക്കഴിഞ്ഞാൽ തെറി പറയും)—ഒരു വീട്ടിൽ ചെന്നപ്പോൾ കടുവയ്ക്കു സദൃശനായ ഒരു നായ് എന്റെ നേർക്കു ചാടിവന്നു. അവൻ കടിച്ചാൽ മരണം തീർച്ച. അതുകൊണ്ടു് അടുത്തുകിടന്ന ഒരു കരിങ്കല്ലു ഞാൻ പൊക്കിയെടുത്തു. അടുത്തു് അവൻ വന്നാൽ അതുകൊണ്ടു് അവന്റെ തല തകർക്കണം. പക്ഷേ, വേണ്ടിവന്നില്ല. പൊടുന്നവേ ഒരു സുന്ദരിയായ യുവതി പ്രത്യക്ഷയായി ‘ഷീജി ഇവിടെ വാ’ എന്നു വിളിച്ചു. നായ് തിരിഞ്ഞുപോയില്ല. എന്നെനോക്കി വീരപ്പല്ലുകൾ കാണിച്ചുകൊണ്ടു നിന്നു. കല്ലു ഞാൻ ഉടനെ താഴെയിട്ടതു് പട്ടി കടിക്കാൻ വരില്ല എന്ന വിചാരംകൊണ്ടല്ല. നടയിൽ വന്നുനിന്ന ചെറുപ്പക്കാരിയുടെ സൗന്ദര്യത്തിനുള്ള ‘കോംപ്ലിമെന്റ്’ എന്ന നിലയിലാണു്. ചന്ദ്രിക ആഴ്ചപ്പതിപ്പിൽനിന്നു് ‘വയലാർ ലജ്ജിക്കുന്നു’ എന്നൊരു കാവ്യം എന്റെനേർക്കു ചാടുന്നു. അതിനെ കരുതിക്കൂട്ടി അഴിച്ചുവിട്ടതല്ല ബി. മാണിക്യം. ഏണശാബമാണു് തന്റെ കാവ്യമെന്നേ അദ്ദേഹത്തിനു വിചാരമുള്ളു. കാവ്യമെഴുതുന്ന ആളെന്ന നിലയിൽ മാണിക്യം എന്റെ പരിചയക്കാരനാണു്. ഞങ്ങൾ തമ്മിൽ കണ്ടിട്ടില്ലെങ്കിലും. പക്ഷേ, അദ്ദേഹത്തിന്റെ മാൻകുട്ടി എന്നെസ്സംബന്ധിച്ചിടത്തോളം ബുൾഡോഗാണു്. അതു് ആക്രമിക്കാതിരിക്കാനായി ഞാൻ വിമർശനത്തിന്റെ കരിങ്കല്ലു പൊക്കിയെടുത്തതാണു്. പക്ഷേ, ചന്ദ്രിക ആഴ്ചപ്പതിപ്പെന്ന സുന്ദരി ‘ഷീജി ഇവിടെ വാ’ എന്നു വിളിക്കുന്നു. അവളുടെ സൗന്ദര്യത്തിനു കോംപ്ലിമെന്റ് എന്ന നിലയിൽ ഞാൻ ആ കരിങ്കൽക്കഷണം ദൂരെയെറിയുന്നു. എങ്കിലും രുതം അല്പം കേട്ടാലും:
“വന്നു ഞാനിതു സത്യം എന്നാണെലെനിനാണെ
മാർക്സാണെ ആംഗൽസാണെ മാനവപ്പടയാണെ
പിന്നെ ഞാൻ വരുകില്ല വിപ്ലവം വരുംവരെ.
“Poetry, by its very nature, and by the nature of its instruments, words, always tends to abolish history, not because it disdains it but because it transcends it. To reduce poetry to its reflections of historical events and movements would be like reducing the poet’s words to their logical or grammatical connotations. Poetry transcends both history and language although they are its necessary food”. ഇതു പറഞ്ഞതു് മഹാനായ ഒക്ടോവ്യാ പാസ്സാ ണു് (Ocatavio Paz, The Labyrinth of solitude, അത്യുജ്ജ്വലമായ പുസ്തകമാണിതു്). കവിത അതിന്റെ സ്വഭാവംകൊണ്ടും വാക്കുകൾകൊണ്ടും ചരിത്രത്തെ റദ്ദാക്കുന്നു. അതു് ചരിത്രത്തെ കവിത പുച്ഛിക്കുന്നതുകൊണ്ടല്ല. ചരിത്രത്തെ അതു് അതിലംഘിക്കുന്നു എന്നതുകൊണ്ടാണു്—ഇതാണു് പാസ്സിന്റെ അഭിപ്രായം. വിപ്ലവകവി നെറൂത യുടെ കാവ്യങ്ങളെസ്സംബന്ധിച്ചും ഇതു ശരിയാണു്. ഈ സത്യം മനസ്സിലാക്കാതെയാണു് ഇവിടെയുള്ള കവികൾ പടപ്പാട്ടു പാടുന്നതു്. എം. പി. നാരായണപിള്ള യുടെ മൗലികചിന്തയും ഈ നാദംതന്നെ കേൾക്കുന്നു. “അതിനു തയ്യാറാകുന്ന നിമിഷം കവി തന്റെ മാനസികമായ അടിമത്വത്തിന്റെ ചങ്ങലകളാണു് പൊട്ടിച്ചെറിയുന്നതു്. യഥാർത്ഥ സ്വാതന്ത്ര്യത്തിന്റെ പരമാനന്ദം അപ്പോൾ കവിക്കു് അനുഭവിക്കാം”. (ട്രയൽ വാരിക, ലക്കം 182.) പസ്തർനക്ക്, യെവ്തുഷങ്കോ, സോൾ ഷെനിറ്റ്സ്യൻ ഇവരെ അംഗീകരിക്കാൻ തുടങ്ങിയിരിക്കുന്ന സോവിയറ്റ് സർക്കാരും ഈ തത്ത്വമല്ലേ വിളംബരം ചെയ്യുക?
മലയാളഭാഷയിലെ പാണ്ഡിത്യമെന്നതു സംസ്കൃതഭാഷയിലെ പാണ്ഡിത്യംതന്നെയാണു്. സംസ്കൃതവും അതിന്റെ വ്യാകരണവും അറിയാതെ ശുദ്ധമായ മലയാളമെഴുതാൻ കഴിയുകയില്ല. ഒരുദാഹരണം നൽകട്ടെ. “അയാൾ അവൾക്കു്, അനുയോജ്യനായ വരനാണു്” എന്നു പലരും എഴുതിക്കണ്ടിട്ടുണ്ടു്. അനുയോഗമെന്നാൽ ചോദ്യം എന്നർത്ഥം. അനുയോജ്യൻ അങ്ങനെ ചോദ്യം ചെയ്യപ്പെടേണ്ടവനായി മാറുന്നു. സംസ്കൃതമറിയുന്നവൻ “അനുരൂപനായ വരൻ” എന്നേ എഴുതൂ. അനുയോജ്യൻ മലയാളഭാഷയിലെ പ്രയോഗമാണെന്നു പറയുന്നതിൽ ഒരർത്ഥവുമില്ല.
വ്യാകരണത്തെറ്റുകൂടാതെ ശുദ്ധമായ മലയാളമെഴുതുന്നതിനു നമ്മെ സഹായിക്കുന്ന വ്യാകരണഗ്രന്ഥമാണു് സാഹിത്യപഞ്ചാനൻ പി. കെ. നാരായണപിള്ള യുടെ “പ്രയോഗ ദീപിക”. ഈ ഉത്കൃഷ്ടമായ ഗ്രന്ഥത്തിന്റെ സംശോധിത സംസ്കരണം നമുക്കു കിട്ടിയിരിക്കുന്നു. ഡോക്ടർ എൻ. വി. പി. ഉണിത്തിരി സംശോധകനായ ഈ പുസ്തകം കേരളസർക്കാരിന്റെ “സാംസ്കാരിക വകുപ്പാ”ണു് പ്രസാധനം ചെയ്തിട്ടുള്ളതു്. ഗ്രന്ഥത്തിന്റെ ഉള്ളടക്കം പ്രൗഢം; ആകാരം മനോഹരം (വില 30 രൂപ).
നമ്മുടെ ഒരു പ്രശസ്തനായ സാഹിത്യകാരൻ പ്രഭാഷണം നിർവഹിക്കുന്ന വേളയിൽ ഇങ്ങനെ “കാച്ചിവിട്ടു” “ഭുജഗമെന്നാൽ പാമ്പു് എന്നർത്ഥം. ഭൂജംകൊണ്ടു ഗമിക്കുന്നതു ഭുജഗം”. ഇതു കേട്ടപ്പോൾ പാമ്പിനു ഭുജമെവിടെയെന്നു് എനിക്കു ചോദിക്കാൻ തോന്നി. ചോദിച്ചില്ല. കവി പറഞ്ഞതു ശരിയല്ല. വളഞ്ഞ ഗമനമുള്ളതാണു് ഭുജഗം. ഭുജ കൗടില്യേ. പ്രയോഗദീപികയുടെ ഒരു പ്രതി ഈ സാഹിത്യകാരൻ കൈയിൽ വയ്ക്കുന്നതു നന്നു്.
