​ ​
വേദനിപ്പിക്കുന്ന സത്യത്തെ മറച്ചു വച്ചു് അതിന്റെ സ്ഥാനത്തു് അസത്യത്തെ പ്രതിഷ്ഠിക്കുന്ന ഒരു രീതി പലർക്കുമുണ്ടു്; വിശേഷിച്ചും ബന്ധുക്കൾക്കു്. അച്ഛൻ ആഭാസനും മദ്യപനുമാണെങ്കിൽ, അമ്മ വ്യഭിചാരിണിയാണെങ്കിൽ അതു മറ്റുള്ളവരെ അറിയിക്കാൻ ഒരു മകനും മകളും സന്നദ്ധത കാണിക്കില്ല. മാത്രമല്ല, അച്ഛൻ പരമയോഗ്യനും അമ്മ സുചരിതയും ആണെന്നു അവർ പറയുകയും ചെയ്യും. ഒരടികൂടി മുന്നോട്ടു വച്ചു്, മരിച്ചു പോയ അച്ഛനമ്മമാരുടെ ഫോട്ടോഗ്രാഫുകൾ ഷോകെയ്സിൽ വച്ചു നിത്യവും പൂമാല ചാർത്തുന്ന സമ്പ്രദായവും അവർക്കുണ്ടായിരിക്കും. മഹാനായ നാടകകർത്താവു് ഇബ്സൻ ഇമ്മാതിരിയുള്ള കള്ളത്തെ vital lie എന്നു വിളിച്ചു. അദ്ദേഹത്തിന്റെ പല നാടകങ്ങളിലും ഈ അസത്യത്തിന്റെ ഗർഹണീയതയെ സ്പഷ്ടമാക്കിയിട്ടുണ്ടു്. ജീവനരക്ഷകങ്ങളായ ഇത്തരം അസത്യങ്ങളുടെ വിഹാരരംഗങ്ങളായിട്ടുണ്ടു് നമ്മുടെ സാഹിത്യത്തിന്റെ മണ്ഡലങ്ങൾ. വൈലോപ്പിള്ളി ശ്രീധരമേനോൻ അദ്ദേഹത്തിന്റേതായ രീതിയിൽ ഭേദപ്പെട്ട കവിയാണു്. അതിൽക്കൂടുതലായി ഒന്നുമില്ല താനും. നിരൂപകർ പൊക്കിക്കൊണ്ടു നടക്കുന്ന അദ്ദേഹത്തിന്റെ പല കാവ്യങ്ങളിലും കവിതാംഗനയുടെ കങ്കാളമേയുള്ളൂ; മജ്ജയില്ല, മാംസമില്ല, രക്തമില്ല. ഈ സത്യം മറച്ചു വച്ചു് അവർ അതിന്റെ സ്ഥാനത്തു് അസത്യം പ്രതിഷ്ഠിക്കുന്നു. അതു പോകട്ടെ. നിസ്സന്ദേഹമായി, അസന്ദിഗ്ദ്ധമായി ചൂഷണമെന്നു വിളിക്കാവുന്ന കാവ്യങ്ങളിൽ പോലും മൗലികത്വം കാണാൻ തുടങ്ങിയാൽ എന്തു ചെയ്യും? രണ്ടാഴ്ച്ചയ്ക്കു മുൻപു് മാതൃഭൂമി ആഴ്ച്ചപതിപ്പിൽ വന്ന “മാധവി” എന്ന കാവ്യം റ്റെനിസൻ എഴുതിയ “Dora” എന്ന കാവ്യത്തിന്റെ തർജ്ജമയാണു്. വർഷങ്ങൾക്കു മുൻപു് സി. പി. പരമേശ്വരൻപിള്ള (“ആഗസ്മേര” ത്തിന്റെ കർത്താവു്—തിരുവനന്തപുരത്തെ സയൻസ് കോളേജിലെ അധ്യാപകൻ—ഇംഗ്ലീഷ് പ്രഫെസറായിരുന്ന ഈശ്വരി അമ്മയുടെ ബന്ധു) “ഡോറ” മലയാളത്തിലേക്കു തർജ്ജമ ചെയ്തു് സി. എൻ. എ. രാമയ്യാശാസ്ത്രിയുടെ അവതാരികയോടെ പ്രസിദ്ധപ്പെടുത്തിയിട്ടുണ്ടു്. വൈലോപ്പിള്ളിയുടെ തർജ്ജമയെക്കാൾ അതു നന്നാണുതാനും.
തന്റെ കാവ്യം തർജ്ജമയാണെന്നു് ആരെങ്കിലും ചൂണ്ടിക്കാണിച്ചാലോ എന്നു കരുതിയാവും ഒരു ഇംഗ്ലീഷ് കഥയെ അവലംബിച്ചു് എന്നോ മറ്റോ ഒരൊഴുക്കൻ കുറ്റസമ്മതം രേഖപ്പെടുത്തിയിട്ടാണു് വൈലോപ്പിള്ളി കാവ്യരചനാവ്യവസായത്തിൽ തല്പരനായതു് (പഴയ ആഴ്ചപ്പതിപ്പു് എന്റെ കൈയിലില്ല. അതിനാൽ കവിയുടെ പ്രസ്താവന അതേ രീതിയിൽ ഇവിടെ എടുത്തെഴുതാൻ വയ്യ). ഭാഷാന്തരീകരണം എന്ന അസുഖസത്യത്തെ അബോധമനസ്സിന്റെ അടിത്തട്ടിലേക്കു് അറിഞ്ഞോ അറിയാതെയോ തള്ളി നീക്കിയിട്ടു് ചിലരൊക്കെ ആഴ്ചപ്പതിപ്പിന്റെ നാല്പത്തിമൂന്നാം പുറത്തു കയറി നിന്നു് പുളകപ്രസരം അനുഭവിക്കുന്നു. “മാധവി”ക്കു ശക്തമായ പ്രമേയമുണ്ടെന്നു് ഒരാൾ. മനോഹരം എന്നു് ആ ആൾ തന്നെ. “വൈലോപ്പിള്ളിക്കവിതകളുടെ വികാസ പരിണാമങ്ങളെപ്പറ്റി പഠിക്കുന്നവർക്കു് ഈ കവിത മുതൽക്കൂട്ടാകും” എന്നു വേറൊരാൾ. വെസ്റ്റ്മിൻസ്റ്റർ ആബിയിൽ അന്ത്യവിശ്രമം കൊള്ളുന്ന റ്റെനിസൻ ഇതൊക്കെ അറിഞ്ഞാൽ അസ്വസ്ഥനായി താനേ തിരിഞ്ഞും മറിഞ്ഞും കിടക്കും, ഒരിക്കലും സ്വസ്ഥനാവുകയുമില്ല എന്നൊക്കെയാണു് എന്റെ വിചാരം.
നിന്ദ്യങ്ങളായ കുടുംബരഹസ്യങ്ങൾ പരസ്യപ്പെടുത്തണമെന്നു് എനിക്കു പക്ഷമില്ല. എന്നാൽ ഫോട്ടോഗ്രാഫുകൾ വീട്ടിൽ വച്ചു് ആളുകൾ ആത്മവഞ്ചന നടത്തരുതെന്നു് അഭിപ്രായമുണ്ടു്. സാഹിത്യത്തിന്റെ മണ്ഡലത്തിൽ ഈ ആത്മവഞ്ചനയും ജനവഞ്ചനയും തീരെപ്പാടില്ല.
രക്തസമ്മർദ്ദമുള്ള ചിലർ ഡോക്ടറെ കാണാൻ പോവുകയേയില്ല. രക്തത്തിലും മൂത്രത്തിലും പഞ്ചാരയുണ്ടെന്നു് അറിഞ്ഞാലും പരിശോധിക്കില്ല. പരിശോധന സത്യം വെളിവാക്കുമല്ലോ, അതറിയാതെയിരിക്കുന്നതാണു് നല്ലതു് എന്നാണു് അവരുടെ വാദം. ഈ വാദവും ഒരു തരത്തിലുള്ള vital lie മാത്രമാണു്. തങ്ങളറിയാതെ ഇവർ ശ്മശാനത്തിലേക്കു നീങ്ങിക്കൊണ്ടിരിക്കുന്നു.
ചില കഥാകാരന്മാർ നൂതന ലോകങ്ങൾ സൃഷ്ടിച്ചിട്ടു മാറിനില്ക്കുന്നു. അവയുടെ പ്രാധാന്യവും അർത്ഥവും കണ്ടുപിടിക്കുന്നതു വായനക്കാരുടെ ജോലിയാണു്. കാഫ്ക യുടെ ചെറുകഥകൾ നവീനങ്ങളായ ലോകങ്ങൾ സൃഷ്ടിക്കുന്നു. അനുവാചകർ ഇപ്പോഴും അവയുടെ ആന്തരമായ അർത്ഥവിശേഷങ്ങളെക്കുറിച്ചു് വാദപ്രതിവാദം നടത്തിക്കൊണ്ടിരിക്കുകയാണു്. കുളത്തിലേക്കു് എറിയുന്ന കല്ലു് അനേകം തരംഗങ്ങൾ ഉളവാക്കുന്നതുപോലെ, ആ തരംഗങ്ങൾ വായുവിൽ അനന്തങ്ങളായ തരംഗങ്ങൾ സൃഷ്ടിക്കുന്നതു പോലെ കഥാകാരൻ എടുത്തിടുന്ന വാക്കാകുന്ന കല്ലു് അനുഭവത്തിന്റെ തിരകളെ ഉല്പാദിപ്പിക്കുകയാണു്. ഇത്തരം സൃഷ്ടികളെയാണു് മഹനീയം എന്നു നിരൂപകർ വിശേഷിപ്പിക്കുന്നതു്. ദൗർഭാഗ്യത്താൽ മലയാളത്തിൽ ഇങ്ങനെയുള്ള കഥകൾ ഇല്ല. അവ നേരിട്ടുള്ള പ്രതിപാദനം നടത്തി ചരിതാർത്ഥമാകുന്നു. ആ വിധത്തിലുളള ചെറുകഥയാണു് ശ്രീ. എൻ. രാജൻ മാതൃഭൂമി ആഴ്ചപ്പതിപ്പിൽ എഴുതിയിട്ടുള്ളതു്. “ഗുരുദക്ഷിണ” എന്നു കഥയുടെ പേരു്. പക്ഷേ, ശിഷ്യൻ ഗുരുവിനു നൽകുന്ന ദക്ഷിണയല്ല ഇവിടെ കാണുക. ശിഷ്യനായിരുന്ന ആൾ പഠിപ്പിക്കുന്ന പാരലൽ കോളേജിൽനിന്നു് അയാളെ സൂത്രത്തിൽ ഗളഹസ്തം ചെയ്തിട്ടു് ഗുരുനാഥൻ അവിടെ പറ്റിക്കൂടുന്ന നൃശംസതയാണു് ഇക്കഥയിലെ പ്രതിപാദ്യം. ഗുരു ശിഷ്യനു നൽകുന്ന ദക്ഷിണയായി ഈ ക്രൂരതയെ നമ്മൾ കരുതണം. ആ ഗുരു ഇതും ഇതിലപ്പുറവും ചെയ്യും എന്നു നമുക്കു തോന്നത്തക്കവിധത്തിൽ കഥാകാരൻ അയാളുടെ സ്വഭാവം ചിത്രീകരിച്ചിട്ടുണ്ടു് എന്നതാണു് ഇതിന്റെ സവിശേഷത. ഒരധ്യാപകന്റെ സാന്മാർഗ്ഗികമായ അധഃപതനത്തെ നർമ്മബോധത്തോടെ ആവിഷ്കരിക്കുന്ന കഥയാണിതു്.
ഇതൊക്കെ നിത്യജീവിതത്തിൽ സംഭവിക്കുമോ എന്നു ചോദിക്കുന്നവരുണ്ടാകാം. സംഭവിക്കും. ലീവ് വേക്കൻസിയിൽ അധ്യാപകനായി ഒരാൾ. ലീവ് വേക്കൻസി തീർന്നപ്പോൾ അയാൾ പിരിഞ്ഞുപോയി. രണ്ടാമതു ഒഴിവു വന്നപ്പോൾ അയാൾ പണ്ടു പഠിപ്പിച്ച ആൾ ആ ജോലിക്കു വേണ്ട യോഗ്യത നേടിയിരിക്കുന്നു. രണ്ടുപേരും അപേക്ഷിക്കുന്നു. ആദ്യത്തെ അധ്യാപകന്റെ ശിഷ്യനു് ജോലി കിട്ടുന്നു. ആ മനുഷ്യനെ പഠിപ്പിച്ചവൻ തെരുവുതോറും അലയുന്നു.
ഇനിയുമൊരു സംഭവം. പരീക്ഷ കഴിഞ്ഞു. ശിഷ്യൻ വന്നു ഗുരുവിനെക്കണ്ടു പറയുന്നു “സാർ ഫസ്റ്റ് ക്ലാസ്സ് കിട്ടിയില്ലെങ്കിൽ എം. എ ക്ലാസ്സിൽ ചേരാനൊക്കുകയില്ല. സാറ് സഹായിക്കണം”. സാറിന്റെ കൈകൊണ്ടു് ഇട്ട മാർക്കിന്റെ അടിസ്ഥാനത്തിൽ ശിഷ്യനു് ഒന്നാംക്ലാസ്സ്. അയാൾ എം. എ ജയിക്കുന്നു. അധ്യാപകനായി അതേ സ്ഥാപനത്തിൽ വരുന്നു. മാർക്കിട്ട ഗുരു ലക്ചററായിരിക്കെ മറ്റൊരു വിഷയം പഠിപ്പിക്കുന്ന ആ ശിഷ്യൻ സെക്കൻഡ് ഗ്രേഡ് പ്രഫസറാകുന്നു. കുറെക്കഴിഞ്ഞു് ഫസ്റ്റ് ഗ്രേഡ് പ്രഫസർ. അല്പംകൂടി കഴിഞ്ഞപ്പോൾ പ്രിൻസിപ്പിൽ. പഴയ ഗുരു അപ്പോഴും ലക്ചറർ. ഒരു ദിവസം ആ ലക്ചറർ വൈകിയെത്തിയപ്പോൾ പ്രിൻസിപ്പിൽ അയാളോടു സമാധാനം ചോദിക്കുന്നു. “ഞാൻ നിങ്ങളെ പഠിപ്പിച്ച ആളല്ലേ. നിങ്ങൾ എന്നോടു സമാധാനം ചോദിക്കുന്നോ?” എന്നു് ലക്ചറർ “നിങ്ങളെ” എന്ന പദം ഉപയോഗിക്കാതെ അയാളോടു ചോദിക്കുന്നു. അപ്പോൾ മറുപടി. “പഠിപ്പിച്ചതു് ക്ലാസ്സിൽ ഞാനിരുന്നപ്പോൾ. ഇപ്പോൾ ഞാൻ പ്രിൻസിപ്പിൽ”. ലക്ചറർ ഓഫീസ് മുറിയിൽച്ചെന്നു കടലാസ്സെടുത്തു് “I am sorry I came late. I might kindly be excused” എന്നു എഴുതിക്കൊടുക്കുന്നു പ്രിൻസിപ്പിലിനു്. അതിൽ “explanation accepted” എന്നു പ്രിൻസിപ്പിൽ എഴുതുന്നു. രണ്ടു സംഭവങ്ങളിലെയും അധ്യാപകൻ എം. കൃഷ്ണൻനായർ തന്നെ.
ചോദ്യം:  പെൺകുട്ടി ഒറ്റയ്ക്കു വരുമ്പോൾ വിജനപ്രദേശത്തുവച്ചു് ഒരു യുവാവു് അവളുടെ നേരേ വന്നാൽ അവൾ വല്ലാതെ പേടിക്കില്ലേ?
ഉത്തരം:  ഇല്ല. എതിരേ വരുന്നതു തന്നെക്കാൾ സുന്ദരിയായ പെൺകുട്ടിയാണെങ്കിൽ അവൾ പേടിക്കും. വല്ലാതെ പേടിക്കും.
ചോദ്യം:  കഷണ്ടിക്കുള്ള സൗകര്യങ്ങൾ എന്തെല്ലാം?
ഉത്തരം:  മുഴുക്കഷണ്ടിയാണെങ്കിൽ ചീപ്പു് വേണ്ട. കുളികഴിഞ്ഞാൽ തല തോർത്താൻ എളുപ്പമുണ്ടു്. ബ്രിൽ ക്രീം വേണ്ട. പിന്നെ പെണ്ണുങ്ങൾ സ്നേഹിക്കും. അന്നാ കരേനിന എന്ന അതിസുന്ദരി സുന്ദരനായ ഭർത്താവിനെ ഉപേക്ഷിച്ചു് കഷണ്ടിക്കാരനായ വ്രോൺസ്കിയെ സ്നേഹിച്ചു. അർദ്ധകഷണ്ടിക്കാരനായ ഭരതു് ഗോപി ക്കുള്ള ആരാധികകൾ തലനിറയെ മുടിയുള്ള മറ്റഭിനേതാക്കൾക്കു് ഉണ്ടോ?
ചോദ്യം:  നല്ല ഭാര്യയെ എങ്ങനെ മനസ്സിലാക്കാം.
ഉത്തരം:  ഭർത്താവു് അവളുടെ സാരി നനച്ചുപിഴിഞ്ഞു് ഉണങ്ങാൻ വിരിക്കുമ്പോൾ അതു കാറ്റിൽ പറന്നുപോകാതെ ക്ലിപ്പ് ഇടുന്നവൾ നല്ല ഭാര്യ. അയാൾ കരിത്തോർത്തുടുത്തുകൊണ്ടു് അരി വാർക്കുമ്പോൾ ‘താഴെ എല്ലാംകൂടെ വന്നുവീഴരുതു്’ എന്നു നിർദ്ദേശിക്കുന്നവൾ നല്ല ഭാര്യ. ഭർത്താവും ഭാര്യയും രണ്ടാഫീസുകളിൽ ജോലിയായിരിക്കുമ്പോൾ, അവർക്കു കാറുണ്ടായിരിക്കുമ്പോൾ അവൾ കാറിൽ ഓഫീസിൽ പോകുകയും അയാൾ നടന്നുപോകുകയും ചെയ്താൽ അവൾ നല്ല ഭാര്യ.
ചോദ്യം:  നല്ല ഭർത്താവിനെ എങ്ങനെ മനസ്സിലാക്കാം.
ഉത്തരം:  ഭാര്യയും ഭർത്താവും രണ്ടു് ഓഫീസുകളിൽ ജോലിയായിരിക്കുമ്പോൾ, കാണാൻ കൊള്ളാവുന്ന വേലക്കാരി വീട്ടിലിരിക്കെ കൂടെക്കൂടെ തലവേദന വന്നു വീട്ടിൽ ഉച്ചയ്ക്കു ശേഷം എത്തുന്ന മനുഷ്യൻ നല്ല ഭർത്താവു്. വളരെ നല്ല ഭർത്താവു്.
ചോദ്യം:  നിങ്ങൾ ആജാനുബാഹുവാണോ?
ഉത്തരം:  കാലിന്റെ മുട്ടുവരെ എത്തുന്ന കൈയോടു കൂടിയവൻ ആജാനുബാഹു. ഞാൻ സാഹിത്യ സൃഷ്ടികളെ സമീപിക്കുമ്പോൾ സത്യത്തെ വലിച്ചുനീട്ടാറില്ല. അങ്ങനെ നീട്ടുന്നവർ ആജാനുബാഹുക്കളായിരിക്കും. നവീനനിരൂപകരുടെ കൈകൾ അളന്നുനോക്കൂ.
ചോദ്യം:  ജീവിതത്തിലെ ഏറ്റവും വലിയ നിർഭാഗ്യമേതു?
ഉത്തരം:  ദൗർഭാഗ്യമെന്നു പറയൂ. വിവാഹിതനായ മകന്റെ വീട്ടിലോ വിവാഹിതയായ മകളുടെ വീട്ടിലോ പെൻഷൻപറ്റിയതിനുശേഷം ജീവിക്കുക എന്നതു്. അങ്ങനെ ജീവിക്കുന്നവനു നേഴ്സറി സ്കൂളിലേക്കുള്ള ദൂരം, റേഷനരി വില്ക്കുന്ന കടയിലേക്കുള്ള ദൂരം, പഞ്ചാര വില്ക്കുന്ന കടയിലേക്കുള്ള ദൂരം ഇവ ദിവസം തോറും കൂടിക്കൂടി വരും.
ചോദ്യം:  നിങ്ങൾ നൂറിനു് നൂറും സത്യസന്ധനാണോ?
ഉത്തരം:  അല്ലേയല്ല. കോളേജിൽ ജോലിയായിരിക്കുമ്പോൾ ഞാൻ എത്ര കുട്ടികൾക്കാണു് conduct certificate എഴുതിക്കൊടുത്തിട്ടുള്ളതു്.
ഈ ശതാബ്ദത്തിലെ മഹനീയങ്ങളായ നാടകങ്ങളിൽ ഒന്നായിട്ടാണു് മില്ലറു ടെ “സെയിൽസ്മാന്റെ മരണം ” എന്നതു് പരിഗണിക്കപ്പെടുന്നതു്. ഞാനതു് വായിച്ചിട്ടു് വർഷങ്ങൾ ഏറെക്കഴിഞ്ഞിരിക്കുന്നു. വായിച്ച നാളിൽ അതത്ര കേമമാണെന്നു് എനിക്കു് തോന്നിയില്ല. ഐഡൻഡിറ്റി—അനന്യത—തകർന്നു തകർന്നു് ഒടുവിൽ ഇൻഷ്വറൻസ് പണം മകനു കിട്ടട്ടെ എന്നു് തീരുമാനിച്ചു് ആത്മഹത്യ ചെയ്ത ഒരു വില്ലി ലോമനെക്കുറിച്ചാണു് ആ നാടകമെന്നു് ഓർമ്മ എന്നോടു പറയുന്നു. ഒരുത്തന്റെ തകർച്ചയെ മില്ലർ സ്ഥൂലീകരിച്ചു് പ്രതിപാദിച്ചു എന്നതാണു് നാടകത്തിന്റെ ദോഷമായി എനിക്കു് തോന്നിയതു്. സ്ഥൂലീകരണം വരുമ്പോൾ സത്യം അസത്യമാകും. ഈ ദോഷം തന്നെയാണു് ഏതൽ ഫ്യൂഗാഡ് 1990-ൽ പ്രസിദ്ധപ്പെടുത്തിയ My Children! My Africa! എന്ന നാടകത്തിനുമുള്ളതു്. മിസ്റ്റർ എം ഒരു സ്കൂളിന്റെ ഹെഡ്മാസ്റ്ററാണു്. അദ്ദേഹം ഒരു വെള്ളക്കാരി പെൺകുട്ടി ഇസബെല്ലിനേയും കറുത്ത വർഗ്ഗക്കാരൻ തമിയെയും ഡിബേറ്റിൽ പങ്കെടുപ്പിക്കുന്നു. രണ്ടുപേരുടേയും സാമർത്ഥ്യത്തിൽ സന്തോഷം തോന്നിയ എം അവരെ ക്വിസ് പരിപാടിയിൽ ഉൾപ്പെടുത്തുന്നു. മൂന്നുപേരും അന്യോന്യം മനസ്സുകൊണ്ടടുക്കുമ്പോൾ എമ്മിനെക്കുറിച്ചു് തെറ്റിദ്ധാരണ ഉണ്ടാകുന്നു. വിജ്ഞാനമാർജ്ജിക്കലിനും സത്യപ്രസ്താവത്തിനും പരമപ്രാധാന്യം കൽപ്പിക്കുന്ന എം പോലീസിനു് വിപ്ലവകാരികളായ വിദ്യാർത്ഥികളെ ഒറ്റിക്കൊടുത്തു എന്നതാണു് ആരോപണം. പോലീസിനെ എം കണ്ടതു് സത്യമാണെങ്കിലും അദ്ദേഹം ഒറ്റിക്കൊടുക്കൽകാരനല്ല; ധർമ്മചിന്തയുടെ ശാശ്വത പ്രതീകമാണു്. അദ്ദേഹത്തിന്റെ ആ ഐഡൻഡിറ്റിയെ നശിപ്പിക്കാൻ തമിയും മറ്റുള്ളവരും ശ്രമിച്ചിട്ടും ഫലമുണ്ടാകുന്നില്ല. രക്ഷപ്പെടാൻ മാർഗ്ഗമുണ്ടായിരുന്നിട്ടും അതു പ്രയോജനപ്പെടുത്താതെ സോക്രട്ടീസി നെപ്പോലെ അദ്ദേഹം വധകർത്താക്കൾക്കായി ഇരുന്നു കൊടുക്കുന്നു. ഈ കഥാപാത്രം ബൃഹദാകാരമാർന്നുപോയതു കൊണ്ടു് അസത്യാത്മകമായി പരിണമിക്കുന്നു. ഏതൽ ഫ്യൂഗാഡിന്റെ രാഷ്ട്രവ്യവഹാര സിദ്ധാന്തത്തിനു് യോജിച്ച വിധത്തിൽ അദ്ദേഹം നാടകത്തിലൂടെ ഒരു കൊലപാതകം നടത്തുകയാണു്. “The Road to Mecca ” എന്ന അതിസുന്ദരമായ നാടകം രചിച്ച ഫ്യൂഗാഡാണു് ഇതും എഴുതിയതെന്നു പറഞ്ഞാൽ വിശ്വസിക്കാനാവുകയില്ല. “കല്ലുകളും പെട്രോൾ ബോംബുകളും പോലീസിന്റെ സായുധവാഹനങ്ങൾക്കകത്തു ചെല്ലുകില്ല. വാക്കുകൾക്കു് അതിനു കഴിയും” എന്നു് ഏം വിദ്യാർത്ഥിയായ തമിയോടു് പറയുന്നു. പക്ഷേ, ആ വാക്കുകൾ—സുശക്തങ്ങളായ വാക്കുകൾ—ഏതൽ ഫ്യൂഗാഡിന്റെ കൈയിൽ അശക്തങ്ങളായിത്തീരുന്നു.
വാക്കുകൾ കൊണ്ടു് ചിത്രങ്ങൾ വരയ്ക്കാൻ നമ്മുടെ കവികൾക്കുള്ള പ്രാഗൽഭ്യം സുവിദിതമാണു്. അതുകൊണ്ടു് വെണ്മണി, വള്ളത്തോൾ, കുഞ്ഞിക്കുട്ടൻ തമ്പുരാൻ ഇവരുടെ ശ്ലോകങ്ങൾ ഉദ്ധരിക്കേണ്ടതില്ല. അടുത്ത കാലത്തു് ഞാൻ ഡബ്ലു. എച്ച്. ഓഡന്റെ “The Age of Anxiety—A. Baroque Eclogue ” വായിച്ചു. നാടകത്തിന്റെ രൂപത്തിൽ എഴുതിയ ആ കാവ്യത്തിൽ പദങ്ങൾ കൊണ്ടുള്ള മനോഹരമായ ഒരു ചിത്രമുണ്ടു്.
Peasant wives are pounding
Linen on stones by a stream
And a doctor’s silk hat dances
On top of a hedge as he hurries
Along a sunken lane
(P. 304, Collected Longer Poems—Faber)
ഓഡന്റെ നാടകീയ രൂപമാർന്ന കാവ്യത്തിൽ ഏകാന്തതയുടെ ദുഃഖമനുഭവിച്ചു് ആദ്ധ്യാത്മിക സത്യം കണ്ടുപിടിക്കാൻ ശ്രമിക്കുന്ന ചില കഥാപാത്രങ്ങളെ കാണാം. സ്നേഹം സാക്ഷാത്കരിക്കാൻ കഴിയാത്തതാണു് ഒരു യുവാവിന്റെ ദുഃഖം. അയാൾ പറയുന്നു:
My mortal body
Has sinned on sofas; assigning to each
Points of pleasure, I have pencilled on envelopes
Lists of my loves
(P. 321)
മഹനീയമായ പ്രേമം തീർച്ചയായുമുണ്ടു് എന്നൊരു വിചാരം പണ്ടു് എനിക്കുണ്ടായിരുന്നു. അതില്ലെങ്കിൽ ഷേക്സ്പിയർ “റോമിയോ ആൻഡ് ജൂലിയറ്റ്” എഴുതിയതു് എങ്ങനെ എന്നായിരുന്നു ഞാൻ എന്നോടു തന്നെ ചോദിച്ചതു്. നമുക്കു് ഒരിക്കലും കാണാൻ കഴിയാത്തതിനെയാണു് കവികൾ കാണിച്ചു് തരുക. തന്റെ നാടകത്തിലൂടെ ഷേക്സ്പിയർ മഹത്വമാർന്ന പ്രേമത്തെ ചിത്രീകരിച്ചു. അതുകൊണ്ടു് സംശയരഹിതമായി പറയാം, മഹനീയമായ പ്രേമമുണ്ടു്. പക്ഷേ, ഇന്നു് എനിക്കു് ആ വിചാരമില്ല.
ശ്രീ. ഇ. വി. ശ്രീധരൻ മാതൃഭൂമി ആഴ്ചപ്പതിപ്പിൽ എഴുതിയ ‘ശരണം നാരായണീയം” എന്ന ചെറുകഥയിൽ സ്നേഹിക്കാൻ കഴിയാത്ത ഒരാളെ കാണാം. ഐസ്ക്രീം വാങ്ങിക്കൊടുത്ത ലക്ഷ്മിക്കുട്ടിയെ, അതു കഴിക്കാതെ അയാൾ നിരാകരിക്കുന്നു. ബന്ധുക്കളെ അയാൾക്കു് സ്നേഹിക്കാനാവുന്നില്ല. തന്നോടു് നിഷ്കളങ്കമായ സ്നേഹമുള്ള ഒരു കൊച്ചു കുട്ടിയെപ്പോലും അയാൾ സ്നേഹമില്ലായ്മ കൊണ്ടു് വേദനിപ്പിക്കുന്നു. ഒടുവിൽ ആദ്ധ്യാത്മികത്വത്തിൽ വിലയം കൊള്ളാൻ പോവുകയാണു് അയാൾ. അവിടെയും അയാൾ പരാജയപ്പെടുകയേയുള്ളൂ. കാരണം അത്രകണ്ടു് അയാളുടെ മനസ്സു് ശൂന്യമാണു് എന്നതു തന്നെ. സമകാലിക മനുഷ്യന്റെ ആന്തര ശൂന്യതയെ ഒരു കഥാപാത്രത്തിലൂടെ ചിത്രീകരിക്കുകയാണു് ഇ. വി. ശ്രീധരൻ.
മഹനീയമായ പ്രേമം തീർച്ചയായുമുണ്ടു് എന്നൊരു വിചാരം പണ്ടു് എനിക്കുണ്ടായിരുന്നു. അതില്ലെങ്കിൽ ഷേക്സ്പിയർ “റോമിയോ ആൻഡ് ജൂലിയറ്റ് ” എഴുതിയതു് എങ്ങനെ എന്നായിരുന്നു ഞാൻ എന്നോടു തന്നെ ചോദിച്ചതു്. നമുക്കു് ഒരിക്കലും കാണാൻ കഴിയാത്തതിനെയാണു് കവികൾ കാണിച്ചു് തരുക. തന്റെ നാടകത്തിലൂടെ ഷേക്സ്പിയർ മഹത്വമാർന്ന പ്രേമത്തെ ചിത്രീകരിച്ചു. അതുകൊണ്ടു് സംശയരഹിതമായി പറയാം, മഹനീയമായ പ്രേമമുണ്ടു്. പക്ഷേ, ഇന്നു് എനിക്കു് ആ വിചാരമില്ല. “പൂവുപോലുള്ളൊരോമനക്കൗതുകം” മാത്രമാണു് അതെന്നും അതു യൗവനകാലത്തേ ഉണ്ടാവുകയുള്ളൂവെന്നും ഞാൻ കരുതുന്നു. ദാമ്പത്യജീവിതത്തിലെ ആ കൗതുകം വിവാഹം കഴിഞ്ഞു് പതിനഞ്ചുദിവസത്തിനുശേഷം കെട്ടടങ്ങുന്നു. പിന്നെ അനുരഞ്ജനംകൊണ്ടേ ആ ജീവിതം നിലനിറുത്തിക്കൊണ്ടുപോകാൻ സാധിക്കൂ. അനുരഞ്ജനം സാദ്ധ്യമാകണമെങ്കിൽ ജീവിതത്തിന്റെ മാധുര്യംകലർന്ന ഭാഗങ്ങളും കയ്പുചേർന്ന ഭാഗങ്ങളും ഒരേമട്ടിൽ സ്വീകരിക്കണം. ഒരു സ്ത്രീ ജീവിതവൈഷമ്യങ്ങൾ പരിഹരിക്കാൻ വേണ്ടി ഒരു മനഃശ്ശാസ്ത്രജ്ഞന്റെ അടുക്കലെത്തി. അവൾ കെയ്ക്ക് തിന്നുമോ എന്നു അയാളുടെ ചോദ്യം. തിന്നുമെന്നു മറുപടി കിട്ടിയപ്പോൾ കെയ്ക്കിന്റെ ഫ്രോസ്റ്റിങ്ങാണോ (പഞ്ചാരയും മുട്ടയും ചേർത്തു് മുകളിൽ വച്ച ഭാഗം) അതിന്റെ താഴത്തെ ഭാഗമാണോ ആദ്യം കഴിക്കുന്നതു് എന്നു് അയാൾ ചോദിച്ചു. ഫ്രോസ്റ്റിങ് കഴിച്ചിട്ടേ മറ്റേഭാഗത്തു പല്ലമർത്തൂ എന്നു് അവർ മറുപടി നല്കി. ചിലർ അങ്ങനെയാണു്. വേറെ ചിലർ അത്രകണ്ടു രുചികരമല്ലാത്ത താഴത്തെ ഭാഗം ആദ്യം കഴിച്ചിട്ടു് മാധുര്യമേറിയ മുകൾഭാഗത്തേയ്ക്കു വരും. മറ്റു ചിലർ രണ്ടും ഒരേസമയം കടിച്ചു ഉള്ളിലാക്കും. ഫോസ്റ്റിങ് ആദ്യം കഴിക്കുന്നവർ ജീവിതത്തിന്റെ സുഖപ്രദമായ അംശം മാത്രം സ്വീകരിക്കുന്നവർ. താഴത്തെ ഭാഗം ആദ്യം കഴിക്കുന്നവർ സുഖപ്രദമായതിനെ പിന്നീടു് അനുഭവിച്ചു് സുഖാനുഭൂതി കൂട്ടാം എന്നു വിചാരിക്കുന്നവർ. രണ്ടും ഒരുമിച്ചു കഴിക്കുന്നവർ ജീവിതത്തിന്റെ എല്ലാ ഭാഗങ്ങളും ഒരേരീതിയിൽ സ്വീകരിക്കുന്നവർ. നമ്മളിൽ പലർക്കും ഇതിനു കഴിയില്ല. ഫ്രോസ്റ്റിങ് മാത്രം മതി എന്നു കരുതുന്നവരാണു് ഇക്കൂട്ടർ.
ശ്രീ. സതീഷ്ബാബു പയ്യന്നൂർ കലാകൗമുദിയിൽ എഴുതിയ “ഭാമാമുകുന്ദൻ കഥ വായിക്കുന്നു” എന്ന ചെറുകഥയിൽ ആദ്യമൊക്കെ ഫ്രോസ്റ്റിങ് തിന്നു ശീലിച്ച സ്ത്രീ ഒടുവിൽ ഭേദചിന്തകൂടാതെ കെയ്ക്കാകെ ഭക്ഷിക്കുന്നതിന്റെ ചിത്രം കാണാം. വേറൊരുതരത്തിൽ പറയാം. ദാമ്പത്യജീവിതത്തിന്റെ പ്രാരംഭകാലത്തു ഭർത്താവുമായി അനുരഞ്ജനം തേടാത്തവൾ പില്ക്കാലത്തു് അതു തേടുന്നു. ജീവിതത്തിൽ വിജയം പ്രാപിക്കുന്നു. ജീവിതസ്പന്ദത്തെക്കാൾ ടെക്നിക്കിനാണു് ഇക്കഥയിൽ പ്രാധാന്യം. (കെയ്ക്കിന്റെ കഥ ഞാനേതോ ഇംഗ്ലീഷ് പുസ്തകത്തിൽ കണ്ടതാണു്.)
1990-ൽ സാഹിത്യത്തിനുള്ള നോബൽ സമ്മാനം നേടിയ ഒക്താവ്യോ പാസ്സി ന്റെ കാവ്യങ്ങൾ (1957 തൊട്ടു് 1987 വരെയുള്ളതു്) ലണ്ടനിലെ paladin Grafton Books പ്രസാധനം ചെയ്തിരിക്കുന്നു. വിഖ്യാതമായ“Sunstone ” തൊട്ടു് ഏറ്റവും പുതിയ കാവ്യമായ “A Tree Within” എന്നതുവരെ 669 പുറങ്ങളുള്ള ഈ ഗ്രന്ഥത്തിൽ ചേർത്തിരിക്കുന്നു. (വില £9.99. Spl.£4.95) പെൻഗ്വിൻ ബുക്ക്സ് 1979-ൽ പ്രസാധനം ചെയ്ത “Selected Poems” ഈ ഗ്രന്ഥത്തിന്റെ മുൻപിൽ നിഷ്പ്രഭമായിപ്പോകുന്നു.
ജീവിതം ഭ്രമജനകസ്ഥാനമാണെന്നും (labyrinth) അതിൽനിന്നു രക്ഷനേടാൻ അന്യനിൽ തന്നെ സാക്ഷാത്കരിക്കണമെന്നും വിശ്വസിക്കുന്ന കവിയാണു് പാസ്. അന്യൻ നരകമാണെന്ന സാർത്രി ന്റെ വിശ്വാസം അദ്ദേഹത്തിനില്ല. അധ്യാത്മിക വിശുദ്ധി, സ്നേഹം, കവിത ഈ മൂന്നിലൂടെയുമാണു് അന്യനിൽ സാക്ഷാത്കാരം നേടി മനുഷ്യൻ സമ്പൂർണ്ണനാകുക. ഈ ചിന്താഗതിയുടെ കലാത്മകങ്ങളായ ആവിഷ്കാരങ്ങളാണു് പാസ്സിന്റെ കാവ്യങ്ങളെന്നു സാമാന്യപ്രസ്താവം നടത്താവുന്നതാണു്. പക്ഷേ, ആസ്വാദനത്തിനു വഴങ്ങിത്തരുന്നവയല്ല അദ്ദേഹത്തിന്റെ കാവ്യങ്ങൾ. ഇമേജറിയ സ്വന്തം നാട്ടിന്റെ ചരിത്രത്തോടു ബന്ധപ്പെടുത്തി സറീയലിസത്തിന്റെ ടെക്നിക്കിലൂടെ സ്ഫുടീകരിക്കുന്ന കാവ്യങ്ങൾ ആവർത്തിച്ചുള്ള പാരായണത്തിനുശേഷവും അനഭിഗമ്യങ്ങളായി വർത്തിക്കുന്നു. വിരളമായി അതു് സ്പഷ്ടതയോടെ വിരാജിക്കുന്നുമുണ്ടു്.
നക്ഷത്രങ്ങൾ നിറഞ്ഞ രാത്രിയുടെ ഉദാത്ത സൗന്ദര്യം ആസ്വദിക്കുന്ന കവി കള്ളിച്ചെടികളും മുള്ളുകളും പാറക്കെട്ടുകളുമുള്ള ലോകത്തു നില്ക്കുകയാണെന്നു പെട്ടെന്നു് മനസ്സിലാക്കുന്നു:
Tell me, drouth, tell me, burnt earth,
earth of ground nones, tell me agonized moon:
is there no water
is there only blood, only dust, only
naked footsteps on the thorns.
തുടർന്നു വരുന്ന എല്ലാ വരികളും ഇതുപോലെ സുശക്തങ്ങളാണു്. നമ്മുടെ ലോകത്തിന്റെ ഗർഹണീതയെ വ്യഞ്ജിപ്പിക്കുന്നതാണു്. (ഐക്കവിത പെൻഗ്വിൻ പ്രസാധനത്തിൽനിന്നു്) സമ്പൂർണ്ണമായ ആസ്വാദനമുണ്ടായാലും ഇല്ലെങ്കിലും ഈ Paladin പ്രസാധനം കവിതയിൽ താല്പര്യമുള്ളവരുടെ കൈയിൽ ഉണ്ടായിരിക്കേണ്ടതാണു്.
ജന്മനാ കവിയാണു് ശ്രീ. ശ്രീരേഖ. അദ്ദേഹം അർഹിക്കുന്ന രീതിയിൽ കീർത്തി കിട്ടിയില്ല എന്നതു് എന്നെ വേദനിപ്പിക്കുന്നു. ഇന്നു മഹായശ്ശസ്സു് ആർജ്ജിച്ചു് വിരാജിക്കുന്ന പല കവികൾക്കുള്ളതിനെക്കാൾ കാവ്യശക്തി അദ്ദേഹത്തിനുണ്ടു്. ദേശാഭിമാനി വാരികയിൽ അദ്ദേഹം എഴുതിയ “ഗുഹൻ” എന്ന കാവ്യം ഏകാന്തത്തിലിരുന്നു പ്രിയപ്പെട്ട വായനക്കാർ ഉറക്കെ വായിച്ചുനോക്കുക. കാവ്യത്തിന്റെ ലയത്തിൽ അവർ ആമജ്ജനം ചെയ്തു് അസുലഭാനുഭൂതിക്കു വിധേയരാകും. ആ ലയം സത്യത്തിന്റെ തേജോമയമായ മണ്ഡലത്തിൽ അവരെ കൊണ്ടുചെല്ലും.
വാല്മീകിരാമായണ ത്തിലും അധ്യാത്മരാമായണ ത്തിലും പ്രതിപാദിക്കപ്പെട്ട ഒരു വിഷയത്തെ അവലംബിച്ചു കാവ്യം രചിക്കുന്ന ശ്രീരേഖ അതിനെ സമകാലികമായ സംഭവങ്ങളോടു കൂട്ടിയിണക്കി അനുവാചകരെ ചിന്തയുടെ തീരത്തിലേക്കു നയിക്കുന്നു. അവിടെ കുറച്ചുനേരം നിന്നിട്ടു് കാവ്യത്തിന്റെ ലയത്തിലൂടെ വികാരസമുദ്രത്തിലേക്കു അവർ ഒഴുകിപ്പോകുന്നു. ഒഴുകിപ്പോകുന്ന സഹൃദയൻ കയങ്ങളിൽ ആണ്ടുപോകുന്നില്ല. ആ തരംഗപരമ്പരകളിലൂടെ വീണ്ടും ചിന്തയുടെ തീരത്തു് എത്തുന്നു. അവിരാമമായ സഞ്ചാരം. ശ്രീരേഖയുടെ ആശയവിശേഷത്തോടു യോജിക്കാത്തവർപോലും ഇക്കാവ്യം ആർജ്ജവമാർന്നതാണെന്നും അതുകൊണ്ടുതന്നെ കലാപരമായ ദൃഢപ്രത്യയം ഉളവാക്കുന്നതാണെന്നും സമ്മതിക്കും.
ത്രേതായുഗത്തിൻ നിലവറയിൽപ്പെട്ടു
കാണാതെ മൂടിക്കിടന്നൊരിത്താളുകൾ
തട്ടിക്കുടഞ്ഞു മഷിയിട്ടയോദ്ധ്യയിലെത്തിക്ക
കണ്ണുള്ളവർക്കു വായിക്കുവാൻ.
കണ്ണുള്ളവർ ശ്രീരാമൻ ആയിരുന്നെന്നു ഗ്രഹിക്കും. കണ്ണുള്ളവർ ശ്രീരേഖയുടെ കാവ്യം വായിച്ചു് കവി അർഹിക്കുന്ന രീതിയിൽ അദ്ദേഹത്തെ മാനിക്കും.
(ബുദ്ധിമാനായ ശ്രീ. എം. പി. നാരായണപിള്ള ഒരിക്കൽ ദയാപൂർവ്വം എന്റെ വീട്ടിൽ വന്നു. പലതും സംസാരിച്ച കൂട്ടത്തിൽ അദ്ദേഹം പറഞ്ഞു സാഹിത്യവാരഫലത്തിൽ പതിവായി നിർവ്വചനങ്ങൾ വേണമെന്നു്. അദ്ദേഹത്തിന്റെ നിർദ്ദേശം സ്വീകരിച്ചു ചിലതു കുറിക്കട്ടെ.)
മുൻപു് ബന്ധമില്ലാതിരുന്ന അനുഭവത്തിന്റെ മാനങ്ങളെ ബന്ധപ്പെടുത്തുകയും മനുഷ്യനെ മാനസികപരിണാമത്തിന്റെ ഉന്നതതലത്തിൽ എത്തിക്കുകയും ചെയ്യുന്നതാണു് സർഗ്ഗാത്മക പ്രവർത്തനമെന്നു കൊയ്റ്റ്സ്ലർ “The Act of Creation ” എന്ന ഗ്രന്ഥത്തിൽ പറഞ്ഞിരിക്കുന്നു. ഇനി എഴുതുന്നതു് അദ്ദേഹത്തിന്റെ അഭിപ്രായമല്ല. ഒരനുഭവത്തെ കൂടുതൽ സമ്പന്നമാക്കാൻ വേണ്ടി സത്യത്തെ അതിന്റെ അഗാധതയിൽ ചിത്രീകരിക്കുന്നതും സർഗ്ഗപ്രവർത്തനമാണു്.
“ഒന്നു നടുങ്ങി ഞാൻ; ആ നടുക്കംതന്നെ
മിന്നു മുഡുക്കളിൽ ദൃശ്യമാണിപ്പൊഴും”
എന്നു വായിക്കുമ്പോൾ സത്യത്തെ അതിന്റെ ആഴത്തിൽ നമ്മൾ കാണുന്നു.
