= അഗ്രോണമി =
Agronomy

കാര്‍ഷികവിളകളുടെ ഉത്പാദനത്തെയും അവയുടെ വൈവിധ്യമനുസരിച്ച് മണ്ണിനെ കൈകാര്യം ചെയ്യുന്നതിനെയും കുറിച്ച് പ്രതിപാദിക്കുന്ന കാര്‍ഷികവിജ്ഞാനശാഖ. മണ്ണിന്റെ സ്വഭാവം, കാലാവസ്ഥ, രാസവളങ്ങളുടെ ഉപയോഗം, വിളകള്‍ ഉത്പാദിപ്പിക്കുന്നതിന്റെ സാമ്പത്തികവശം, വിളകളുടെ രോഗങ്ങള്‍, അവയുടെ നിവാരണമാര്‍ഗങ്ങള്‍ തുടങ്ങിയ ഘടകങ്ങളെക്കുറിച്ചുള്ള വിജ്ഞാനം ഈ ശാസ്ത്രശാഖ നല്കുന്നു. ആധുനിക അഗ്രോണമി ഗ്രന്ഥങ്ങളില്‍ ധാന്യങ്ങളും നാരുകളും ഉത്പാദിപ്പിക്കുന്ന ചെടികളെ മാത്രമേ ഈ ശാഖയില്‍ ഉള്‍ക്കൊള്ളിച്ചുകാണുന്നുള്ളു.

(ഡോ. ജി.വി. തമ്പി)
[[Category:കൃഷിശാസ്ത്രം]]