= അടമാങ്ങ =

ഉപ്പുചേര്‍ത്ത് ഉണക്കി പാകപ്പെടുത്തുന്ന മാങ്ങാക്കഷണം. വിളഞ്ഞു പാകംവന്ന മാങ്ങയുടെ മാംസളമായ ഭാഗം പരിപ്പിന്റെ പുറംതോടിനോടു ചേര്‍ത്ത് നാലായി പിളര്‍ന്ന് ഉപ്പുപൊടി പുരട്ടി ഏതാനും മണിക്കൂര്‍ വച്ചശേഷം വെയിലത്തുവച്ച് ഉണക്കിയെടുക്കുന്നു. മാങ്ങ നീളത്തില്‍ കീറി അരിഞ്ഞ് മസാല ചേര്‍ത്ത് ഉണക്കിയും അടമാങ്ങ തയ്യാറാക്കാറുണ്ട്. ഉണക്കിയെടുത്ത മാങ്ങ ഈര്‍പ്പം തട്ടാത്തവണ്ണം ഭരണികളില്‍ അടക്കംചെയ്ത് സൂക്ഷിക്കുന്നു. മാങ്ങാക്കറി ഉണ്ടാക്കുന്നതിനും ചിലയിനം കറികളില്‍ പുളിക്കുപകരം ചേര്‍ക്കുന്നതിനും അടമാങ്ങ പ്രയോജനപ്പെടുന്നു. പച്ചമാങ്ങ സുലഭമല്ലാത്ത കാലങ്ങളിലെ ഉപയോഗത്തിന് മാങ്ങ സൂക്ഷിച്ചുവയ്ക്കുന്ന പല സമ്പ്രദായങ്ങളില്‍ 
ഒന്നാണിത്. നോ: അച്ചാര്‍
[[Category:ഭക്ഷണം]]