= അനിര്യുക്തം =

രാഗം, താളം, മാത്ര എന്നിവ നോക്കാതെ രചിക്കപ്പെടുന്ന കൃതി. മധ്യകാലഘട്ടത്തില്‍ സംഗീതകൃതികളെയും പ്രബന്ധങ്ങളെയും നിര്യുക്തം (നിയമവിധേയം) എന്നും അനിര്യുക്തം (നിയമരഹിതം) എന്നും രണ്ടായി വിഭജിച്ചിരുന്നു. രാഗം, താളം, മാത്ര എന്നീ വ്യവസ്ഥകള്‍ അംഗീകരിച്ചുകൊണ്ട് രചിക്കപ്പെടുന്ന കൃതികള്‍ നിര്യുക്തങ്ങളും ഇവയൊന്നും അത്ര കാര്യമാക്കാതെ രചിക്കപ്പെടുന്നവ അനിര്യുക്തങ്ങളുമായി വിവക്ഷിക്കപ്പെട്ടിരുന്നു. 

(വി.എസ്. നമ്പൂതിരിപ്പാട്)
[[Category:സാഹിത്യം]]