= അതിസാരം =
Diarrhoea


പല ആവൃത്തി, സ്വാഭാവികമല്ലാത്ത രീതിയിലുള്ള മലം പോകുന്ന രോഗം. രോഗിയുടെ മലത്തില്‍ക്കൂടിയാണ് ഇതിന്റെ രോഗാണുക്കള്‍ മറ്റാളുകളിലേക്കു പകരുന്നത്. വിഷബാധയുള്ള ഭക്ഷ്യസാധനങ്ങള്‍, പാകമാകാത്ത പഴവര്‍ഗങ്ങള്‍, കുടലിലെ ചലനം വര്‍ധിപ്പിക്കുന്ന ബാക്ടീരിയകള്‍, പ്രോട്ടോസോവകള്‍ (Protozoans),വിരകള്‍ മുതലായവ അതിസാരമുണ്ടാക്കുന്നു. അന്നപഥത്തിലെ ക്ഷയം, അര്‍ബുദം, റ്റൈഫോയ്ഡ് എന്നീ രോഗങ്ങളുടെ ലക്ഷണമായും അതിസാരമുണ്ടാകാം. ഒരു വയസ്സിനു താഴെയുള്ള കുട്ടികള്‍ക്കു പച്ചനിറത്തില്‍ മലം പോകുന്നത് അതിസാരത്തിന്റെ ലക്ഷണമാണ്. ഇതു തടയാത്തപക്ഷം ശക്തിയായി പനി വരികയും ശരീരത്തില്‍ ജലാംശവും സോഡിയവും മാരകമായവിധം നഷ്ടപ്പെടുകയും ചെയ്യും. കാലാവസ്ഥ, സ്ഥലം, ഭക്ഷണം എന്നിവയുടെ മാറ്റംകൊണ്ടും അതിസാരം ഉണ്ടാകാം. രോഗമുള്ളപ്പോള്‍ മുട്ട, ഇറച്ചി, ചോറ് ഇവ വര്‍ജിക്കണം. കയൊലിന്‍ മിക്സ്ചര്‍, സള്‍ഫാഗ്വാനഡിന്‍ എന്നിവ ഈ രോഗത്തിനു പ്രതിവിധിയാണ്.

ആയുര്‍വേദത്തില്‍, ത്രിദോഷാടിസ്ഥാനത്തില്‍ ആറു വിധത്തിലുള്ള അതിസാരങ്ങള്‍ വിവരിക്കുന്നുണ്ട്. വാതപ്രധാനമായ അതിസാരത്തില്‍ നുരയും പതയും ഉള്ളതും പിത്താതിസാരത്തില്‍ രക്തവും ദുര്‍ഗന്ധമുള്ളതും കഫാതിസാരത്തില്‍ ദഹിക്കാത്തതും കഫത്തോടുകൂടിയതും ആയ മലമാണ് അതിസരിക്കുക.

(ഡോ. നളിനി വാസു)
[[Category:വൈദ്യശാസ്ത്രം-രോഗം]]