= അന്ത്യേഷ്ടി =

അന്ത്യമായ ഇഷ്ടി, അതായത് അവസാനത്തില്‍ ചെയ്യേണ്ടതായ യാഗം. ആഹവനീയന്‍, ഗാര്‍ഹപത്യന്‍, ദക്ഷിണന്‍, സഭ്യന്‍, ആവസ്ഥ്യന്‍ എന്നീ പഞ്ചാഹ്നികളെ ഉപാസിക്കുന്ന ആഹിതാഗ്നിയായ ദീക്ഷിതന്റെ മരണാനന്തരക്രിയകള്‍. ശവദാഹം മുതല്‍ പിണ്ഡംവരെ ചെയ്യേണ്ട പിതൃകര്‍മം ഇതില്‍ ഉള്‍ക്കൊള്ളുന്നു. അന്ത്യേഷ്ടിയുടെ നിര്‍വഹണക്രമം ആശ്വലായന ഗൃഹ്യസൂത്രത്തില്‍ നാലാം അധ്യായം ഒന്നുമുതല്‍ നാലുവരെയുള്ള ഖണ്ഡങ്ങളില്‍ വിസ്തരിച്ചിട്ടുണ്ട്. നോ: അപരക്രിയ.

(വി.എസ്.വി. ഗുരുസ്വാമിശാസ്ത്രികള്‍)
[[Category:ആചാരം]]