=അളകനന്ദ=

ഗംഗയുടെ ഒരു പ്രധാന ശാഖ. ഹിമാലയത്തില്‍നിന്ന് ഉദ്ഭവിച്ച് ഉത്തരാഞ്ചലിലെ ഗഢ്വാള്‍ ജില്ലയുടെ വടക്കരികിലൂടെ ഒഴുകി ടഹരി ഗഢ്വാള്‍ ജില്ലയില്‍ പ്രവേശിക്കുന്ന ഈ നദി ദേവപ്രയാഗ് എന്ന സ്ഥലത്തുവച്ച് വലതുഭാഗത്തുനിന്നും ഒഴുകിയെത്തുന്ന ഭാഗീരഥിയുമായി ഒത്തുചേര്‍ന്ന് ഗംഗാനദിക്കു രൂപംനല്കുന്നു. അളകനന്ദയെ ഭാരതത്തിലെ വിശുദ്ധ നദികളിലൊന്നായി ഹിന്ദുക്കള്‍ പരിഗണിക്കുന്നു. കൈമേട് പര്‍വതത്തിന്റെ (6,856 മീ.) ചരിവുകളില്‍ നിന്നുദ്ഭവിക്കുന്ന ധൗളി, സരസ്വതി എന്നീ ചെറുനദികള്‍ ഗംഗോത്രി - കേദാര്‍നാഥ്, ബദരീനാഥ് ഈ പര്‍വതശിഖരങ്ങളുടെ കിഴക്കുവശത്തുവച്ച് ഒന്നുചേര്‍ന്നാണ് അളകനന്ദയായിത്തീരുന്നത്. ഭാഗീരഥിയുമായി ചേരുന്നതിനുമുന്‍പ് മാപിന്ദര്‍, നന്ദാകിനി, മന്ദാകിനി എന്നീ ചെറുനദികള്‍ അളകനന്ദയില്‍ ലയിക്കുന്നു. ഈ നദികളുടെ സംഗമസ്ഥാനങ്ങള്‍ യഥാക്രമം കര്‍ണപ്രയാഗ്, നന്ദപ്രയാഗ്, രുദ്രപ്രയാഗ് എന്നീ പേരുകളില്‍ അറിയപ്പെടുന്ന പുണ്യതീര്‍ഥങ്ങളാണ്. കേദാരനാഥം തീര്‍ഥാടനപ്രാധാന്യമുള്ള സ്ഥലമാണ്.

ബദരീനാഥിന് അല്പം മുകളില്‍ അളകനന്ദ അഞ്ചോ ആറോ മീ. വീതിയില്‍ അഗാധമായ ചാലിലൂടെ കുത്തിയൊഴുകുന്ന ഒരു ചെറുനദി മാത്രമാണ്. ഇതിനും മുകളിലേക്കുള്ള നദീമാര്‍ഗം മഞ്ഞിനടിയില്‍ മൂടിക്കിടക്കുന്നു. കുബേരരാജധാനിയായ അളകാപുരി ഇതിനും മുകളിലായി സ്ഥിതിചെയ്യുന്നുവെന്നാണ് പുരാണ സങ്കല്പം. ദേവപ്രയാഗിലെത്തുമ്പോള്‍ നദീമാര്‍ഗത്തിന്റെ വീതി 45-50 മീ. ആയി വര്‍ധിക്കുന്നു. അളകനന്ദയുടെ തീരത്താണ് ശ്രീനഗര്‍ നഗരം സ്ഥിതിചെയ്യുന്നത്.