= അംഗവാക്യം =

ഒരു പ്രധാനവാക്യത്തിന് സഹായകമായി നില്ക്കുന്ന ഉപവാക്യം (subordinate clause). ശരീരത്തിന് അവയവമെന്നോണം, പ്രധാന (അംഗി)വാക്യത്തിന് അംഗമായി വര്‍ത്തിക്കുന്നു. ഇത് കര്‍ത്താവ്, കര്‍മം, ക്രിയ എന്നിവയില്‍ ഏതെങ്കിലും ഒന്നിന്റെ വിശേഷണമായിരിക്കും. അനേകം ഉപവാക്യങ്ങള്‍ ചേര്‍ന്ന ഒരു ബൃഹദ്‍വാക്യത്തെ തരംതിരിച്ച് അപഗ്രഥിക്കുന്നതിന് അപോദ്ധാരമെന്നു പറയുന്നു. അംഗിവാക്യത്തെയും അംഗവാക്യങ്ങളെയും വേര്‍തിരിക്കുകയാണ് ഇതിന്റെ ആദ്യത്തെ പടി. ഉദാ. ഉറങ്ങിക്കിടന്ന കുട്ടി ശബ്ദംകേട്ട് ഞെട്ടി ഉണര്‍ന്നു: ഇതില്‍ 'കുട്ടി ഉണര്‍ന്നു' എന്നത് അംഗിവാക്യം. 'ഉറങ്ങിക്കിടന്ന' എന്നതും 'ശബ്ദംകേട്ട് ഞെട്ടി' എന്നതും അംഗവാക്യങ്ങള്‍.
[[Category:ഭാഷാശാസ്ത്രം]]