= അപവാര്യ =

ഭാരതീയനാടകങ്ങളില്‍ കഥാപാത്രങ്ങള്‍ രംഗസ്ഥരായിരിക്കുമ്പോള്‍ അവരില്‍ രണ്ടുപേര്‍ രഹസ്യമായി ചെയ്യുന്ന സംഭാഷണം. അപവാരിതമായി (മറ്റുള്ളവരില്‍നിന്ന് മറച്ചുവച്ചുകൊണ്ട്) പറയുന്നത് അപവാര്യ. ഈ ഗൂഢഭാഷണപ്രയോഗം പാശ്ചാത്യനാടകങ്ങളിലും ഉണ്ട്. യാഥാതഥ്യപ്രതീതിക്ക് ഭംഗംവരുത്തുമെന്നുള്ളതിനാല്‍ നവീന നാടകകൃത്തുകള്‍ ഇത്തരം പ്രയോഗങ്ങളെ കഴിയുന്നത്ര ഒഴിവാക്കുന്നു.
[[Category:സാഹിത്യം]]