
== ഇരുതുടി ==

കേരളീയ അവനദ്ധവാദ്യം. വലുപ്പത്തില്‍ ചെണ്ടയെക്കാള്‍ ചെറുതാണ്‌ ഇരുതുടി. പിലാവിന്റെ കാതല്‍ തുരന്നുണ്ടാക്കുന്ന കുറ്റിയുടെ രണ്ടു തലപ്പത്തും തുകല്‍കൊണ്ടു മൂടി വാറിട്ടു മുറുക്കിയാണ്‌ ഇതുണ്ടാക്കുന്നത്‌. ദേവവിഗ്രഹങ്ങളെ ക്ഷേത്രത്തില്‍നിന്നും പുറത്തേക്കെഴുന്നള്ളിക്കുമ്പോള്‍ ചെണ്ട, മദ്ദളം തുടങ്ങിയവയോടൊപ്പം കൊട്ടുന്ന ഒരു വാദ്യോപകരണമെന്നതില്‍ക്കവിഞ്ഞ്‌ കലാവിരുതു പ്രയോഗിക്കാനുള്ള ഒരു ഉപകരണമായി ഇതിനെ കണക്കാക്കാറില്ല. ചെണ്ടയിലെ വലംതലയെപ്പോലെ താളത്തിനു മാത്രമേ ഇതുപയോഗിക്കാറുള്ളൂ. ആറാട്ട്‌, താലപ്പൊലി തുടങ്ങിയ ആഘോഷങ്ങളിലും കുഴല്‍പ്പറ്റിന്റെ അവസാനഘട്ടത്തിലുള്ള കൂടിക്കലാശത്തിനും ചെണ്ടയോടൊപ്പം ഇരുതുടിയും കൊട്ടാറുണ്ട്‌.