==ഉത്തരാസ്വയംവരം==

ഇരയിമ്മന്‍തമ്പി രചിച്ച ആട്ടക്കഥ. പാണ്ഡവരുടെ അജ്ഞാതവാസകാലത്തെ ചില സംഭവങ്ങളാണ്‌ ഇതിലെ മുഖ്യ പ്രതിപാദ്യം. ഇരയിമ്മന്‍ തമ്പി തന്റെ ആദ്യത്തെ ആട്ടക്കഥയായ കീചകവധത്തിന്റെ തുടര്‍ച്ചയായാണ്‌ ഇതിനെ സങ്കല്‌പിച്ചിട്ടുള്ളത്‌. കൗരവസദസ്സില്‍ കീചകവധത്തെക്കുറിച്ചുള്ള വാര്‍ത്ത ദൂതന്‍ വന്നു പറയുന്നു. "ചത്തതു കീചകനെങ്കില്‍ കൊന്നതു ഭീമന്‍ തന്നെ' എന്ന സദസ്യരുടെ അഭിപ്രായംകേട്ട്‌ ദുര്യോധനന്‍ പാണ്ഡവരുടെ താവളമായിരുന്ന മാത്സ്യരാജപുര(വിരാട)ത്തിലെ ഗോധനത്തെ അപഹരിക്കാന്‍ തീരുമാനിക്കുന്നു. വിരാടത്തിലെ ഗോസമ്പത്തിനെ കവര്‍ന്നെടുക്കാന്‍ നിയോഗിക്കപ്പെടുന്നത്‌ സുശര്‍മനാണ്‌. അയാള്‍ യുദ്ധത്തില്‍ വിരാടരാജാവിനെ ബന്ധനത്തിലാക്കിയെങ്കിലും വലലന്‍ എന്ന പേരില്‍ അവിടെ കഴിഞ്ഞുകൂടുന്ന ഭീമന്‍ രാജാവിനെ മോചിപ്പിച്ച്‌ സുശര്‍മാവിനെ ഓടിക്കുന്നു. ഒടുവില്‍ ദുര്യോധനന്‍ തന്നെ സൈന്യസമേതനായി വന്ന്‌ ഗോഗ്രഹണം നടത്തുന്നു.

ഈ വിവരം ഗോപാലകന്മാര്‍ വന്ന്‌ വിരാടരാജകുമാരനായ ഉത്തരനെ അറിയിച്ചപ്പോള്‍ കൃഷ്‌ണന്‍ അര്‍ജുനന്റെ സാരഥ്യം വഹിച്ചതു പോലെ, തനിക്കും ഒരു സമര്‍ഥനായ തേരാളി ഉണ്ടായിരുന്നെങ്കില്‍ ശത്രുക്കളെ നിഷ്‌പ്രയാസം ഓടിക്കാമെന്ന്‌ വീമ്പിളക്കി. ഇതുകേട്ട പാഞ്ചാലി (സൈരന്ധ്രി) വിവരം ബൃഹന്നള(അര്‍ജുനന്‍)യെ ധരിപ്പിക്കുകയും അദ്ദേഹം ഉത്തരന്റെ തേരാളിയായി കൂടെപ്പോകുകയും ചെയ്‌തു. കൗരവസേനാബലം കണ്ട ഉത്തരന്‍ ഭയചകിതനായി തിരിഞ്ഞോടാന്‍ ശ്രമിക്കുന്നു. പക്ഷേ അര്‍ജുനന്‍ അയാളെ തേരില്‍പ്പിടിച്ച്‌ കെട്ടിയിട്ടുകൊണ്ട്‌ ഏകനായി ദുര്യോധനാദികളെ നേരിടാന്‍ തീരുമാനിക്കുന്നു. ഈ സമയത്ത്‌ കൗരവപാളയത്തില്‍ അര്‍ജുനനെ സംഹരിക്കണമെന്ന കര്‍ണന്റെ വികത്ഥനവും അതിന്‌ കൃപന്‍ നല്‍കുന്ന മറുപടിയും ഹൃദ്യമായി വര്‍ണിച്ചിരിക്കുന്നു. ഒടുവില്‍ അര്‍ജുനന്‍ തന്റെ മോഹാസ്‌ത്രംകൊണ്ട്‌ ശത്രുക്കളെ തോല്‌പിച്ച്‌ ഗോധനം വീണ്ടെടുക്കുന്നു.  

വിരാടത്തില്‍ കങ്കസന്ന്യാസിയും (ധര്‍മപുത്രര്‍) വിരാടരാജാവും ചൂതുകളിയിലായിരുന്നു. ഗോധനം വീണ്ടെടുത്ത്‌ ഉത്തരന്‍ വിജയിയായി എത്തി എന്ന വാര്‍ത്ത കേട്ടപ്പോള്‍, ബൃഹന്നളയാകും വിജയി(പ്പി)ച്ചത്‌ എന്ന ധര്‍മപുത്രരുടെ അഭിപ്രായം കേട്ട്‌ നീരസം തോന്നിയ രാജാവ്‌ തന്റെ കൈവശമിരുന്ന ചൂതിലെ കരു എടുത്ത്‌ എറിയുകയും ധര്‍മപുത്രരുടെ നെറ്റി മുറിയുകയും ചെയ്യുന്നു. മുറിവില്‍ നിന്നും രക്തം പ്രവഹിക്കുന്നതുകണ്ട പാഞ്ചാലി സന്ന്യാസിരക്തം ഭൂമിയില്‍ വീണാല്‍ അശുഭമാണെന്ന്‌ പറഞ്ഞ്‌ തന്റെ ഉത്തരീയത്തില്‍ അതേറ്റുവാങ്ങുന്നു. ഭീമന്‍ കോപത്താല്‍ ഭൂതലം അവിരാടമാക്കുമെന്ന്‌ പറഞ്ഞുകൊണ്ട്‌ അലറിപ്പാഞ്ഞു വരുന്നു. തത്സമയം അവിടെയെത്തിയ അര്‍ജുനനും ഉത്തരനും സത്യാവസ്ഥ അറിയിക്കുകയും വിരാടരാജാവ്‌ പശ്ചാത്താപത്താല്‍ മാപ്പു പറഞ്ഞ്‌ തന്റെ പുത്രി ഉത്തരയെ അര്‍ജുനപുത്രന്‍ അഭിമന്യുവിന്‌ വിവാഹം ചെയ്‌തുകൊടുക്കുകയും ചെയ്‌തു.

ഇരയിമ്മന്‍ തമ്പിയുടെ മറ്റ്‌ ആട്ടക്കഥകളെ അപേക്ഷിച്ച്‌ സാഹിത്യമേന്മയില്‍ മികച്ചതാണ്‌ ഉത്തരാസ്വയംവരം. ദീര്‍ഘവും പാത്രബഹുലവുമായി 19 അംഗങ്ങളുള്ള ഈ കഥ രണ്ട്‌ ഭാഗമായാണ്‌ രംഗത്ത്‌ അവതരിപ്പിക്കാറുള്ളത്‌. ദുര്യോധനന്റെ ഏകലോചനാഭിനയം, "ജയ ജയ നാഗകേതന, ജഗതീപതേ' എന്നു തുടങ്ങുന്ന ദൂതനിവേദനം, "അരവിന്ദമിഴിമാരെ' എന്നാരംഭിക്കുന്ന ഉത്തരന്റെ ശൃംഗാരസല്ലാപം, "വീരവിരാടകുമാരവിഭോ' എന്നാരംഭിക്കുന്ന പ്രസിദ്ധമായ കുമ്മി, "കര്‍ണ, പാര്‍ഥസദൃശനാരിഹകാര്‍മുകപാണികളില്‍' എന്നുള്ള കൃപരുടെ പരിഹാസം, കൗരവപാളയത്തില്‍ അര്‍ജുനനെ സംഹരിക്കാമെന്നുള്ള വീമ്പിളക്കല്‍, കര്‍ണന്റെ നിശിതഭര്‍ത്സനം തുടങ്ങിയ സന്ദര്‍ഭങ്ങള്‍ സാഹിത്യം, സംഗീതം, അഭിനയക്ഷമത എന്നിവയില്‍ കഥകളിരംഗത്തും അതുല്യ പ്രതിഷ്‌ഠ നേടി.