
== ഐക്കണ്‍ ==


== Icon ==
[[ചിത്രം:Vol5p545_Icons Painting.jpg|thumb|അന്‍ദ്രയ്‌ റബ്‌ലെവ്‌ (1360-1430) രചിച്ച ഒരു ഐക്കണ്‍ ചിത്രം]]

1. പ്രതീകാത്മക ശൈലിയിലുള്ള ചിത്രങ്ങളും ശില്‌പങ്ങളും. പ്രത്യേകിച്ചും വിശുദ്ധന്മാരുടെയും വിശുദ്ധകളുടെയും ജീവിതസംഭവങ്ങളെ പ്രകാശിപ്പിക്കുന്ന ശില്‌പങ്ങളും ചിത്രങ്ങളുമാണ്‌ ഇവിടെ വിവക്ഷിക്കപ്പെടുന്നത്‌. റഷ്യയിലെ അര്‍മീനിയന്‍, ബൈസാന്ത്യന്‍, ഓര്‍ത്തഡോക്‌സ്‌ പള്ളികളില്‍ കണ്ടുവരാറുള്ള വിശുദ്ധന്മാരുടെ പ്രതിമകളെയും മൊസേയ്‌ക്‌ രൂപങ്ങളെയും ദാരുശില്‌പങ്ങളെയും ചുവര്‍ചിത്രങ്ങളെയും മൊത്തത്തില്‍ "ഐക്കണുകള്‍' എന്നു വിളിച്ചുവരുന്നു. അര്‍മീനിയന്‍ ദേവാലയങ്ങളില്‍ ഇവയ്‌ക്ക്‌ വളരെ പ്രാധാന്യം കല്‌പിച്ചിട്ടുണ്ട്‌. ദേവാലയ ആചാരങ്ങളുടെയും വിശുദ്ധന്മാരുടെ സൂക്തങ്ങളുടെയും ചിത്രണമാണ്‌ ഐക്കണുകളുടെ ലക്ഷ്യം.

കിഴക്കന്‍ രാജ്യങ്ങളിലുള്ള പള്ളികളിലും ധര്‍മിഷ്‌ഠന്മാരുടെ ഗൃഹങ്ങളിലും കണ്ടുവരാറുള്ള ഐക്കണുകളില്‍ വിശുദ്ധ വ്യക്തികളുടെയും മതാനുയായികളുടെയും ചിത്രങ്ങളും ശില്‌പങ്ങളും ഉള്‍ക്കൊള്ളിച്ചിട്ടുണ്ട്‌. സാധാരണ ദേവാലയങ്ങളില്‍ ദൈവസാന്നിധ്യം സൂചിപ്പിക്കുന്ന അതിവിശുദ്ധസ്ഥലത്തിലും ജനങ്ങള്‍ നില്‌ക്കുന്ന ഭാഗത്തിനുമിടയ്‌ക്കാണ്‌ ഐക്കണുകള്‍ സ്ഥാപിക്കാറുള്ളത്‌.

ബൈസാന്തിയന്‍ ചിത്രങ്ങളില്‍ നിന്നാണ്‌ ഐക്കണുകള്‍ വളര്‍ച്ചപ്രാപിച്ചത്‌. ഐക്കണുകളുടെ ചില ഭാഗങ്ങളില്‍ സ്വര്‍ണത്തിലും വെള്ളിയിലും ഉള്ള തകിടുകള്‍ പതിച്ചിരിക്കും.

ആധുനിക ഐക്കണുകള്‍ക്ക്‌ ആറും ഏഴും നൂറ്റാണ്ടിലെ ഐക്കണുകളെക്കാള്‍ താരതമ്യേന കൂടുതല്‍ സ്‌പഷ്‌ടത കാണുന്നു. റഷ്യന്‍ ഐക്കണുകള്‍ മനോഹാരിതയ്‌ക്ക്‌ ലോകപ്രശസ്‌തിയാര്‍ജിച്ചിട്ടുണ്ട്‌. 

2. കംപ്യൂട്ടര്‍ ഡെസ്‌ക്‌ടോപ്പില്‍ സിസ്റ്റത്തിലെ നിശ്ചിത പ്രാഗ്രാമുകളെ സൂചിപ്പിക്കാന്‍ ഉപയോഗിക്കുന്ന ചിത്രരൂപം. പ്രസ്‌തുത ഐക്കണിനെ പ്രവര്‍ത്തനക്ഷമമാക്കുമ്പോള്‍ അതുമായി ബന്ധപ്പെട്ടുകിടക്കുന്ന പ്രാഗ്രാമും പ്രവര്‍ത്തിച്ചു തുടങ്ങും. മൗസ്‌ ക്ലിക്‌, പോയിന്റര്‍ ക്ലിക്‌, വിരല്‍ സ്‌പര്‍ശം, ശബ്‌ദ സൂചന എന്നീ രീതികളില്‍ ഐക്കണെ പ്രവര്‍ത്തിപ്പിക്കാം. ഗ്രാഫിക്കല്‍ യൂസര്‍ ഇന്റര്‍ഫേസ്‌ സജ്ജീകരണത്തിലാണ്‌ ഐക്കണുകള്‍ ആദ്യം ഉപയോഗിച്ചുതുടങ്ങിയത്‌. ഡെസ്‌ക്‌ടോപ്പില്‍ മാത്രമല്ല ടാസ്‌ക്‌ബാറിലും ഐക്കണ്‍ ക്രമീകരിക്കാം. ഐക്കണിന്റെ നിറം, ആകൃതി, ഘടന എന്നിവയില്‍ മാറ്റം വരുത്താനും അവയെ സ്‌കെയില്‍ ചെയ്യാനും (ആകൃതി വലുതാക്കാനും ചെറുതാക്കാനും) ഉപയോക്താവിനു സൗകര്യമുണ്ട്‌.

[[ചിത്രം:Vol5_547_image.jpg|400px]]

3. ആള്‍ഗോള്‍ അധിഷ്‌ഠിതമായി രൂപപ്പെടുത്തപ്പെട്ട ഗോള്‍ ഡയറക്‌റ്റഡ്‌ ഹൈ ലെവല്‍ കംപ്യൂട്ടര്‍ പ്രാഗ്രാമിങ്‌ ഭാഷ. സ്‌നോബോള്‍, SL 5 തുടങ്ങിയ സ്‌ടിങ്‌ പ്രാസസിങ്‌ ഭാഷകളുമായി സാമ്യമുണ്ട്‌. പ്രാഗ്രാം ഘടനയില്‍ (സിന്ററ്റാക്‌സ്‌) 'C', പാസ്‌ക്കല്‍ ഭാഷകളുമായി സമാനതകളുണ്ടെങ്കിലും ഐക്കണ്‍ ഓസ്‌ജക്‌റ്റ്‌ ഓറിയന്റഡ്‌ ഭാഷയല്ല. സ്‌ടിങ്‌, ടെക്‌സ്റ്റ്‌ പാറ്റേണ്‍ മുതലായവ കൈകാര്യം ചെയ്യാന്‍ ഐക്കണ്‍ സൗകര്യമേകുന്നു.