==കൗളാചാരം==

ഭാരതത്തില്‍ പരമ്പരാഗതമായി അനുഷ്ഠിച്ചുവരുന്ന ശ്രീവിദ്യോപാസന. കാശ്മീര്‍ മുതല്‍ കന്യാകുമാരി വരെ ദേശം, കുലം എന്നിവയുടെ വ്യത്യാസമനുസരിച്ച് വിവിധ സമ്പ്രദായങ്ങളില്‍  അനുഷ്ഠിച്ചുവരുന്ന ശാക്തേയപൂജ. ശക്തി, ശിവം എന്ന് രണ്ടു തത്ത്വങ്ങളില്ലെന്നും ശക്തിയില്‍ ശിവം അന്തര്‍ഭവിച്ച് അതില്‍ നിന്നു ഗന്ധാദി പഞ്ചതന്മാത്രങ്ങളും മായ, ശുദ്ധവിദ്യ, മഹേശ്വരന്‍, സദാശിവന്‍ എന്നീ ഒമ്പതു മൂലപ്രകൃതികളുമാകുന്നുവെന്നും ഇവയുടെ പരിണാമമാണ് പൃഥ്യാദി പഞ്ചഭൂതാത്മകമായ പ്രപഞ്ചമെന്നുമാണ് കൗളാചാരത്തിലെ മുഖ്യ സിദ്ധാന്തം. ഈ നവമൂലപ്രകൃതികള്‍ വൃഷ്ടരൂപത്തില്‍ ചരാചരങ്ങളിലെ വസ്തുക്കളുടെ ശരീരത്തില്‍ ത്വക്, അസുക്, മാംസം, മേദസ്, അസ്ഥി, മജ്ജ, ശുക്ളം എന്നീ സപ്തധാതുക്കളായും ജീവാത്മാവ്, പരമാത്മാവ് എന്നീ രണ്ട് ചേതനകളായും സ്ഥിതിചെയ്യുന്നു.
  
ബാഹ്യപൂജയിലൂടെ ഭൗതികവും ഐഹികവുമായ സിദ്ധികള്‍ കൈവരിച്ച്, മോക്ഷപ്രാപ്തി നേടുകയെന്നതാണ് കൗളമതത്തിന്റെ മുഖ്യ ലക്ഷ്യം.

(ബി. നടരാജപിള്ള; സ.പ.)