==കൊണീന്‍==
==Coniin==

നിറമില്ലാത്തതും എണ്ണമയമുള്ളതുമായ ഒരു ദ്രവ ആല്‍ക്കലോയ്ഡ്. എലിച്ചൂരുള്ള ഈ ആല്‍ക്കലോയ്ഡ് കോണിയം മക്കുലാറ്റ (പോയിസണ്‍ ഹെംലോക്ക്)ത്തില്‍ നിന്ന് നിഷ്കര്‍ഷണം ചെയ്തതാണ് ഉത്പാദിപ്പിക്കുന്നത്. ഗീസെക്ക് (Giesecke) എന്ന ശാസ്ത്രജ്ഞനാണ് ഇത് വേര്‍തിരിച്ചെടുത്തത്. ആദ്യമായി വേര്‍തിരിക്കപ്പെട്ട ആല്‍ക്കലോയ്ഡാണിത്. പോയിസണ്‍ ഹെംലോക്കിന്റെ നീരു നല്‍കിയാണ് പ്രസിദ്ധ ഗ്രീക് തത്ത്വചിന്തകനായ സോക്രട്ടിസിനെ വധിച്ചത്. തന്മാത്രാ ഫോര്‍മുല 68H<sub>17</sub>N. ആല്‍ക്കഹോള്‍, ഈതര്‍, എണ്ണകള്‍ എന്നിവയില്‍ ലയിക്കും. ജലത്തില്‍ അല്പമായ ലേയത്വമുണ്ട്. ഉരുകല്‍നില 25&deg;C; തിളനില 1660&deg;C. വിഷാലുത്വം വളരെ കൂടുതലാണ്. ഇത് ഒരു ശമനൗഷധമായി ചികിത്സാരംഗത്ത് ഉപയോഗിച്ചുവരുന്നു. നോ. ആല്‍ക്കലോയ്ഡുകള്‍