
== കുമ്മി ==

ദക്ഷിണേന്ത്യയില്‍ , പ്രത്യേകിച്ചു കേരളത്തില്‍  പ്രചാരമുള്ള ഒരു നാടോടിനൃത്തം. കൈകൊട്ടി കുമ്മിയടിച്ചു നൃത്തം ചെയ്യുന്നതിനാലാണ്‌ ഇതിനു "കുമ്മി' എന്നു പേരുണ്ടായത്‌. സ്‌ത്രീകള്‍ മാത്രം പങ്കെടുക്കുന്ന ഈ നൃത്തരൂപത്തിന്‌ കുറഞ്ഞത്‌ 8 പേരെങ്കിലും വേണം. 10, 12, 14 എന്നിങ്ങനെ അംഗങ്ങളുടെ എണ്ണം വര്‍ധിപ്പിക്കാം. പ്രത്യേകതരം ഗാനങ്ങളാണ്‌ ഇതിന്‌ ആലപിക്കാറുള്ളത്‌. ഇരയിമ്മന്‍ തമ്പിയുടെ "വീര വിരാട കുമാര വിഭോ' (ഉത്തരാസ്വയംവരം) എന്ന ഗാനത്തിനാണ്‌ കൂടുതല്‍  പ്രചാരം.

കേരളത്തില്‍  പരക്കെ പ്രചാരമുള്ള ഒരു കുമ്മിപ്പാട്ട്‌ താഴെ ചേര്‍ക്കുന്നു.
 <nowiki>
""കൊച്ചീക്കാരത്തി കൊച്ചുപെണ്ണേ
	നിനക്കെങ്ങനെ കിട്ടിയീ കുപ്പിവള
	കൊച്ചിക്കോട്ടയ്‌ക്കു കുമ്മിയടിച്ചപ്പം
	കൊച്ചപ്പന്‍ തന്നതീ കുപ്പിവള
	താനെന്ന താനന്നൈ താന്നായിന്നെ തനി...''
 </nowiki>
പ്രധാനഗായിക പാടിക്കഴിഞ്ഞ്‌ മറ്റുള്ളവര്‍ ഏറ്റുപാടുകയാണു പതിവ്‌. രൂപകതാളത്തിലാണ്‌ കുമ്മിഗാനങ്ങള്‍ മിക്കവയും രചിക്കപ്പെട്ടിരിക്കുന്നത്‌. കേരളത്തിലെ കൈകൊട്ടിക്കളിയുടെ രീതിയിലുള്ളതാണ്‌ തമിഴ്‌നാട്ടിലെ കുമ്മി. ചിദംബരം കുമ്മി, രാമായണം കുമ്മി, ഗജേന്ദ്രമോക്ഷം കുമ്മി തുടങ്ങിയവ തമിഴ്‌നാട്ടില്‍  കൂടുതല്‍  പ്രചാരം നേടിയവയാണ്‌.