== കാണം ==
നാടുവാഴിത്ത കാലഘട്ടത്തില്‍ കേരളത്തില്‍ വ്യാപകമായി നിലവിലിരുന്ന ഒരു കുടിയായ്‌മ സമ്പ്രദായം. കുടിയാന്മാര്‍ ഭൂമി പാട്ടത്തിന്‌ ഏല്‌ക്കുമ്പോള്‍ ഒരു നിശ്ചിത തുക മുമ്പേറായി ജന്മിക്കു നല്‌കിയിരുന്നു. ഇതിന്‌ "കാണം' അഥവാ "കാണപ്പണം' എന്നു പറയുന്നു. ചില സ്ഥലങ്ങളില്‍ കാണം നെല്ലായും നല്‌കാറുണ്ട്‌. കാണപ്പണത്തിനു പലിശ നിശ്ചയിക്കുകയും പലിശത്തുക പാട്ടത്തില്‍നിന്നു കുറയ്‌ക്കുകയും വേണമെന്നു വ്യവസ്ഥ ചെയ്‌തിരുന്നു. വടക്കേമലബാറില്‍ കാണം ഏകദേശം ഒറ്റിപോലെ തന്നെയാണ്‌. കാണം ഏല്‌ക്കുന്നവനെ "കാണക്കാരന്‍' അഥവാ "കാണക്കുടിയാന്‍' എന്നു വിളിക്കുന്നു. ജന്മിയും കാണക്കുടിയാനും തമ്മിലുള്ള ബന്ധത്തെ സൂചിപ്പിക്കുന്ന ചട്ടങ്ങള്‍ക്കും കീഴ്‌വഴക്കങ്ങള്‍ക്കും "കാണജന്മിമര്യാദ' എന്നു പറയുന്നു. ആദികാലങ്ങളില്‍ പണത്തിന്റെ ആവശ്യനിവൃത്തിക്കായിട്ടോ പാട്ടത്തിന്റെ ഉറപ്പിനായിട്ടോ മറ്റോ ഭൂവുടമ കുടിയാന്റെ പക്കല്‍നിന്നു കുറെ പണമോ നെല്ലോ മുമ്പേറായി വാങ്ങുകയും അത്‌ പാട്ടത്തില്‍ വക കൊള്ളിക്കുകയും ചെയ്‌തുപോന്നു. എന്നാല്‍ കാലക്രമത്തില്‍ കാണവ്യവസ്ഥയ്‌ക്കു പുതിയ ഭാവവും രൂപവും കൈവന്നു.

മേജര്‍ വാക്കര്‍ എന്ന ചരിത്രകാരന്‍ മലബാറിലെ കാണവ്യവസ്ഥയെക്കുറിച്ച്‌ ഇപ്രകാരം പ്രതിപാദിച്ചിരിക്കുന്നു: "കാണം ഒരുതരം ഒറ്റിയാണ്‌. വസ്‌തുക്കള്‍ പാട്ടത്തിനേല്‌ക്കുമ്പോള്‍ ഭൂമി പണയമായി കണക്കാക്കി കുടിയാന്‍ ഒരു നിശ്ചിതതുക (കാണപ്പണം) വസ്‌തു കൈവശം വിട്ടുകൊടുക്കുന്നതിനുള്ള ജാമ്യമായി ജന്മിക്കു നല്‌കുന്നു. ഇതിനു പുറമേ കുടിയാന്‍ കാലാകാലങ്ങളില്‍ നിശ്ചിതതുക പാട്ടമായി നല്‌കുകയും വേണം. എന്നാല്‍ കാണപ്പണത്തിന്റെ പലിശ പാട്ടത്തില്‍ വക കൊള്ളിക്കുന്നതാണ്‌. കാണപ്പണത്തിന്‌ മൂന്ന്‌ മുതല്‍ ആറ്‌ വരെ ശതമാനം പലിശ നിശ്ചയിച്ചിരുന്നു. പാട്ടക്കുടിശ്ശിക വന്നാല്‍ കാണപ്പണത്തില്‍നിന്ന്‌ ഈടാക്കാനും കുടിയാന്‍ വസ്‌തുവകകള്‍ക്ക്‌ എന്തെങ്കിലും നാശനഷ്‌ടങ്ങള്‍ വരുത്തുകയാണെങ്കില്‍ കാണപ്പണത്തില്‍നിന്നു നഷ്‌ടപരിഹാരം ഈടാക്കാനും വ്യവസ്ഥ ചെയ്‌തിരുന്നു. കാണം ഏറ്റുകഴിഞ്ഞാല്‍ വസ്‌തുക്കള്‍ പരിപൂര്‍ണമായും കാണക്കാരന്റെ നിയന്ത്രണത്തിലായിരിക്കും. വസ്‌തു കൈമാറ്റം ചെയ്യുന്നതൊഴികെയുള്ള സര്‍വാവകാശങ്ങളും കാണക്കാരനുണ്ടായിരിക്കും. കാണപ്പണത്തെ കടമായും ഈടായും വക കൊള്ളിക്കാറുണ്ട്‌. പാട്ടം കൃത്യസമയത്തു ലഭിക്കുക എന്നുള്ളതാണ്‌ കാണപ്പണം സ്വീകരിക്കുന്നതിനാധാരം.

ഇംഗ്ലീഷ്‌ ഈസ്റ്റ്‌ഇന്ത്യാക്കമ്പനിയുടെ കോടതികള്‍ ഇടപെടുന്നതുവരെ മലബാറിലെ കാണപ്പാട്ട വ്യവസ്ഥ അനിയമിതമായിരുന്നു. ജന്മിയുടെ ഏകപക്ഷീയമായ കുടിയൊഴിപ്പിക്കലിനു കുടിയാന്‍ ഏതുസമയവും വിധേയനായിരുന്നതുകൊണ്ട്‌ കുടിയാനു ജന്മിയുടെ ഇഷ്‌ടാനിഷ്‌ടങ്ങള്‍ക്കനുസരണമായി നില്‍ക്കേണ്ടി വന്നിരുന്നു. ജന്മിമാര്‍ക്കു പണത്തിന്‌ ആവശ്യം വരുമ്പോള്‍ കുടിയാന്മാരെ ഒഴിപ്പിക്കുകയും കൂടുതല്‍ കാണം നല്‌കാന്‍ തയ്യാറാകുന്നവരെ വസ്‌തുക്കള്‍ ഏല്‌പിക്കുകയും ചെയ്‌തുപോന്നു. ആദ്യകാലങ്ങളില്‍ മൂന്ന്‌ വര്‍ഷമായിരുന്നു കാണപ്പാട്ടത്തിന്റെ കാലാവധി. എന്നാല്‍ 1856 ഫെ. 27-ന്‌ മദ്രാസിലെ സദര്‍ കോടതി കാണപ്പാട്ട സമ്പ്രദായം നിയമവിധേയമാക്കുകയും കാണപ്പാട്ടത്തിന്റെ കാലാവധി 12 വര്‍ഷമായി ഉയര്‍ത്തുകയും കാണിക്കുടിയാന്മാര്‍ക്കു കൂടുതല്‍ അവകാശാധികാരങ്ങള്‍ നല്‌കുകയും ചെയ്‌തു. ഇക്കാലത്തുതന്നെ തിരുവിതാംകൂര്‍ ഹൈക്കോടതിയും ഇതേ രീതിയിലുള്ള ഒരു വിധിന്യായം പുറപ്പെടുവിച്ചു. 12 വര്‍ഷത്തെ കാലാവധിക്കുശേഷം കാണക്കുടിയാന്‍ ആവശ്യപ്പെടുകയാണെങ്കില്‍ കാണം പുതുക്കണമെന്നും (പൊളിച്ചെഴുത്തു നടത്തുക) വ്യവസ്ഥ ചെയ്‌തു.

പ്രതിഫലമെന്ന അര്‍ഥത്തില്‍ത്തന്നെ വിവിധതരം കാണങ്ങളുണ്ട്‌. കുഴിക്കാണം, കുറ്റിക്കാണം, തൂശിക്കാണം, വെട്ടുക്കാണം, തേട്ടക്കാണം, ഒപ്പുകാണം, നീര്‍ക്കാണം, നടുക്കാണം, കൈക്കാണം മുതലായവ. കുഴിക്കാണം ദേഹണ്ഡവിലയും, കുറ്റിക്കാണം വൃക്ഷങ്ങള്‍ വെട്ടിമാറ്റുമ്പോള്‍ മുറിച്ച തടിയുടെ കുറ്റിയെണ്ണി ഉടമസ്ഥനോ സര്‍ക്കാരിനോ കൊടുക്കുന്ന തടിവിലയും, തൂശിക്കാണം ആധാരമെഴുത്തുകാരനു കൊടുക്കുന്ന കൂലിയും, വെട്ടുകാണം ഭൂമി വെട്ടിത്തെളിക്കുന്നതിന്റെ കൂലിയും, തേട്ടക്കാണം വസ്‌തുകൈമാറ്റത്തില്‍ ബന്ധപ്പെട്ടവര്‍ക്കു നല്‌കുന്ന പാരിതോഷികവും, ഒപ്പുകാണം സാക്ഷിപ്പടിയും ആണ്‌. "കാണം വിറ്റും ഓണം ഉണ്ണണം' (വിറ്റു നശിച്ചാലും ഓണം ആഘോഷിക്കണം) എന്ന ചൊല്ല്‌ മലയാളത്തില്‍ പ്രസിദ്ധമാണ്‌.