==ചുങ്ചിയാ==

തെക്കുപടിഞ്ഞാറന്‍ ചൈനയിലെ കെയ്ചോ പ്രവിശ്യയില്‍ വസിക്കുന്ന ഒരു പുരാതനജനവര്‍ഗം. തായ് വംശജരായ ഈ ജനവിഭാഗം അതിപുരാതനകാലത്തുതന്നെ സ്വന്തം കൃഷിഭൂമികളില്‍ നിന്നും പുറന്തള്ളപ്പെട്ടവരാണെന്ന് കരുതപ്പെടുന്നു. കെയ്ചോ പ്രവിശ്യയിലെ കുന്നിന്‍ താഴ്വരകളാണ് ഇവരുടെ വാസസ്ഥാനങ്ങള്‍. സ്വന്തമായി ലിപിയില്ലാത്ത ഇവരുടെ സംസാരഭാഷ, തായ് ഭാഷയോട് ഏറെക്കുറെ സമാനമാണ്. 1949-ലെ വിപ്ലവത്തെത്തുടര്‍ന്ന് അധികാരത്തില്‍ വന്ന കമ്യൂണിസ്റ്റുകാര്‍, ലത്തീന്‍ അക്ഷരമാലയെ ആധാരമാക്കി ഈ ജനവംശത്തിനുവേണ്ടി ഒരു ലിപി വികസിപ്പിച്ചെടുക്കുകയുണ്ടായി. 

കമ്യൂണിസ്റ്റു ഗവണ്‍മെന്റിന്റെ ബോധപൂര്‍വമായ പരിശ്രമത്തിന്റെ ഫലമായി ഈ പ്രാചീന ജനവംശത്തിന്റെ ജീവിതരീതി കുറെയൊക്കെ ആധുനികവത്കരിക്കപ്പെട്ടിട്ടുണ്ട്. പ്രാക്തനമായ ഗോത്രാവസ്ഥയില്‍ നിന്നും ഇന്ന് ഇവര്‍ വളരെയേറെ പുരോഗമിച്ചിട്ടുണ്ട്. ച്യൂയി എന്ന പേരിലും അറിയപ്പെടുന്ന ഇവരുടെ സംഖ്യ ഒന്നരലക്ഷത്തില്‍ താഴെ മാത്രമാണ്. കമ്യൂണിസ്റ്റു ഗവണ്‍മെന്റ് ചുങ്ചിയാ വംശജരുടെ അധിവാസകേന്ദ്രങ്ങളെ 'സ്വയംഭരണജില്ല'കളായി പുനഃസംഘടിപ്പിക്കുകയുണ്ടായി. ഒരു ദേശീയ ന്യൂനപക്ഷമായി പ്രഖ്യാപിക്കപ്പെട്ട ഈ വംശജരെ സാമൂഹിക-സാംസ്കാരിക ജീവിതത്തിന്റെ മുഖ്യധാരയിലേക്ക് ആകര്‍ഷിക്കാനുതകുന്ന സമീപനമാണ് ഭരണകൂടം സ്വീകരിച്ചിട്ടുള്ളത്.