==ചേരമഹാദേവി==

തിരുനെല്‍വേലി ജില്ലയിലെ അംബാസമുദ്രം താലൂക്കിലുള്ള ഒരു ഗ്രാമം. തിരുവിതാംകൂര്‍ രാജാക്കന്മാരുടെ പഴയ ആസ്ഥാനനഗരമായിരുന്ന ചേരമഹാദേവി ഇന്ന് ഷെര്‍മാദേവി എന്ന പേരിലറിയപ്പെടുന്നു.
   
17-ാം ശ. വരെ തിരുവിതാംകൂര്‍ രാജാക്കന്മാര്‍ ചേരമഹാദേവിയില്‍ താമസിച്ചിരുന്നു എന്നതിനു തെളിവായി ധാരാളം ലിഖിതങ്ങളും രേഖകളും ഇവിടെ നിന്നു കണ്ടെടുത്തിട്ടുള്ള വിവരം പി. ശങ്കുണ്ണിമേനോന്‍ തിരുവിതാംകൂര്‍ ചരിത്രത്തില്‍ രേഖപ്പെടുത്തിയിരിക്കുന്നു. ചേരമഹാദേവി ക്ഷേത്രഗോപുരത്തിന്റെ അകത്തെ കരിങ്കല്‍ഭിത്തിയില്‍ ആലേഖനം ചെയ്തിട്ടുള്ള ഒരു ലിഖിതത്തില്‍ വേണാടു രാജാവായ ഉദയമാര്‍ത്താണ്ഡവര്‍മ ചേരമഹാദേവിയിലുള്ള കൊട്ടാരത്തില്‍ വസിച്ചിരുന്നതായി രേഖയുണ്ട്. ചേരമഹാദേവിയില്‍ താമസിക്കാന്‍ ഏറെ താത്പര്യം കാണിച്ച ഇദ്ദേഹത്തെ ചേര ഉദയമാര്‍ത്താണ്ഡവര്‍മയെന്നാണു വിളിച്ചിരുന്നത്. നോ. ചേരഉദയമാര്‍ത്താണ്ഡവര്‍മ