==ചിരവില്വാദികഷായം==

ആയുര്‍വേദിവിധിപ്രകാരം തയ്യാറാക്കുന്ന ഒരു കഷായയോഗം. അര്‍ശസ്, ഭഗന്ദരം, ഗുന്മം മുതലായ രോഗങ്ങള്‍ക്ക് ഔഷധമായി നിര്‍ദേശിക്കാറുണ്ട്. ജഠരാഗ്നിക്ക് ബലമുണ്ടാക്കുകയും ചെയ്യും.

ചിരവില്വപുനര്‍ന്നവ വഹ്തൃദയാകണ

- നാഗരസൈന്ധവപക്വജലം

ഗുദകീലഭഗന്ദരഗുന്മഹരം ജഠരാഗ്നി വിവര്‍ധ

- നമാശുനൃണാം

(സഹസ്രയോഗം)

ആവില്‍തൊലി, തവിഴാമവേര്, കൊടുവേലിക്കിഴങ്ങ്, കടുക്കാ, തിപ്പലി, ചുക്ക് എന്നിവകൊണ്ട് കഷായംവച്ച് ഇന്തുപ്പ് മേമ്പൊടി ചേര്‍ത്ത് സേവിക്കണം.