=ട്രൈക്കോമോണിയാസിസ്=
Trichomoniasis

കന്നുകാലികളില്‍ വന്ധ്യത ഉണ്ടാക്കുന്ന ഒരു രോഗം. ട്രൈക്കോമോണാസ് ഫീറ്റസ് (Trichomonas foetus) എന്ന പ്രോട്ടോസോവയാണു രോഗഹേതു. പശുവിന്റേയും കാളയുടേയും ഉത്പാദനാവയവങ്ങളിലാണു രോഗാണു കാണപ്പെടുന്നത്. ലൈംഗികബന്ധത്തിലൂടെ രോഗം പകരാം. കൃത്രിമ ബീജസങ്കലനത്തിലൂടെയും രോഗം പകരാന്‍ സാധ്യതയുള്ളതിനാല്‍ രോഗം ബാധിച്ചിട്ടില്ലാത്ത കാളകളില്‍ നിന്നു മാത്രമേ ശുക്ലം ശേഖരിക്കാറുള്ളൂ. ഗാഢശീതീകരണരീതിയില്‍ കൃത്രിമ ബീജസങ്കലനം നടത്തിയാല്‍ രോഗഹേതുവായ പ്രോട്ടോസോവനശിച്ചുപോകുന്നതിനാല്‍ രോഗം തടയാനാവും.

രോഗം ബാധിച്ച കന്നുകാലിയുടെ ഗര്‍ഭസ്ഥ ശിശുവിന് രണ്ടു മുതല്‍ നാലു മാസം വരെ പ്രായമാകുമ്പോഴേക്കും ഗര്‍ഭം അലസിപ്പോകുന്നു. ഇത് വന്ധ്യതയ്ക്കു കാരണമാകാറുണ്ട്. ഗര്‍ഭാശയത്തില്‍ പഴുപ്പുണ്ടാകുന്നതിനാല്‍ മദിയുടെ ലക്ഷണങ്ങള്‍ കാണിക്കാതിരിക്കുകയും വീണ്ടും ഗര്‍ഭം ധരിക്കാതിരിക്കുകയും ചെയ്യുന്നു. ഇത്തരം ലക്ഷണങ്ങളില്‍ നിന്നുതന്നെ രോഗനിര്‍ണയം നടത്താം. ഗര്‍ഭാശയത്തിലുണ്ടാകുന്ന പഴുപ്പിലോ അലസിപ്പോയ ഗര്‍ഭസ്ഥശിശുവിന്റെ ആമാശയദ്രാവകത്തിലോ രോഗാണുക്കളുണ്ടെങ്കില്‍ രോഗം സ്ഥിരീകരിക്കാവുന്നതാണ്. കാളകളുടെ ജനനേന്ദ്രിയത്തിലുണ്ടാകുന്ന ദ്രാവകം പരിശോധിച്ചാല്‍ രോഗാണുവിനെ തിരിച്ചറിയാന്‍ കഴിയും.

പ്രത്യുത്പാദന പ്രക്രിയയിലൂടെയാണു രോഗം പകരുന്നത് എന്നുള്ളതിനാല്‍ പ്രതിരോധ മാര്‍ഗങ്ങള്‍ക്ക് ആ മേഖലയില്‍ ഊന്നല്‍ നല്‍കേതാണ്. ഗര്‍ഭാശയത്തില്‍ പഴുപ്പുള്ളതും മറ്റ് ജനനേന്ദ്രിയ വൈകല്യങ്ങളുള്ളതുമായ മൃഗങ്ങളെ ഒഴിവാക്കുക, രോഗബാധിത കാളകളെ പ്രജനന പ്രക്രിയയില്‍നിന്നും പൂര്‍ണമായും ഒഴിവാക്കുക എന്നിവയാണു രോഗം തടയാനുള്ള പ്രധാന മാര്‍ഗങ്ങള്‍.

ഡൈമെട്രിഡാസോള്‍ (Dimetridazole), ഇപ്രോനിഡാസോള്‍ (Ipronidazole), മെട്രോനിഡാസോള്‍ (Metronidazole) എന്നീ ഔഷധങ്ങള്‍ ചികിത്സയ്ക്ക് ഫലപ്രദമായി കണ്ടുവരുന്നു.

പക്ഷികളേയും ട്രൈക്കോമോണിയാസിസ് ബാധിക്കാറുണ്ട്. ''ട്രൈക്കോമോണാസ് ഗാലിനേ (Trichomonas gallinae)'' എന്ന പ്രോട്ടോസോവയാണു രോഗകാരണം. പക്ഷികളുടെ വായയ്ക്കകത്തു മഞ്ഞ നിറത്തിലുള്ള ഭാഗങ്ങള്‍ പ്രത്യക്ഷപ്പെടുകയും അവ പെട്ടെന്നു വളര്‍ന്ന് വലുതായി അന്നനാളം ഏതാണ്ട് അടഞ്ഞുപോകുന്ന സ്ഥിതിയിലെത്തുകയും ചെയ്യുന്നു. പക്ഷികള്‍ക്ക് വായ അടയ്ക്കാന്‍ പ്രയാസം നേരിടുകയും വായില്‍ ഒരുതരം ദ്രാവകം നിറയുകയും ചെയ്യും. ഏകദേശം 8-10 ദിവസം കൊണ്ടു മരണം സംഭവിക്കുന്നു. രോഗം പകരാന്‍ സാധ്യതയുള്ളതിനാല്‍ അസുഖം ബാധിച്ചവയെ മാറ്റി പാര്‍പ്പിക്കുന്നതാണുചിതം.

(ഡോ. കെ. രാധാകൃഷ്ണന്‍)