=ടാങ്ഷാന്‍=
Tangshan

വടക്കുകിഴക്കന്‍ ചൈനയിലെ ഹോപെ (Hopeh) പ്രവിശ്യയിലുള്ള ഒരു നഗരം. ബീജിങ്ങിനു 160 കി. മീ. തെ. കിഴക്കായി സ്ഥിതി ചെയ്യുന്നു. ഒരു ഖനന-ഘന വ്യവസായ കേന്ദ്രമാണിത്. ജനസംഖ്യ: 15 ലക്ഷം (1990).

ചൈനയില്‍ ആദ്യമായി റെയില്‍പ്പാത നിര്‍മിക്കപ്പെട്ടത് ടാങ്ഷാന്‍ നഗരത്തിലായിരുന്നു (1882). ടിയെന്‍സിനിലേക്ക് (Tientsin) കല്‍ക്കരി കൊണ്ടു പോകാനായിരുന്നു ഈ പാത നിര്‍മിക്കപ്പെട്ടത്. 

കയ്ലാന്‍ (Kailan) കല്‍ക്കരി ഖനന പ്രദേശത്തിലുള്‍പ്പെട്ടതാണ് ടാങ്ഷാന്‍ നഗരം. കയ്ലാന്‍ നിക്ഷേപങ്ങളുടെ ഖനനം ആരംഭിച്ചതോടെ (1878) ഒരു ഖനന കേന്ദ്രമെന്ന നിലയില്‍ ടാങ്ഷാന്‍ വികസിച്ചു തുടങ്ങി. ഇരുമ്പുരുക്കു വ്യവസായങ്ങള്‍, താപോര്‍ജ പ്ലാന്റുകള്‍, യന്ത്രസാമഗ്രികളും തുണിത്തരങ്ങളും ഉത്പ്പാദിപ്പിക്കുന്ന വ്യവസായ ശാലകള്‍ തുടങ്ങിയവ ഇവിടെ പിന്നീട് സ്ഥാപിക്കപ്പെട്ടു. കല്‍ക്കരി-ഇരുമ്പുരുക്കു-ഖനന വ്യവസായങ്ങള്‍ വികസിച്ചതും ആധുനികവത്കരിക്കപ്പെട്ടതും 1949-നുശേഷമാണ്. 

വാണിജ്യ ജീവിതശൈലിയുടെ എല്ലാ ഘടകങ്ങളും സമന്വയിക്കുന്ന രീതിയില്‍ ആസൂത്രണം ചെയ്യപ്പെട്ട ഒരു പരീക്ഷണാര്‍ഥ സാമ്പത്തിക പ്രദേശത്തിന്റെ കേന്ദ്രമായി 1964-ല്‍ ടാങ്ഷാന്‍ നാമനിര്‍ദ്ദേശം ചെയ്യപ്പെട്ടു. 1977 ജൂല. -യില്‍ ഇവിടെ ഉണ്ടായ വന്‍ ഭൂകമ്പങ്ങള്‍ നഗരത്തില്‍ കാര്യമായ നാശനഷ്ടങ്ങള്‍ ഉണ്ടാക്കി.