=ടിറ്റാഗഢ് =
Titagarh

പശ്ചിമബംഗാളിലെ 24 പര്‍ഗാനാസ് (വടക്ക്) ജില്ലയിലുള്ള ഒരു പട്ടണം. കൊല്‍ക്കത്തയ്ക്കു 19 കി.മീ. വടക്കുമാറി ഹൂഗ്ലിനദിക്കരയില്‍ സ്ഥിതിചെയ്യുന്നു. ജനസംഖ്യ 114,085 (91). 

ബരക്പൂര്‍ പാര്‍ലമെന്റ് നിയോജകമണ്ഡലത്തില്‍പ്പെടുന്ന ഒരു അസംബ്ലി സെഗ് മെന്റാണ് ടിറ്റാഗഢ്. ടിറ്റാഗഢ് - ബരക്പൂര്‍ മുനിസിപ്പാലിറ്റികളുടെ ഭൂരിഭാഗവും ഇതില്‍ ഉള്‍പ്പെടുന്നു. ഗ്ലാസ്, തേയില, ടെക്സ്റ്റൈല്‍, യന്ത്രസാമഗ്രികള്‍ തുടങ്ങിയവയുടെ ഉത്പാദനത്തിന് ഈ പട്ടണം പ്രസിദ്ധി നേടിയിട്ടുണ്ട്. ടിറ്റാഗഢ് സ്റ്റീല്‍സ് ലിമിറ്റഡ് എന്ന ഇരുമ്പുരുക്കു വ്യവസായശാലയും ഇവിടെ പ്രവര്‍ത്തിക്കുന്നു.