=ഡയറൈറ്റ്=
Diorite

ഒരു പാതാളശില (Plutonic rock). കറുത്ത നിറമുള്ള ഡയറെറ്റില്‍പ്രധാനമായും പ്ലാജിയോക്ലെയ്സ് ഫെല്‍സ്പാര്‍, ഹോണ്‍ബ്ലന്‍ഡ്, പൈറോക്സീന്‍ എന്നീ ധാതവങ്ങളുടെ വന്‍തരികള്‍ അടങ്ങിയിരിക്കുന്നു. ചിലപ്പോള്‍ ചെറിയൊരു ശ.മാ. ക്വാര്‍ട്ട്സും ഉള്‍പ്പെടാം. ക്ഷാരീയ ഫെല്‍സ്പാറിന്റെ വര്‍ധനവ് ശിലയെ മോണ്‍സൊനൈറ്റാക്കി മാറ്റുന്നു. ഹോണ്‍ബ്ലന്‍ഡിന് കറുപ്പോ തവിട്ടോ നിറമായിരിക്കും. ക്വാര്‍ട്ട്സിന്റെ ശതമാനം വളരെ കൂടുതലുള്ള (67 ശ.മാ.) ഡയറൈറ്റിനെ ക്വാര്‍ട്ട്സ് ഡയറൈറ്റ് എന്ന് വിശേഷിപ്പിക്കുന്നു. മൈക്കാ ഡയറൈറ്റില്‍ മൈക്കയുടെ പരിണാമം കൂടുതലും ക്വാര്‍ട്ട്സിന്റെ ശ.മാ. കുറവുമായിരിക്കും.