= ഡൈഈനുകള്‍=
Diens

രണ്ട് കാര്‍ബണ്‍-കാര്‍ബണ്‍ ഡബിള്‍ ബോണ്ടുകളുള്ള ഹൈഡ്രോകാര്‍ബണ്‍ തന്മാത്രകള്‍. ഈ ഹൈഡ്രോകാര്‍ബണുകളുടെ സാമന്യ ഫോര്‍മുല C<sub>n</sub>H<sub>2n-2</sub> എന്നാണ്. അതായത് ആല്‍ക്കൈനുകളുടേതിന് സമാനം. ഐയുപിഎസി നാമകരണ പദ്ധതി പ്രകാരം ആല്‍ക്കാ ഡൈഈനുകള്‍ എന്നാണ് പറയുന്നത്. ഡബിള്‍ ബോണ്ടുകളുടെ സ്ഥാനത്തിനനുസൃതമായി ഡൈഈനുകളെ മൂന്നായി വിഭജിക്കാം. (i) അല്ലീനുകള്‍:- ([[Image:p51e.png|150x150px]]               ) സഞ്ചിത ഡബിള്‍ ബോണ്ടുകളുള്ള ഡൈഈനുകളാണിവ. രണ്ടു ഡബിള്‍ ബോണ്ടുകളും ഒരേ കാര്‍ബണില്‍ത്തന്നെ സ്ഥിതി ചെയ്യുന്നു. ഈ വിഭാഗത്തിലെ മൂലസംയുക്തം അല്ലീനായതിനാലാണ് ഈ ഡൈഈനുകളെ പൊതുവേ അല്ലീനുകള്‍ എന്നു പറയുന്നത്.
   
ഉദാ.

(ii) വിയോജിത ഡബിള്‍ ബോണ്ടുകളുള്ള ഡൈഈനുകള്‍:-([[Image:51f.png|150x150px]]) ഈ വിഭാഗത്തിലുള്ള ഡൈഈനുകളില്‍ ഡബിള്‍ ബോണ്ടുകള്‍ കുറഞ്ഞത് ഒരു സിംഗിള്‍ ബോണ്ട് കൊണ്ടെങ്കിലും വേര്‍പെട്ടിരിക്കും. രണ്ട് ഡബിള്‍ ബോണ്ടുകളും വ്യതിരിക്തമായ ഡബിള്‍ ബോണ്ടുകളെപ്പോലെയാണു പ്രവര്‍ത്തിക്കുന്നത്. ആല്‍ക്കീനുകളുടെ സവിശേഷ സ്വഭാവങ്ങള്‍ ഈ ഡൈഈനുകള്‍ രണ്ട് തവണ പ്രദര്‍ശിപ്പിക്കും എന്നല്ലാതെ ഇവ ആല്‍ക്കീനുകളില്‍നിന്നു വ്യത്യസ്തമല്ല

ഉദാ.[[Image:p51c.png|200x200px]]

(iii) സംയോജിത (conjugated) ഡബിള്‍ ബോണ്ടുകളുള്ള ഡൈഈനുകള്‍:- (                       ) രണ്ട് ഡബിള്‍ ബോണ്ടുകള്‍ ഒന്നിടവിട്ട കാര്‍ബണുകളില്‍ സ്ഥിതി ചെയ്യുന്നു.

   
ഉദാ. 	[[Image:p51d.png|200x200px]]

ഈ ഡൈഈനുകള്‍ മറ്റു രണ്ട് വിഭാഗത്തില്‍പ്പെടുന്ന ഡൈഈനുകളില്‍ നിന്നു വ്യത്യസ്തമാണ്. ഡൈഈനുകളില്‍ ഏറ്റവും പ്രാധാന്യമര്‍ഹിക്കുന്ന വിഭാഗമാണിത്. ബ്യൂട്ടാഡൈഈന്‍, ഐ സോപ്രീന്‍ എന്നീ ഡൈഈനുകള്‍ സംയോജിത ഡൈഈനുക ളാണ്. സംയോജിത ഡൈഈനുകള്‍ ഡീല്‍സ് ആല്‍ഡര്‍ അഭിക്രിയയിലൂടെ ചാക്രിക സംയുക്തങ്ങള്‍ രൂപീകരിക്കുന്നു. നോ: ഡീല്‍സ് ആല്‍ഡര്‍ അഭിക്രിയ