=തയസോള്‍=

ഠവശമ്വീഹല
[[Image:p336a.png|right]] 
കാര്‍ബണിക ഹെറ്റ്റോസൈക്ലിക് സംയുക്തങ്ങളിലെ ഒരു വിഭാഗം. ഒരു നൈട്രജനും ഒരു സള്‍ഫറും ഉള്‍ക്കൊള്ളുന്ന അഞ്ചു ഘടകങ്ങളുള്ള ഇരട്ട അപൂരിത ചാക്രികസംയുക്തങ്ങളാണ് തയസോളുകള്‍.നൈട്രജനും സള്‍ഫറും തമ്മില്‍ നേരിട്ട് രാസബന്ധം ഇല്ലാത്തരീതിയിലാണ് അണുകങ്ങളുടെ ചാക്രിക ക്രമീകരണം. തയസോള്‍ സംയുക്തങ്ങള്‍ നാമകരണം ചെയ്യുമ്പോള്‍ ചിത്രം 1-ല്‍ കാണിച്ചിരിക്കുന്നതുപോലെ സള്‍ഫറിന്റെ സ്ഥാനം ഒന്ന് ആയും നൈട്രജന്റെത് മൂന്ന് ആയും ആണ് കണക്കാക്കുന്നത്.

ഡൈഹൈഡ്രോതയസോളുകള്‍ അഥവാ തയസോളിനുകള്‍ (II), ടെട്രാഹൈഡ്രോതയസോളുകള്‍ അഥവാ തയസോളിഡിനുകള്‍ (III), ബെന്‍സോതയസോള്‍ (IV) എന്നിവയാണ് പ്രധാന തയസോള്‍ സംയുക്തങ്ങള്‍. ജീവകം ബി (തയാമിന്‍), സള്‍ഫാതയസോള്‍ തുടങ്ങിയവ പ്രധാനപ്പെട്ട തയസോള്‍ വ്യുത്പന്നങ്ങളാണ്. പല വിലയേറിയ ചായങ്ങളും റബര്‍ വള്‍ക്കനൈസ് ചെയ്യുന്ന ത്വരകങ്ങളും ബെന്‍സോതയസോള്‍ കേന്ദ്രമുള്ള സംയുക്തങ്ങളാണ്. പെനിസിലിന്‍ ഒരു തയസോളിഡീന്‍ വ്യുത്പന്നമാണ്. 
[[Image:p336b.png|center]]
'''ഗുണധര്‍മങ്ങള്‍.''' തയസോള്‍ അനുനാദ സ്ഥിരത(resonance stabilized)യുള്ള റിങ് ആയതിനാല്‍ ജലാപഘടനത്തിനും നൈട്രിക് അമ്ലംകൊണ്ടുള്ള വിഘടിത ഓക്സീകരണത്തിനും വിധേയമാകുകയില്ല. എന്നാല്‍ ജലീയ ബ്രോമിന്‍, പെര്‍മാന്‍ഗനേറ്റ് എന്നിവ കൊണ്ട് തയസോള്‍ റിങ് ഓക്സീകരിക്കാനാവും. തയസോള്‍ റിങിന്റെ നാലും അഞ്ചും സ്ഥാനങ്ങള്‍ നൈട്രേഷന്‍, സള്‍ഫോണേഷന്‍ തുടങ്ങിയ ഇലക്ട്രോഫിലിക പ്രതിസ്ഥാപന പ്രക്രിയകള്‍ക്ക് വിധേയമാണ്. അമിനോ തയസോളുകള്‍ നൈട്രസ് അമ്ലവുമായി ചേര്‍ന്ന് ഡയസോണിയം ലവണങ്ങള്‍ ഉണ്ടാക്കുന്നു. 

മൂലസംയുക്തമായ തയസോള്‍ (I) പിരിഡീനിനു സമാനമായ ഗന്ധമുള്ളതും ജലത്തില്‍ ലേയവുമായ ഒരു ദ്രാവകമാണ്, തിളനില 117&ordm;. വീര്യം കുറഞ്ഞ ഒരു ക്ഷാരമാണെങ്കിലും (pK<sub>a</sub>= 2.53) അമ്ലവുമായി ലഘു ലവണങ്ങളും ആല്‍ക്കൈലേറ്റ് ചെയ്യുന്ന സംയുക്തങ്ങളുമായി ക്വാര്‍ട്ടര്‍ണറി ലവണ (quarternary salts) ങ്ങളും രൂപീകരിക്കുന്നു. ക്വാര്‍ട്ടര്‍ണറി തയസോളിയം ലവണങ്ങള്‍ അമ്ലങ്ങളില്‍ സ്ഥിരത പ്രദര്‍ശിപ്പിക്കുമെങ്കിലും ക്ഷാരങ്ങളുടെ സാന്നിധ്യത്തില്‍ റിങ് ഘടന വിഘടിക്കുന്നു. തയസോള്‍ റിങ്ങിന്റെ രണ്ടാമത്തെ സ്ഥാനത്തു സ്ഥിതിചെയ്യുന്ന അമിനോ ഗ്രൂപ്പ് ഡയസൊറ്റൈസേഷനു വിധേയമാവുകയും അസോസംയുക്തങ്ങള്‍ ലഭ്യമാക്കുകയും ചെയ്യും. 

'''സംശ്ലേഷണം. &alpha;'''-ഹാലോ കാര്‍ബണൈല്‍ സംയുക്തങ്ങള്‍(V) തയോ അമൈഡുകളുമായി (VI) സംഘനനം ചെയ്താണ് തയസോളുകള്‍ സംശ്ലേഷണം ചെയ്യുന്നത്.
[[Image:p336ccc.png|center]]

'R'ഗ്രൂപ്പുകള്‍ക്ക് അനുസൃതമായി തയസോളുകള്‍ യഥേഷ്ടം സംശ്ലേഷണം ചെയ്യാനാവും. ഏറ്റവും വ്യാപകമായി ഉപയോഗിക്കുന്ന തയോഅമൈഡുകള്‍ (VI) തയോഫോര്‍മമൈഡ് (R<sub>3</sub>= H), തയോയൂറിയ ( R<sub>3</sub>= NH<sub>2</sub>) ഡൈതയോകാര്‍ബമേറ്റ് അയോണ്‍ (R<sub>3</sub>= SH) എന്നിവയാണ്. 

സള്‍ഫാതയസോള്‍ (VIII) വളരെ ഉപയോഗപ്രദമായ ഒരു സള്‍ഫാ മരുന്നാണ്. പാരാ-അസറ്റാമിഡോബെന്‍സീന്‍ സള്‍ഫോണൈല്‍ ക്ലോറൈഡ് (VII) 2 അമിനോതയസോളുമായി ചേര്‍ന്ന് N-അസറ്റിലേറ്റഡ് സള്‍ഫാതയസോള്‍ ഉണ്ടാകുന്നു. ഇതിന്റെ ജലാപഘടനം വഴി സള്‍ഫാതയസോള്‍ (VIII) ഉണ്ടാകുന്നു. 
[[Image:p337aa.png|center]]
ഒരു തയസോള്‍ ഘടകം പിരിമിഡീനുമായി ചേര്‍ന്നാണ് തയാമീന്‍ ഉണ്ടാവുന്നത്. 5-ഹൈഡ്രോക്സി 2-പെന്റനോണിന്റെ &alpha;-ക്ലേറോ വ്യുത്പന്നം (IX) തയോഫോര്‍മമൈഡുമായി സംയോജിച്ചാണ് ഈ തയസോള്‍ ഘടകം ഉണ്ടാകുന്നത്.
[[Image:p337b.png|center]]
&beta;-അമിനോമെര്‍കാപ്റ്റണുകള്‍ ആല്‍ഡിഹൈഡുകളുമായോ കീറ്റോണുകളുമായോ പ്രതിപ്രവര്‍ത്തിച്ചാണ് തയസോളിഡിനുകള്‍ രൂപീകരിക്കുന്നത്. പെനിസിലിനുള്ള തയസോളിഡിന്‍ റിങ് (XI) ഉണ്ടാകുന്നത് ഇപ്രകാരമാണ്.
[[Image:p337c.png|center]]
ഓര്‍ത്തോ-അമിനോ തയോഫീനോള്‍ (XII) കാര്‍ബോക്സിലിക് അമ്ലവുമായി ചേര്‍ന്ന് 2-പ്രതിസ്ഥാപിത ബെന്‍സോതയസോളുകളും (​XIII) കാര്‍ബണ്‍ ഡൈസള്‍ഫൈഡുമായി 2-മെര്‍കാപ്റ്റോ ബെന്‍സോ തയസോളും (XIV) ലഭ്യമാക്കുന്നു.
[[Image:p337d.png|center]]
ബെന്‍സോതയസോള്‍ ഘടകമടങ്ങുന്ന പല ചായവസ്തുക്കളും ഉപയോഗത്തിലുണ്ട്. പാരാ-ഡൈമീതൈല്‍ അമിനോ ബെന്‍സാല്‍ഡിഹൈഡ്, 2-മീതൈല്‍ ബെന്‍സോതയസോളിന്റെ ക്വാട്ടര്‍ണറി ലവണവുമായി പ്രതിപ്രവര്‍ത്തിച്ചാണ് സയനീന്‍ ചായങ്ങള്‍ (cyanine dyes) ഉണ്ടാകുന്നത് (XV).
[[Image:p337e.png|center]]
പാരാ-ടൊളുഡീന്‍, സള്‍ഫറുമായി ചേര്‍ത്ത് ഉരുക്കുമ്പോള്‍ഡീഹൈഡ്രോ-തയോടൊളുഡീനി(XVI)ന്റേയും പ്രൈമുള്ളിന്‍ ചായത്തി(XVII)ന്റേയും മിശ്രിതം ലഭിക്കുന്നു. പ്രൈമുള്ളിന്‍ ചായം സള്‍ഫോണൈറ്റ് ചെയ്ത ശേഷം ഡയസൊറ്റൈസേഷനു വിധേയമാക്കുമ്പോള്‍ പരുത്തി തുണികള്‍ക്ക് അനുയോജ്യമായ മഞ്ഞ ചായം ലഭിക്കുന്നു.
[[Image:p337f.png|center]]
അനിലീന്‍, കാര്‍ബണ്‍ ഡൈസള്‍ഫൈഡും സള്‍ഫറും ആയി ചേര്‍ത്ത് 200-3000&deg;C ചൂടാക്കുമ്പോള്‍ കാപ്റ്റക്സ് അഥവാ 2-മെര്‍കാപ്റ്റോബെന്‍സോതയസോള്‍ ഉണ്ടാകുന്നു. റബര്‍ വള്‍ക്കനൈസ് ചെയ്യുന്ന ത്വരകമായി ഇതുപയോഗിക്കുന്നു.