=തോറിയനൈറ്റ്=

Thorianite 

തോറിയം ഓക്സൈഡ് പ്രധാന ഘടകമായുള്ള ഒരു റേഡിയോ ആക്റ്റീവ് ധാതു. രാസഘടന: ThO<sub>2</sub>. തോറിയനൈറ്റില്‍ 
പലപ്പോഴും മറ്റു ദുര്‍ലഭമൃത്തുക്കളും അടങ്ങിയിട്ടുണ്ടാകും. യുറേനിയത്തിന്റെയും തോറിയത്തിന്റെയും ക്യൂബിക് ക്രിസ്റ്റല്‍ വ്യൂഹത്തില്‍ ചെറിയ ക്യൂബുകളായി ക്രിസ്റ്റലീകരിക്കപ്പെടുന്ന തോറിയനൈറ്റിന് കറുപ്പുനിറമാണ്. ഉയര്‍ന്ന ആപേക്ഷിക ഘനത്വം (9.5), കാഠിന്യം (6.5), റേഡിയോ ആക്റ്റീവത എന്നിവയാണ് തോറിയനൈറ്റിന്റെ  പ്രധാന സവിശേഷതകള്‍. തോറിയനൈറ്റ് ക്രിസ്റ്റലുകള്‍ ഐസോട്രോപികമാണെങ്കിലും ഭാഗികമായി അതാര്യമാണ്.

പെഗ്മറ്റൈറ്റ് ശിലാസഞ്ചയത്തിലാണ് തോറിയനൈറ്റിന്റെ പ്രധാന ഉപസ്ഥിതി നിര്‍ണയിക്കപ്പെട്ടിട്ടുള്ളത്. ശ്രീലങ്കയിലെ ബലാന്‍ഗോഡയില്‍ രത്നങ്ങളോടൊപ്പം തോറിയനൈറ്റ് കാണപ്പെടുന്നു. ബെട്രോക്ക, മഡഗാസ്കര്‍ എന്നിവിടങ്ങളിലും തോറിയനൈറ്റ് നിക്ഷേപം കണ്ടെത്തിയിട്ടുണ്ട്.