=തലമല്ലിക=


തെയ്യം, തിറ തുടങ്ങിയ നാടന്‍കലാരൂപങ്ങളിലെ കേശാലങ്കാരങ്ങളിലൊന്ന്. തലപ്പാളിക്കു മുകളില്‍ കെട്ടുന്ന കേശാലങ്കാരമാണ് തലമല്ലിക. നെറ്റിയില്‍ മുകള്‍ഭാഗത്തായി കെട്ടുന്ന നീണ്ട പട്ടുതുണിയാണ് തലപ്പാളി. തലപ്പാളിയില്‍ ഓടുകൊണ്ടുണ്ടാക്കിയ  21 അലുക്കുകള്‍ ഞാത്തിയിട്ടിരിക്കും. ഇത് കെട്ടിയശേഷം മുകളില്‍ ധരിക്കുന്നതിനു വേണ്ടിയാണ് തലമല്ലിക ഉപയോഗിക്കുന്നത്. ഇതും പട്ടുകൊണ്ടുണ്ടാക്കിയിട്ടുള്ളതാണ്. അലുക്കുകളും മയില്‍പ്പീലിത്തണ്ടും തുന്നിപ്പിടിപ്പിച്ച് ഇത് ആകര്‍ഷകമാക്കുന്നു. തലമല്ലികയ്ക്ക് മല്ലികത്തുണി എന്ന പേരും നിലവിലുണ്ട്. മടേച്ചാമുണ്ഡി തുടങ്ങിയ തെയ്യങ്ങള്‍ക്ക് കുരുത്തോല കൊണ്ടും, വിഷ്ണു മൂര്‍ത്തിക്ക് മരം കൊണ്ടുമാണ് തലമല്ലിക ഉണ്ടാക്കുന്നത്.