=തൊകിവാസു-ബുഷി=
Tokiwazu-bushi

ജാപ്പനീസ് സംഗീതധാരകളില്‍ ഒന്ന്. കബുകി എന്ന പരമ്പരാഗത നാടകത്തിലാണ് ഈ സംഗീതം ഉപയോഗിക്കുന്നത്. ഷാമിസെന്‍ തുടങ്ങിയ പല വാദ്യങ്ങളുടെ അകമ്പടിയോടെയാണ് ഇതിന്റെ അവതരണം. കബുകിയിലെ നൃത്തരംഗങ്ങളില്‍ പശ്ചാത്തലസംഗീതമാക്കിയിരുന്ന 'റിഡയൂ-ബുഷി'യില്‍ നിന്നുമാണ് ഇത് പിറവിയെടുത്തത്. കിയോമോട്ടോ-ബുഷി എന്ന ആലാപനരീതിയില്‍നിന്നു വ്യത്യസ്തമായി 'അനുനാസികാതിപ്രസര'മില്ലാതെ വാക്കുകള്‍ വ്യക്തമാകത്തക്കവിധമുള്ള ആലാപനമാണ് ഇതിലുള്ളത്. കിഷിസാവ ഷികിസ ക (1730-83) സ്ഥാപിച്ച തൊകിവാസു-ബുഷി ഷാമിസെന്‍ പ്രസ്ഥാനമാണ് ഇതിന് പ്രചുരപ്രചാരം നേടിക്കൊടുത്തത്.