=തീസ്യൂസ്=
Theseus

ഗ്രീക്ക് പുരാണകഥാപാത്രം. ആഥന്‍സ് രാജാവായിരുന്ന ഏജിയസിന്റെ മകനാണ് തീസ്യൂസ്. പുരാണകഥപ്രകാരം പ്രായപൂര്‍ത്തിയായ തീസ്യൂസിനെ മാതാവായ എയ് ത്ര ആഥന്‍സിലേക്കയച്ചു. യാത്രാമധ്യേ തീസ്യൂസ് പല സാഹസിക കൃത്യങ്ങളിലും ഏര്‍പ്പെടുന്നു. ഇരയാകുന്നവരെ പൈന്‍മരങ്ങള്‍ക്കിടയില്‍ വലിച്ചു കീറികൊല്ലുന്ന സിനിസിനെ തീസ്യൂസ് വധിക്കുന്നു. ക്രൂരന്മാരായ സ്കിറോണിനേയും പ്രൊക്രസ്റ്റസിനേയും ഇദ്ദേഹം വകവരുത്തുന്നു. 

ആഥന്‍സിലെത്തിയ തീസ്യൂസ് ദുര്‍മന്ത്രവാദിനിയായ മീദിയയാണ് പിതാവിന്റെ പുതിയ പത്നിയെന്നു മനസ്സിലാക്കുന്നു. എങ്കിലും തീസ്യൂസാണ് അടുത്ത കിരീടാവകാശിയെന്ന് ഏജിയസ് പ്രഖ്യാപിക്കുന്നു. പിന്നീട് പല സാഹസിക കൃത്യങ്ങളിലും ഏര്‍പ്പെടുന്ന തീസ്യൂസ് മനുഷ്യന്റേയും കാളയുടേയും രൂപം കലര്‍ന്ന ക്രീറ്റന്‍ മിനോറ്റോറിനെ നേരിടുന്നു. ക്രീറ്റില്‍ നിന്ന് വിജയശ്രീലാളിതനായി തീസ്യൂസ് തിരിച്ചെത്തുമ്പോള്‍ ഒരു തെറ്റിദ്ധാരണ മൂലം ഏജിയസ് ആത്മഹത്യ ചെയ്യുന്നു. രാജാധികാരം ഏറ്റെടുത്ത തീസ്യൂസ് ആറ്റിക് സമൂഹങ്ങളെ സംയോജിപ്പിച്ച് സാമ്രാജ്യം വ്യാപിപ്പിക്കുന്നു. ആമസോണുകള്‍ ആഥന്‍സിനെ ആക്രമിക്കുന്ന അവസരത്തില്‍ തീസ്യൂസ് ഒരു ആമസോണ്‍ രാജകുമാരിയെ പത്നിയാക്കുകയും അവരില്‍ അദ്ദേഹത്തിന് ഹിപ്പോലിറ്റസ് എന്ന മകന്‍ ജനിക്കുകയും ചെയ്യുന്നു.

ആഥന്‍സില്‍ തിരിച്ചെത്തുന്ന തീസ്യൂസിന് മെനസ്ത്യൂസിന്റെ നേതൃത്വത്തിലുളള കലാപത്തെ നേരിടേണ്ടി വരുന്നു. എതിരാളികളെ അടിച്ചമര്‍ത്തുന്നതില്‍ പരാജയപ്പെടുന്ന തീസ്യൂസ് സ്കിറോസിലേക്കു പലായനം ചെയ്യുന്നു. എങ്കിലും സ്കിറോസിലെ രാജാവായ ലൈക്കോമിദസ് ഒരു പാറയുടെ മുകളില്‍ നിന്ന് തീസ്യൂസിനെ കടലിലേക്ക് വലിച്ചെറിഞ്ഞ് ആ വീരസാഹസികന്റെ അന്ത്യം കുറിക്കുന്നു.