=ദീവാന്‍=

Diwan

അറബി കവിതാസമാഹാരത്തിന് പൊതുവേ പറയുന്ന പേര്. ഒരു കവിയുടെയോ ഗോത്രത്തിന്റെയോ എല്ലാത്തരം കവിതകളുംകൂടി ചേരുന്നതാണ് ഒരു ദീവാന്‍. അറബി കവിതാവിഭാഗങ്ങളായ കസീദ, ഗസല്‍, റുബാഈ, കിത്അ തുടങ്ങി എല്ലാത്തരം കവിതകളും ഒരു ദീവാനില്‍ ഉള്‍ ക്കൊള്ളിക്കാറുണ്ട്. കവിതകള്‍ സമാഹരിച്ച് ദീവാന്‍ രൂപത്തിലാക്കുന്നത് സര്‍വസാധാരണമായത് 10-11 ശ.-ങ്ങളിലാണ്. എന്നാല്‍ 13-ാം ശ.-ത്തോടെയാണ് അതിന് നിശ്ചിതമായ ക്രമീകരണമുണ്ടായത്. ഓരോ വിഭാഗത്തിലും പെടുന്ന കവിതകള്‍ ഒരുമിച്ചാക്കിയതും വരിയുടെ (ബൈത്ത്) അവസാന അക്ഷരം കണക്കിലെടുത്ത് അക്ഷരമാലാക്രമത്തില്‍ അടുക്കിത്തുടങ്ങിയതും ഈ കാലഘട്ടത്തിലാണ്. ദീവാനിലെ ഓരോ വിഭാഗവും (ബഹ് ര്‍) വരി അവസാനിക്കുന്ന അക്ഷരം കണക്കിലെടുത്താണ് നാമകരണം ചെയ്യുന്നത്.