
സുനിൽ പി. ഇടയിടം കെ. അജയൻ (കോഴിക്കോടു്) അനിൽ നരിക്കുനി എന്നിവരുമായി നടന്ന അഭിമുഖം.
ആദ്യ പ്രസാധനം: പീപ്പിൾ എഗെൻസ്റ്റ് ഗ്ലോബലൈസേഷൻ (PAG) നവംബർ 2015.

വിമർശകനും പ്രഭാഷകനും. 1968-ൽ ജനിച്ചു. അച്ഛൻ എം. സി. പങ്കജാക്ഷൻ ഇളയിടം. അമ്മ ഡി. രമണീ ദേവി. ഭൗതികശാസ്ത്രത്തിൽ ബിരുദവും മലയാളസാഹിത്യത്തിൽ ബിരുദാനന്തരബിരുദവും. ‘ആധുനികതാവാദത്തിന്റെ രാഷ്ട്രീയ അബോധം’ എന്ന വിഷയത്തിൽ പിഎച്ച്. ഡി. കാലടി ശ്രീശങ്കരാചാര്യ സംസ്കൃത സർവകലാശാലയിൽ മലയാളവിഭാഗം പ്രൊഫസർ.
സാഹിത്യവിമർശനം (അജ്ഞാതവുമായുള്ള അഭിമുഖങ്ങൾ-2011), കലാചരിതം/കലാനിരൂപണം (കൺവഴികൾ കാഴ്ചവട്ടങ്ങൾ-2003, അനുഭൂതികളുടെ ചരിതജീവിതം-2014, ത്യാഗരാജയോഗവൈഭവം-2017, ദേശഭാവനയുടെ ആട്ടപ്രകാരങ്ങൾ-2019), മാർക്സിസം (വീണ്ടെടുപ്പുകൾ: മാർക്സിസവും ആധുനികതാവിമർശനവും-2013, അലയടിക്കുന്ന വാക്കു്-2019), ചരിതം (ചരിതം: പാഠരൂപങ്ങളും പ്രത്യയശാസ്ത്രവും-2004, ഇന്ത്യാചരിത്രവിജ്ഞാനം: ദേശം, ദേശീയത, ദേശചരിതം-2012), സംസ്കാരപഠനം (അധിനിവേശവും ആധുനികതയും-1999, ഉരിയാട്ടം-2007, ദമിതം: ആധുനികതാവിമർശനത്തിന്റെ രാഷ്ട്രീയ അബോധം-2009), ലേഖനങ്ങൾ (നാനാർത്ഥങ്ങൾ: സമുഹം, ചരിത്രം സംസ്കാരം-2016), പുസ്തകപഠനം (വായനാവിചാരം-2017), പ്രഭാഷണം (ആത്മം, അപരം, അധിനിവേശം-2016) എന്നീ മേഖലകളിലായി പതിനഞ്ചു് പുസ്തകങ്ങൾ.
സാഹിത്യവിമർശനത്തിനും വൈജ്ഞാനിക സാഹിത്യത്തിനുമുള്ള കേരളസാഹിത്യഅക്കാദമി അവാർഡ്, കലാവിമർശന മേഖലയിലെ സമഗ്രസംഭാവനയ്ക്കുള്ള കേരള ലളിതകലാ അക്കാദമിയുടെ കേസരി ബാലകൃഷ്ണപിള്ള പുരസ്കാരം, കലാനിരൂപണത്തിനുള്ള കേരള ലളിതകലാ അക്കാദമി അവാർഡ്, പ്രഥമ ചിന്തരവി പുരസ്കാരം, എം. എൻ. വിജയൻ സ്മാരക അവാർഡ്, ഡോ. കെ. എൻ. എഴുത്തച്ഛൻ അവാർഡ്, പവനൻ പുരസ്കാരം, അബുദാബി ശക്തി അവാർഡ്, തായാട്ടു് അവാർഡ്, എസ്. ബി. ടി. അവാർഡ്, പട്ടത്തുവിള അവാർഡ്, ഗുരുദർശന അവാർഡ് തുടങ്ങിയ നിരവധി പുരസ്കാരങ്ങൾ ലഭിച്ചിട്ടുണ്ടു്.
ഭാര്യ: മീന എസ്. മക്കൾ: ജാനകി, മാധവൻ.
