കെ. ജി. എസ്സിനൊപ്പം സായാഹ്ന.
കൊയ്യാറായ വയൽ ആരോ കട്ടു് കൊയ്യുന്നെന്നു്
ദുഃസ്വപ്നം കണ്ടു് ഞെട്ടിയുണർന്നു, തകഴി.
പാതിരാക്കുരകൾ ഉയരുന്നുണ്ടു്.
ടോർച്ചും വടിയും കൂട്ടാളികളും നായ്ക്കുരകളുമായി
പാടത്തേക്കു് പായുമ്പോൾ തകഴി ശങ്കിച്ചു:
വിളിച്ചുണർത്തണോ വള്ളക്കാരനെ?
വിശ്വസിക്കാമോ സ്വപ്നത്തെ?
വന്നറിയിച്ച ദുരന്തമല്ലല്ലോ; സ്വപ്നമല്ലേ?
സ്വപ്നം തന്നെ ഒരു വന്നറിയിക്കലല്ലേ?
അജ്ഞാതത്തിന്റെ സന്ദേശം?
ചരിത്രാതീത ഭാഷയിൽ മനസ്സെഴുതുന്ന
ഭാവിചരിത്രമല്ലേ സ്വപ്നം?
അതോ അരാഷ്ട്രീയത ഉറങ്ങുമ്പോൾ
രാഷ്ട്രീയതയുടെ ഉൾവിളിയോ?
പല സ്വപ്നവും അലസിയ കഥകൾ.
ഉണരാറുണ്ടു് പണ്ടും ഞാൻ ദുഃസ്വപ്നം കണ്ടു്.
എന്നുണരുന്നതും കൂടുതൽ തകഴിയായിട്ടു്;
ഭീമൻകീടമായിട്ടല്ല, ഗ്രിഗർ സാംസ യെപ്പോലെ.
ചെന്നു് കാണാതെ വയ്യെനിക്കുടനെന്റെ
കൊയ്യാറായ വയൽ, ആലസ്യത്തിൽ,
അരണ്ട വെട്ടത്തെച്ചാരിയുറങ്ങുന്നതു്.
ഇതെന്റെ ആധി. എന്റെ ആഗ്രഹം.
വയലെനിക്കയച്ച വിപൽദൂതല്ല
ഈ പേക്കിനാവെന്നാരു് കണ്ടു?
മറ്റുള്ളോരുടെ സ്വപ്നം ഞാൻ വിശ്വസിച്ചു. പല കാലം.
മാർക്സ്, ലെനിൻ, ടോൾസ്റ്റോയ്, ഗോർക്കി, ബൽസാക്ക്,
കേസരി, മോപ്പസാങ്, എന്റെ ഭാര്യ കാത്ത,
കാരൂർ, ഫ്ലാബേർ, ബഷീർ… സ്വപ്നങ്ങൾ.
രണ്ടല്ലായിരുന്നു സ്വപ്നവും ദർശനവുമെനിക്കു്.
വയലിലെത്തിയതും തകഴി ഞെട്ടി:
വയൽ നിറഞ്ഞു് നിൽക്കുന്നതൊരസാധ്യത:
കണ്ടൻ മൂപ്പൻ; പണ്ടേ മരിച്ച വിതക്കാരൻ.
കൃഷിയുടെ ഋഷി.
(എത്ര കണ്ടതാ ഞാനാ കൈയുടെ മാസ്മര വിതമുദ്ര.
ചൂണ്ടുവിരലും തള്ളവിരലും ചേർന്നൊരുക്കുന്ന
വിത്തുവാതിൽ കടന്നു് നെൻമണികൾ വായുവിലുയരും
വിതപ്പാട്ടിലെ വാക്കുകൾ പോലെ ചിറകു് വീശും
കാൽനിമിഷം വായുവിൽ തങ്ങും
ഓരോ വിത്തും വയൽനെഞ്ചിൽ സ്വന്തം ഇടം കാണും
ആ കുളിരിലേക്കു് താണിറങ്ങും.
കണ്ടു് കഴിഞ്ഞും കണ്ണിൽ തുടരും
കണ്ടൻ മൂപ്പന്റെ വിതനടനം.)
കണ്ടൻ മൂപ്പൻ പറഞ്ഞു:
പാടത്തെന്തോ പതിവുകേടു് തോന്നി വക്കീൽ സാറെ;
നോക്കുമ്പോൾ കുഞ്ചിനിലാവു് കുലുക്കി മേയുന്നു
കണ്ടത്തിലൊരു പരദേശി മാന്ത്രികക്കുതിര.
മൂന്നാൾ പൊക്കം, തൂവെള്ള, തീനാവു്…
ഒറ്റയ്ക്കൊരു സൈന്യം.
അല്ല, ആ ചതിക്കുതിരയിൽ നിന്നു്
ലോകത്തേക്കിറങ്ങി മാരകമൊരു
സൈന്യപ്പാതിര. അതു്
മേഞ്ഞിടം തരിശു്.
തുറന്നു് വിട്ടു, കുഴിമാടങ്ങളിൽ നിന്നു്
ഞാനെന്റെ ചാത്തന്മാരെ.
മാഞ്ഞെന്നു് തോന്നിച്ചു മാന്ത്രികക്കുതിര,
മാനത്തേക്കോ മനസ്സിലേക്കോ? കാറ്റിൽ
ബോംബർപ്പുക പോലെ വാലു് നീണ്ടുലഞ്ഞു;
നഗരമായ പോലെന്റെ കണ്ണു് കെട്ടി.
കാഴ്ചയിലിപ്പോൾ പാടം
പീഡിത പോലെ മയക്കത്തിൽ.
ഓക്കാനിക്കുന്നതു് കണ്ണും മൂക്കും പൊള്ളിക്കും
രാസമണം.
കനകവയൽ കാർന്നൊടുക്കുമ്പോൾ
കൊള്ളക്കുതിരയൊലിപ്പിച്ച രാസ ഊറലിൽ
നെല്ലും മീനും ചീവീടും പുൽത്തളിരും ചെറുമഞ്ഞും
നീർക്കോലി, നീർത്തുമ്പിയുമവയുടെ
നേർമൊഴിയും… അടപടലേ
നീറിച്ചീയുമൊരാവാസത്തിൻ നാറ്റം.
കാഴ്ചയിലിപ്പോൾ ശേഷിക്കുന്നതു്
ഉൾക്കനം വാർന്നു്
വളഞ്ഞ നട്ടെല്ലു് പോലെ ചില പതിർക്കുല;
ചുമ്മാ കിലുങ്ങുന്നതു്.
കലിഗ്രഫി: എൻ. ഭട്ടതിരി
ചിത്രങ്ങൾ: വി. ആർ. സന്തോഷ്
—വി. ആർ. സന്തോഷ്
വിത്തുകൾ ഭൂമിയുടെ നട്ടെല്ലിൽ തൊടുമ്പോളാണു് കാമ്പുകൾ മുളയ്ക്കുക. ആ കാമ്പുകളാണു് എല്ലാം ഭേദിക്കുന്ന വിത്തുകൾ ആകുക. വിത്തുകൾ നട്ടെല്ലിലെ രസമെടുത്തു് പാകപ്പെടുന്നതുകൊണ്ടാണു് ദുരന്തങ്ങളെ അതിജീവിക്കുന്നതു്. ആ വിത്തുകൾ ചില നേരങ്ങളിൽ നമ്മുടെ ചാഞ്ചാട്ടങ്ങളെക്കുറിച്ചു് പറയും. നമ്മുടെ ദർശനങ്ങളിലെ വൈരുദ്ധ്യങ്ങളെക്കുറിച്ചു് പറയും. ശരി എന്നു് മാത്രം പറയാതെ എങ്ങനെ ആയി എന്നു് നോക്കിക്കൊണ്ടിരിക്കും. താനൊരിക്കലും ശരിയെന്നു് ഒരിടത്തും പറയില്ല. അഴിച്ചു് മാറ്റി പുതിയ മുറുക്കങ്ങളെ ചേർത്തു് കടമ്പനാട്ടു് കടമ്പില്ലെന്നു പറയുന്ന പോലെ മാറി നിന്നു നോക്കും. ചിലപ്പോൾ കൊച്ചിയിലെ വൃക്ഷങ്ങളിൽ നിന്നു് നോട്ടം പായിച്ചു് ശത്രുതാവളങ്ങൾ കണ്ടെത്തുന്ന മിസൈലുകൾ പോലെ സൂക്ഷ്മമായി കാർട്ടോഗ്രാഫുകൾ അടയാളപ്പെടുത്തും. ആ കാർട്ടോഗ്രാഫുകളിൽ സ്വയം മുഴുകാതെ സ്വന്തം ശീലങ്ങളെ ആക്രമിച്ചിടും. എന്നിട്ടു് തന്നിലെ സൂക്ഷ്മദർശനി വച്ചു് അവ പരിശോധിക്കും. ആ പരിശോധനകളുടെ ദർശന രൂപമാണു് കെ. ജി. എസ്. കവിതകൾ.
നിരന്തരം വിഭജിച്ചു് റൈസോമാറ്റിക്കായി ഏതും ഉൾപ്പെടുത്തുന്ന കെ. ജി. എസിന്റെ കവിതകളിൽ അപ്രത്യക്ഷമായിക്കൊണ്ടിരിക്കുന്ന നമ്മുടെ വേദനകളെ ചിത്രങ്ങളായി റെറ്റിനയിൽ അടയാളപ്പെടുത്തി പിന്നീടു് എടുക്കുന്നതായി കാണാം. ബോദ്രിലാദ് ഇതിനെ ജീവിച്ചിരിക്കുന്നതിന്റെ അടയാളമായി സൂചിപ്പിക്കുന്നുണ്ടു്. ജീവിച്ചിരിക്കുന്നതിന്റെ തെളിവാണു് അപ്രത്യക്ഷമായ അടയാളങ്ങൾ തിരയൽ. അതു് പല രീതിയിലാകാം. പിൻതിരിഞ്ഞു നടന്നാകാം. തന്റെ മുന്നിലുള്ള സമൂഹത്തിന്റെ കണികകൾ എടുത്താകാം. കെ. ജി. എസ്. സമൂഹത്തിന്റെ കണികകൾ എടുത്താണു് അതു ചെയ്യുന്നതു്. അതിൽ നിന്നു് നമ്മുടെ എല്ലാവരുടേയും കാഴ്ച എടുക്കുമെങ്കിലും ‘സ്വപ്നവും ദർശനവും ഒന്നായ ആളെ’പ്പോലെയാണു് വെളിപ്പെടുത്തുക. കെ. ജി. എസിന്റെ ‘തകഴിയും മാന്ത്രിക കുതിര’യുമെടുത്താൽ ഇതു് വ്യക്തമാകും.
ഒരു നാടോടിക്കഥാരൂപത്തിൽ വായിക്കാവുന്ന ഇക്കവിത ചെന്നു ചേരുന്ന ഇടങ്ങൾ വിപുലമായ ജൈവ ബന്ധങ്ങളിലേക്കു്. തകഴി എന്ന വിശ്വപ്രസിദ്ധനായ എഴുത്തുകാരന്റെ സ്വപ്നം, കാർഷിക ബന്ധങ്ങളും കമ്യൂണിസ്റ്റ് ബന്ധങ്ങളുമായി ചേർന്നു കിടക്കുന്നതാണു്. അതോടൊപ്പം കൃഷിയുടെ പശിമയിൽ ജീവിക്കുന്ന ദലിത് ബന്ധങ്ങൾ അതിനേക്കാളും ഉയരത്തിലാണു്. കണ്ടൻ മൂപ്പന്റെ ‘വിതനടനം’ പോലെ മാന്ത്രിക സ്പർശമുള്ളതാണു്. എന്നാൽ ഇതിനെയെല്ലാം ഒറ്റയടിക്കു് ഇല്ലാതാക്കുന്ന കുതിര വരവു് ജൈവ ബന്ധങ്ങളെ തകർക്കാൻ പോന്നതാണു്. എപ്പോഴും ഒളിപ്പിക്കുന്ന ‘സൈന്യപ്പാതിര’യുള്ള കുതിര, മണ്ണിനേയും വിളയേയും അറിയുന്നില്ല. അതു് പാദങ്ങൾ വയ്ക്കുന്നതു തന്നെ നാശത്തിലേക്കാണു്. ഒറ്റ രുചിയിലേക്കും ഓർമ്മകളുടെ തകർക്കലിലേക്കും അതെത്തുന്നു. അതിന്റെ രാസ ഈറൽ എല്ലാറ്റിനേയും നശിപ്പിക്കുന്നു.
ലോകവ്യാപകമായി ജൈവ ബന്ധങ്ങളെ നശിപ്പിക്കുന്ന ഇത്തരം സൈബർ യാന്ത്രികത ചിപ്പ് രൂപത്തിൽ നമ്മളിലെല്ലാം കടന്നു കയറിയിട്ടുണ്ടു്. അധികാരത്തിന്റെ സൂക്ഷ്മ രൂപങ്ങളാണെങ്കിലും അതു് ഉല്പാദിപ്പിക്കുന്നതു് കെ. ജി. എസ്. കവിതയിൽ സൂചിപ്പിക്കുന്നതു പോലെയാണു്. എന്നാൽ പതിർക്കുലപോലെ ചുമ്മാ കിലുങ്ങുന്ന ചില നട്ടെല്ലുകളുടെ കൂടി ചേരലുകൾ സാധിക്കുന്നിടങ്ങൾ നമുക്കു് സാധ്യമാണു്. ഈ നട്ടെല്ലുകൾ വളയാതെ വിതയ്ക്കുമ്പോളാണു് കാമ്പുള്ള വിത്തുകളുണ്ടാകുക. ഇതിലൂടെ കെ. ജി. എസ്. ലോകം അഭിമുഖീകരിക്കുന്ന ഭീഷണമായ മുഖത്തെയാണു കാട്ടിത്തരുന്നതു്.
വളരെ നാളുകൾക്കു മുൻപെഴുതിയ തകഴിയും മാന്ത്രികക്കുതിരയും പുതിയ സാഹചര്യത്തെ മുൻകൂട്ടിക്കണ്ടുവെന്നു പറയുമ്പോൾ അപ്രത്യക്ഷമായവയിൽ സൂക്ഷ്മമായി ദർശിച്ചതുകൊണ്ടാണു്. ‘ഹത്രസ്’ എന്ന കവിതയിലും ഇതുപോലൊരു ദർശന വാക്യം കെ. ജി. എസ്. പ്രയോഗിക്കുന്നുണ്ടു്. ‘സീതാ ജീവൻ’ എന്നാണതു്. അതു് വരും തലമുറ അറിയാനിരിക്കുന്ന കീവേഡാണു്. വാല്മീകി രാമായണത്തിൽ നിന്നും ആശാന്റെ ചിന്താവിഷ്ടയായ സീതയിൽ നിന്നും വെളിച്ചത്തെ ഊറ്റിയെടുത്ത ഒരു കാലഘട്ടത്തെ ഓർക്കുമ്പോൾ സീതാ ജീവൻ നമ്മളിലെ ഒളിയിടങ്ങളെ തെരഞ്ഞുപിടിയ്ക്കും. നമ്മളെ ശൂന്യരാക്കി നിർത്തും. അവിടെ അകത്തെ ‘പൂന്താന’ത്തെ പുറത്തെ ‘ലെനിനാ’ൽ ഒളിപ്പിക്കാൻ കഴിയില്ല. അത്രമാത്രം നാം വിഭജിക്കപ്പെട്ടു കഴിഞ്ഞിരിക്കുന്നു. എല്ലാ ഒളിച്ചുകടത്തലുകളും നമ്മെ വിട്ടകന്നു കഴിഞ്ഞിരിക്കുന്നു. സ്വന്തം ഇടങ്ങളിലെ വ്യസനങ്ങളും വ്യാകുലതകളും അറിയേണ്ടതായി വന്നിരിക്കുന്നു. കലാസൃഷ്ടികളിൽ വർത്തമാനത്തെ പിടിച്ചു വച്ചു് അതിന്റെ പീഢനങ്ങൾ അറിയേണ്ടവരായി മാറിയിരിക്കുന്നു. കെ. ജി. എസിന്റെ കവിതകൾ നേരത്തെ തന്നെ ഇക്കാര്യങ്ങൾ തിരിച്ചറിഞ്ഞിരുന്നു. അതു് ഒന്നും മറച്ചുവയ്ക്കാത്ത കഷണ്ടിക്കാരനെപ്പോലെ സംസാരിച്ചപ്പോൾ നമ്മുടെ കാല്പനികമായ വിമ്മിട്ടങ്ങളിൽ കുടുങ്ങുകയായിരുന്നു നമ്മൾ.
യാഥാർത്ഥ്യങ്ങളെ നോക്കാനുള്ള കണ്ണുകളില്ലെങ്കിൽ പരദേശി മാന്ത്രിക കുതിരകൾ വന്നിറങ്ങി നമ്മുടെ വിഭവങ്ങൾ ഇല്ലാക്കും. വിഭവങ്ങൾ ഇല്ലാത്തവരുടെ നിലനില്പു് എന്തായിരിക്കും? ഈ പ്രതിസന്ധി ജീവിതത്തിലുടനീളം സംഭവിച്ചുകൊണ്ടിരിക്കുകയാണു്. അതിനെ മറികടക്കാൻ സ്വയം വിമർശനവും സ്വയം വിഭവ സമാഹരണവും ആവശ്യമാണു്. ജാഗ്രത ഇല്ലാതെ ഒരടി പോലും മുന്നോട്ടു് വയ്ക്കാനാവില്ല എന്നു് സൂചിപ്പിക്കുന്ന തകഴിയും മാന്ത്രിക കുതിരയും നട്ടെല്ലിന്റെ കരുത്തുള്ള വിത ആവശ്യപ്പെടുന്നു.
ഐസോമോബിക്കായിരിക്കുമ്പോളും അനേക ജനിതക വ്യത്യാസങ്ങളുള്ള ജീവജാലങ്ങളെ തിരിച്ചറിഞ്ഞു് സംരക്ഷിക്കാനുള്ള കടമ ഇന്നു് എല്ലാവർക്കുമുണ്ടെന്ന ബോധ്യവും ഈ കവിത പകരുന്നു. സ്വയം ഒരു വിപ്ലവകാരിയല്ല വിപ്ലവമാകണമെന്ന ജനാധിപത്യ ബോധത്തേയും അടയാളപ്പെടുത്തുന്നു. പതിരിന്റെ കിലുക്കത്തെ നട്ടെല്ലിന്റെ കരുത്തു കൊണ്ടു് നേരിടാൻ കഴിവുള്ള വിത്തായി മാറാനുള്ള ദർശനവും കവിത മുന്നോട്ടുവയ്ക്കുന്നു; പലതിന്റെ വിഭജിത സ്വത്വങ്ങളെ തിരിച്ചറിഞ്ഞു കൊണ്ടു്.

