ജനങ്ങളാണു് ഭാഷ സൃഷ്ടിക്കുന്നതു് എന്നു പറയാറുണ്ടു്. പഴഞ്ചൊല്ലു്, കടംകഥ, ശൈലി, നാടൻപാട്ടു് തുടങ്ങിയവ ജനങ്ങളുടെ സൃഷ്ടിയാണു്; ജനങ്ങൾ ഇപ്പോഴും ഉണ്ടല്ലോ. എന്തുകൊണ്ടാണവർ ഇപ്പോൾ ഭാഷ സൃഷ്ടിക്കാത്തതു്?
ജനങ്ങൾ ഇപ്പോൾ ഭാഷ സൃഷ്ടിക്കുന്നില്ലെന്നാരു പറഞ്ഞു?
വ്യക്തി ഒറ്റയ്ക്കല്ലാതെ, അനേകം വ്യക്തികളുടെ കൂട്ടായ്മയായ സമൂഹം വല്ലതും സൃഷ്ടിക്കുമ്പോൾ അതിനെ ‘സമൂഹസൃഷ്ടി’ എന്നു പറയുന്നു. ഇതിനെത്തന്നെയാണു് ജനങ്ങളുടെ സൃഷ്ടി എന്നു വിളിക്കുന്നതു്. ഈ അടുത്തകാലത്തു് പുതിയ അർത്ഥം കൈവന്ന ചെത്തു്, കത്തിച്ചു, കലക്കി തുടങ്ങിയ പ്രയോഗങ്ങൾ നോക്കുക. ‘ചെത്തു്’ എന്ന വാക്കിനു് മൂർച്ചയുള്ള ആയുധംകൊണ്ടു് കല്ലോ മരമോ മറ്റോ മുറിക്കുക എന്ന അർത്ഥം നിലനില്ക്കെത്തന്നെ ‘ഉല്ലാസപൂർവ്വം ചുറ്റിത്തിരിയുക’ എന്നു് പുതിയൊരർത്ഥം ഉണ്ടായിവന്നിരിക്കുന്നു. കത്തിച്ചു, കലക്കി എന്നിവയ്ക്കു് പഴയ അർത്ഥം നിലനില്ക്കുമ്പോൾത്തന്നെ അതിനു് വിപരീതം എന്നു പറയാവുന്ന വളരെ നന്നായി, ഗംഭീരമായി എന്നീ താൽപര്യങ്ങൾ വന്നുചേർന്നിരിക്കുന്നു. ഉദാഹരണം:
‘അടിപൊളി’ എന്നതു് പുതിയൊരു സമസ്തപദമാണു്—നേരത്തേയുള്ള അടി, പൊളി എന്നീ പദങ്ങൾ ചേർന്നുണ്ടായതു്. അർത്ഥത്തിനു് അടിയുമായോ പൊളിയുമായോ ബന്ധമില്ല. നേരത്തേ ‘തല്ലിപ്പൊളി’യേ ഉള്ളു. ‘അടിപൊളി’യില്ല. തല്ലിപ്പൊളിക്കുള്ളതിന്റെ നേർവിപരീതമാണു് അടിപൊളിയുടെ അർത്ഥം—‘ജോർ’ എന്നു്! ‘അടിപൊളി’ എന്ന വാക്കിനു് രൂപംകൊടുത്തതും മേൽപ്പറഞ്ഞ പദങ്ങൾക്കു് പുതിയ അർത്ഥം കല്പിച്ചതും ഏതെങ്കിലും വ്യക്തിയല്ല, ജനങ്ങളാണു്.
ജനങ്ങൾക്കു് ഭാഷയിലുള്ള സൃഷ്ടിശേഷി വെളിപ്പെടുന്ന വെറെ മേഖലകളുണ്ടു്. ചില മാതൃകകൾ

മലയാളത്തിലെ എഴുത്തുകാരനും ഭാഷാപണ്ഡിതനും സാമൂഹിക നിരീക്ഷകനും. മുഴുവൻ പേരു്: മുഹ്യുദ്ദീൻ നടുക്കണ്ടിയിൽ. കോഴിക്കോട് ജില്ലയിലെ കാരശ്ശേരിയിൽ 1951 ജൂലൈ 2-നു് എൻ. സി. മുഹമ്മദ് ഹാജിയുടെയും കെ. സി. ആയിശക്കുട്ടിയുടെയും മകനായി ജനിച്ചു. കോഴിക്കോട് മാതൃഭൂമിയിൽ സഹപത്രാധിപരായി ജോലി ചെയ്തിട്ടുണ്ടു് (1976–78). 1978-ൽ, കോഴിക്കോട് ഗവൺമെന്റ് ആർട്സ് ആന്റ് സയൻസ് കോളേജ് മലയാള വിഭാഗത്തിൽ അധ്യാപകനായി. തുടർന്ന് കോടഞ്ചേരി ഗവണ്മെന്റ് കോളേജ്, കോഴിക്കോട്, ഗവണ്മെന്റ് ഈവനിങ് കോളേജ് എന്നിവിടങ്ങളിൽ അദ്ധ്യാപകനായിരുന്നു. 1993-ൽ കാലിക്കറ്റ് സർവ്വകലാശാലയിൽ നിന്നു ഡോക്റ്ററേറ്റ് ലഭിച്ചു. 1986 മുതൽ കാലിക്കറ്റ് സർവ്വകലാശാല മലയാളവിഭാഗത്തിൽ അദ്ധ്യാപകനായിരുന്നു. അലീഗഡ് സർവകലാശാലയിലെ പേർഷ്യൻ സ്റ്റഡീസ് വിഭാഗത്തിൽ വിസിറ്റിങ് പ്രഫസറായി പ്രവർത്തിച്ചു.
മാപ്പിള സാഹിത്യം, മാപ്പിള ഫലിതം, മതം, വർഗീയത, മതേതരത്വം, സാഹിത്യം തുടങ്ങിയ വിഷയങ്ങളെ അധികരിച്ചു് ആനുകാലികങ്ങളിലും പത്രങ്ങളിലും ലേഖനങ്ങൾ എഴുതാറുണ്ടു്. എഴുപതിലധികം പുസ്തകങ്ങൾ രചിച്ചിട്ടുണ്ടു്.
ഭാര്യ: ഖദീജ. മക്കൾ: നിശ, ആഷ്ലി, മുഹമ്മദ് ഹാരിസ്. മരുമക്കൾ: ഷാജി, അശ്വതി സേനൻ, റൈഷ. പേരക്കുട്ടികൾ: അസീം, ഹംറാസ്, സൽമ.
